%!PS-Adobe-3.0 EPSF-3.0
%%BoundingBox: (atend)
%%LanguageLevel: 2
%%Creator: Grace-5.1.22
%%CreationDate: Sun Nov 16 02:37:34 2014
%%DocumentData: Clean8Bit
%%Orientation: Portrait
%%Title: fit-gph.agr
%%For: wfr
%%DocumentNeededResources: (atend)
%%EndComments
%%BeginProlog
/m {moveto} def
/l {lineto} def
/s {stroke} def
/n {newpath} def
/c {closepath} def
/RL {rlineto} def
/SLW {setlinewidth} def
/GS {gsave} def
/GR {grestore} def
/SC {setcolor} def
/SGRY {setgray} def
/SRGB {setrgbcolor} def
/SD {setdash} def
/SLC {setlinecap} def
/SLJ {setlinejoin} def
/SCS {setcolorspace} def
/FFSF {findfont setfont} def
/CC {concat} def
/PXL {n m 0 0 RL s} def
/Color0 {1.0000 1.0000 1.0000} def
/Color1 {0.0000 0.0000 0.0000} def
/Color2 {1.0000 0.0000 0.0000} def
/Color3 {0.0000 1.0000 0.0000} def
/Color4 {0.0000 0.0000 1.0000} def
/Color5 {1.0000 1.0000 0.0000} def
/Color6 {0.7373 0.5608 0.5608} def
/Color7 {0.8627 0.8627 0.8627} def
/Color8 {0.5804 0.0000 0.8275} def
/Color9 {0.0000 1.0000 1.0000} def
/Color10 {1.0000 0.0000 1.0000} def
/Color11 {1.0000 0.6471 0.0000} def
/Color12 {0.4471 0.1294 0.7373} def
/Color13 {0.4039 0.0275 0.2824} def
/Color14 {0.2510 0.8784 0.8157} def
/Color15 {0.0000 0.5451 0.0000} def
/PTRN {
 /pat_bits exch def 
 <<
  /PaintType 2
  /PatternType 1 /TilingType 1
  /BBox[0 0 16 16]
  /XStep 16 /YStep 16
  /PaintProc {
   pop
   16 16 true [-1 0 0 -1 16 16] pat_bits imagemask
  }
 >>
 [0.0017 0 0 0.0017 0 0]
 makepattern
} def
/Pattern0 {<0000000000000000000000000000000000000000000000000000000000000000> PTRN} bind def
/Pattern1 {<ffffffffffffffffffffffffffffffffffffffffffffffffffffffffffffffff> PTRN} bind def
/Pattern2 {<eeeeffffbbbbffffeeeeffffbbbbffffeeeeffffbbbbffffeeeeffffbbbbffff> PTRN} bind def
/Pattern3 {<eeeebbbbeeeebbbbeeeebbbbeeeebbbbeeeebbbbeeeebbbbeeeebbbbeeeebbbb> PTRN} bind def
/Pattern4 {<5555aaaa5555aaaa5555aaaa5555aaaa5555aaaa5555aaaa5555aaaa5555aaaa> PTRN} bind def
/Pattern5 {<1111444411114444111144441111444411114444111144441111444411114444> PTRN} bind def
/Pattern6 {<1111000044440000111100004444000011110000444400001111000044440000> PTRN} bind def
/Pattern7 {<1010000000000000010100000000000010100000000000000101000000000000> PTRN} bind def
/Pattern8 {<0000000000000000000000000000000000000000000000000000000000000000> PTRN} bind def
/Pattern9 {<1e1e0f0f8787c3c3e1e1f0f078783c3c1e1e0f0f8787c3c3e1e1f0f078783c3c> PTRN} bind def
/Pattern10 {<7878f0f0e1e1c3c387870f0f1e1e3c3c7878f0f0e1e1c3c387870f0f1e1e3c3c> PTRN} bind def
/Pattern11 {<3333333333333333333333333333333333333333333333333333333333333333> PTRN} bind def
/Pattern12 {<ffffffff00000000ffffffff00000000ffffffff00000000ffffffff00000000> PTRN} bind def
/Pattern13 {<8181424224241818181824244242818181814242242418181818242442428181> PTRN} bind def
/Pattern14 {<8080404020201010080804040202010180804040202010100808040402020101> PTRN} bind def
/Pattern15 {<0101020204040808101020204040808001010202040408081010202040408080> PTRN} bind def
/Pattern16 {<2222222222222222222222222222222222222222222222222222222222222222> PTRN} bind def
/Pattern17 {<0000ffff000000000000ffff000000000000ffff000000000000ffff00000000> PTRN} bind def
/Pattern18 {<2222ffff222222222222ffff222222222222ffff222222222222ffff22222222> PTRN} bind def
/Pattern19 {<ffffffff33333333ffffffff33333333ffffffff33333333ffffffff33333333> PTRN} bind def
/Pattern20 {<0f0f0f0f0f0f0f0ff0f0f0f0f0f0f0f00f0f0f0f0f0f0f0ff0f0f0f0f0f0f0f0> PTRN} bind def
/Pattern21 {<ff00ff00ff00ff00ff00ff00ff00ff0000ff00ff00ff00ff00ff00ff00ff00ff> PTRN} bind def
/Pattern22 {<8001800180018001800180018001ffffffff8001800180018001800180018001> PTRN} bind def
/Pattern23 {<c003c003c003c003c003c003ffffffffffffffffc003c003c003c003c003c003> PTRN} bind def
/Pattern24 {<040404040404ffff404040404040ffff040404040404ffff404040404040ffff> PTRN} bind def
/Pattern25 {<180018001800180018001800ffffffff001800180018001800180018ffffffff> PTRN} bind def
/Pattern26 {<1111b8b87c7c3a3a1111a3a3c7c78b8b1111b8b87c7c3a3a1111a3a3c7c78b8b> PTRN} bind def
/Pattern27 {<101010102828c7c70101010182827c7c101010102828c7c70101010182827c7c> PTRN} bind def
/Pattern28 {<1c1c121211112121c1c12121111112121c1c121211112121c1c1212111111212> PTRN} bind def
/Pattern29 {<3e3e414180808080e3e31414080808083e3e414180808080e3e3141408080808> PTRN} bind def
/Pattern30 {<4848888884848383848488884848383848488888848483838484888848483838> PTRN} bind def
/Pattern31 {<03030404080808080c0c12122121c0c003030404080808080c0c12122121c0c0> PTRN} bind def
/ellipsedict 8 dict def
ellipsedict /mtrx matrix put
/EARC {
 ellipsedict begin
  /endangle exch def
  /startangle exch def
  /yrad exch def
  /xrad exch def
  /y exch def
  /x exch def
  /savematrix mtrx currentmatrix def
  x y translate
  xrad yrad scale
  0 0 1 startangle endangle arc
  savematrix setmatrix
 end
} def
/TL {
  /kcomp exch def
  /linewidth exch def
  /offset exch def
  GS
  0 offset rmoveto
  linewidth SLW
  dup stringwidth exch kcomp add exch RL s
  GR
} def
/KINIT
{
 /kvector exch def
 /kid 0 def
} def
/KPROC
{
 pop pop
 kvector kid get
 0 rmoveto
 /kid 1 kid add def
} def
/DefEncoding [
 /.notdef
 /.notdef
 /.notdef
 /.notdef
 /.notdef
 /.notdef
 /.notdef
 /.notdef
 /.notdef
 /.notdef
 /.notdef
 /.notdef
 /.notdef
 /.notdef
 /.notdef
 /.notdef
 /.notdef
 /.notdef
 /.notdef
 /.notdef
 /.notdef
 /.notdef
 /.notdef
 /.notdef
 /.notdef
 /.notdef
 /.notdef
 /.notdef
 /.notdef
 /.notdef
 /.notdef
 /.notdef
 /space
 /exclam
 /quotedbl
 /numbersign
 /dollar
 /percent
 /ampersand
 /quoteright
 /parenleft
 /parenright
 /asterisk
 /plus
 /comma
 /hyphen
 /period
 /slash
 /zero
 /one
 /two
 /three
 /four
 /five
 /six
 /seven
 /eight
 /nine
 /colon
 /semicolon
 /less
 /equal
 /greater
 /question
 /at
 /A
 /B
 /C
 /D
 /E
 /F
 /G
 /H
 /I
 /J
 /K
 /L
 /M
 /N
 /O
 /P
 /Q
 /R
 /S
 /T
 /U
 /V
 /W
 /X
 /Y
 /Z
 /bracketleft
 /backslash
 /bracketright
 /asciicircum
 /underscore
 /grave
 /a
 /b
 /c
 /d
 /e
 /f
 /g
 /h
 /i
 /j
 /k
 /l
 /m
 /n
 /o
 /p
 /q
 /r
 /s
 /t
 /u
 /v
 /w
 /x
 /y
 /z
 /braceleft
 /bar
 /braceright
 /asciitilde
 /.notdef
 /.notdef
 /.notdef
 /.notdef
 /.notdef
 /.notdef
 /.notdef
 /.notdef
 /.notdef
 /.notdef
 /.notdef
 /.notdef
 /.notdef
 /.notdef
 /.notdef
 /.notdef
 /.notdef
 /.notdef
 /.notdef
 /.notdef
 /.notdef
 /.notdef
 /.notdef
 /.notdef
 /.notdef
 /.notdef
 /.notdef
 /.notdef
 /.notdef
 /.notdef
 /.notdef
 /.notdef
 /.notdef
 /space
 /exclamdown
 /cent
 /sterling
 /currency
 /yen
 /brokenbar
 /section
 /dieresis
 /copyright
 /ordfeminine
 /guillemotleft
 /logicalnot
 /hyphen
 /registered
 /macron
 /degree
 /plusminus
 /twosuperior
 /threesuperior
 /acute
 /mu
 /paragraph
 /periodcentered
 /cedilla
 /onesuperior
 /ordmasculine
 /guillemotright
 /onequarter
 /onehalf
 /threequarters
 /questiondown
 /Agrave
 /Aacute
 /Acircumflex
 /Atilde
 /Adieresis
 /Aring
 /AE
 /Ccedilla
 /Egrave
 /Eacute
 /Ecircumflex
 /Edieresis
 /Igrave
 /Iacute
 /Icircumflex
 /Idieresis
 /Eth
 /Ntilde
 /Ograve
 /Oacute
 /Ocircumflex
 /Otilde
 /Odieresis
 /multiply
 /Oslash
 /Ugrave
 /Uacute
 /Ucircumflex
 /Udieresis
 /Yacute
 /Thorn
 /germandbls
 /agrave
 /aacute
 /acircumflex
 /atilde
 /adieresis
 /aring
 /ae
 /ccedilla
 /egrave
 /eacute
 /ecircumflex
 /edieresis
 /igrave
 /iacute
 /icircumflex
 /idieresis
 /eth
 /ntilde
 /ograve
 /oacute
 /ocircumflex
 /otilde
 /odieresis
 /divide
 /oslash
 /ugrave
 /uacute
 /ucircumflex
 /udieresis
 /yacute
 /thorn
 /ydieresis
] def
%%EndProlog
%%BeginSetup
%%EndSetup
600.00 600.00 scale
n
0.0000 0.0000 m
0.0000 1.0000 l
1.2884 1.0000 l
1.2884 0.0000 l
c
[/DeviceRGB] SCS
Color0 SC
fill
[/DeviceRGB] SCS
Color1 SC
[] 0 SD
0.0015 SLW
0 SLC
0 SLJ
n
1.0137 0.8302 m
1.0137 0.8501 l
s
n
1.0137 0.8302 m
1.0137 0.7815 l
s
n
1.0237 0.7815 m
1.0037 0.7815 l
s
n
0.9083 0.7444 m
0.9083 0.7918 l
s
n
0.8983 0.7918 m
0.9183 0.7918 l
s
n
0.9083 0.7444 m
0.9083 0.6969 l
s
n
0.9183 0.6969 m
0.8983 0.6969 l
s
n
0.8600 0.7009 m
0.8600 0.7477 l
s
n
0.8500 0.7477 m
0.8700 0.7477 l
s
n
0.8600 0.7009 m
0.8600 0.6541 l
s
n
0.8700 0.6541 m
0.8500 0.6541 l
s
n
0.8161 0.6746 m
0.8161 0.7209 l
s
n
0.8061 0.7209 m
0.8261 0.7209 l
s
n
0.8161 0.6746 m
0.8161 0.6282 l
s
n
0.8261 0.6282 m
0.8061 0.6282 l
s
n
0.7744 0.6212 m
0.7744 0.6668 l
s
n
0.7644 0.6668 m
0.7844 0.6668 l
s
n
0.7744 0.6212 m
0.7744 0.5756 l
s
n
0.7844 0.5756 m
0.7644 0.5756 l
s
n
0.7393 0.6117 m
0.7393 0.6571 l
s
n
0.7293 0.6571 m
0.7493 0.6571 l
s
n
0.7393 0.6117 m
0.7393 0.5662 l
s
n
0.7493 0.5662 m
0.7293 0.5662 l
s
n
0.7074 0.5807 m
0.7074 0.6257 l
s
n
0.6974 0.6257 m
0.7174 0.6257 l
s
n
0.7074 0.5807 m
0.7074 0.5357 l
s
n
0.7174 0.5357 m
0.6974 0.5357 l
s
n
0.6734 0.5594 m
0.6734 0.6041 l
s
n
0.6634 0.6041 m
0.6834 0.6041 l
s
n
0.6734 0.5594 m
0.6734 0.5147 l
s
n
0.6834 0.5147 m
0.6634 0.5147 l
s
n
0.6273 0.5079 m
0.6273 0.5519 l
s
n
0.6173 0.5519 m
0.6373 0.5519 l
s
n
0.6273 0.5079 m
0.6273 0.4640 l
s
n
0.6373 0.4640 m
0.6173 0.4640 l
s
n
0.5680 0.4587 m
0.5680 0.5019 l
s
n
0.5580 0.5019 m
0.5780 0.5019 l
s
n
0.5680 0.4587 m
0.5680 0.4154 l
s
n
0.5780 0.4154 m
0.5580 0.4154 l
s
n
0.5087 0.4089 m
0.5087 0.4514 l
s
n
0.4987 0.4514 m
0.5187 0.4514 l
s
n
0.5087 0.4089 m
0.5087 0.3664 l
s
n
0.5187 0.3664 m
0.4987 0.3664 l
s
n
0.3957 0.3118 m
0.3957 0.3530 l
s
n
0.3857 0.3530 m
0.4057 0.3530 l
s
n
0.3957 0.3118 m
0.3957 0.2707 l
s
n
0.4057 0.2707 m
0.3857 0.2707 l
s
n
0.3463 0.2633 m
0.3463 0.3038 l
s
n
0.3363 0.3038 m
0.3563 0.3038 l
s
n
0.3463 0.2633 m
0.3463 0.2229 l
s
n
0.3563 0.2229 m
0.3363 0.2229 l
s
n
0.2892 0.2381 m
0.2892 0.2782 l
s
n
0.2792 0.2782 m
0.2992 0.2782 l
s
n
0.2892 0.2381 m
0.2892 0.1980 l
s
n
0.2992 0.1980 m
0.2792 0.1980 l
s
n
0.2101 0.1697 m
0.2101 0.2089 l
s
n
0.2001 0.2089 m
0.2201 0.2089 l
s
n
0.2101 0.1697 m
0.2101 0.1499 l
s
n
0.2079 0.1721 m
0.2079 0.2113 l
s
n
0.1979 0.2113 m
0.2179 0.2113 l
s
n
0.2079 0.1721 m
0.2079 0.1499 l
s
[] 0 SD
0.0030 SLW
n 1.0137 0.8302 0.0100 0.0100 0 360 EARC s
n 0.9083 0.7444 0.0100 0.0100 0 360 EARC s
n 0.8600 0.7009 0.0100 0.0100 0 360 EARC s
n 0.8161 0.6746 0.0100 0.0100 0 360 EARC s
n 0.7744 0.6212 0.0100 0.0100 0 360 EARC s
n 0.7393 0.6117 0.0100 0.0100 0 360 EARC s
n 0.7074 0.5807 0.0100 0.0100 0 360 EARC s
n 0.6734 0.5594 0.0100 0.0100 0 360 EARC s
n 0.6273 0.5079 0.0100 0.0100 0 360 EARC s
n 0.5680 0.4587 0.0100 0.0100 0 360 EARC s
n 0.5087 0.4089 0.0100 0.0100 0 360 EARC s
n 0.3957 0.3118 0.0100 0.0100 0 360 EARC s
n 0.3463 0.2633 0.0100 0.0100 0 360 EARC s
n 0.2892 0.2381 0.0100 0.0100 0 360 EARC s
n 0.2101 0.1697 0.0100 0.0100 0 360 EARC s
n 0.2079 0.1721 0.0100 0.0100 0 360 EARC s
[/DeviceRGB] SCS
Color2 SC
[] 0 SD
0.0015 SLW
n
0.2045 0.1499 m
0.2092 0.1540 l
0.2178 0.1617 l
0.2264 0.1694 l
0.2351 0.1771 l
0.2437 0.1848 l
0.2524 0.1924 l
0.2610 0.2001 l
0.2696 0.2077 l
0.2783 0.2153 l
0.2869 0.2229 l
0.2955 0.2305 l
0.3042 0.2381 l
0.3128 0.2457 l
0.3215 0.2533 l
0.3301 0.2609 l
0.3387 0.2684 l
0.3474 0.2760 l
0.3560 0.2835 l
0.3646 0.2910 l
0.3733 0.2985 l
0.3819 0.3060 l
0.3906 0.3135 l
0.3992 0.3210 l
0.4078 0.3285 l
0.4165 0.3360 l
0.4251 0.3434 l
0.4337 0.3509 l
0.4424 0.3583 l
0.4510 0.3657 l
0.4597 0.3732 l
0.4683 0.3806 l
0.4769 0.3880 l
0.4856 0.3954 l
0.4942 0.4028 l
0.5028 0.4101 l
0.5115 0.4175 l
0.5201 0.4249 l
0.5288 0.4322 l
0.5374 0.4395 l
0.5460 0.4469 l
0.5547 0.4542 l
0.5633 0.4615 l
0.5720 0.4688 l
0.5806 0.4761 l
0.5892 0.4834 l
0.5979 0.4907 l
0.6065 0.4979 l
0.6151 0.5052 l
0.6238 0.5124 l
0.6324 0.5197 l
0.6411 0.5269 l
0.6497 0.5341 l
0.6583 0.5413 l
0.6670 0.5485 l
0.6756 0.5557 l
0.6842 0.5629 l
0.6929 0.5701 l
0.7015 0.5773 l
0.7102 0.5845 l
0.7188 0.5916 l
0.7274 0.5988 l
0.7361 0.6059 l
0.7447 0.6130 l
0.7533 0.6201 l
0.7620 0.6273 l
0.7706 0.6344 l
0.7793 0.6415 l
0.7879 0.6486 l
0.7965 0.6556 l
0.8052 0.6627 l
0.8138 0.6698 l
0.8224 0.6768 l
0.8311 0.6839 l
0.8397 0.6909 l
0.8484 0.6980 l
0.8570 0.7050 l
0.8656 0.7120 l
0.8743 0.7190 l
0.8829 0.7260 l
0.8916 0.7330 l
0.9002 0.7400 l
0.9088 0.7470 l
0.9175 0.7539 l
0.9261 0.7609 l
0.9347 0.7679 l
0.9434 0.7748 l
0.9520 0.7818 l
0.9607 0.7887 l
0.9693 0.7956 l
0.9779 0.8025 l
0.9866 0.8094 l
0.9952 0.8163 l
1.0039 0.8232 l
1.0125 0.8301 l
1.0211 0.8370 l
1.0298 0.8439 l
1.0375 0.8501 l
s
[/DeviceRGB] SCS
Color1 SC
[] 0 SD
0.0030 SLW
n
0.2045 0.1499 m
0.2092 0.1540 l
0.2178 0.1617 l
0.2264 0.1694 l
0.2351 0.1771 l
0.2437 0.1848 l
0.2524 0.1924 l
0.2610 0.2001 l
0.2696 0.2077 l
0.2783 0.2153 l
0.2869 0.2229 l
0.2955 0.2305 l
0.3042 0.2381 l
0.3128 0.2457 l
0.3215 0.2533 l
0.3301 0.2609 l
0.3387 0.2684 l
0.3474 0.2760 l
0.3560 0.2835 l
0.3646 0.2910 l
0.3733 0.2985 l
0.3819 0.3060 l
0.3906 0.3135 l
0.3992 0.3210 l
0.4078 0.3285 l
0.4165 0.3360 l
0.4251 0.3434 l
0.4337 0.3509 l
0.4424 0.3583 l
0.4510 0.3657 l
0.4597 0.3732 l
0.4683 0.3806 l
0.4769 0.3880 l
0.4856 0.3954 l
0.4942 0.4028 l
0.5028 0.4101 l
0.5115 0.4175 l
0.5201 0.4249 l
0.5288 0.4322 l
0.5374 0.4395 l
0.5460 0.4469 l
0.5547 0.4542 l
0.5633 0.4615 l
0.5720 0.4688 l
0.5806 0.4761 l
0.5892 0.4834 l
0.5979 0.4907 l
0.6065 0.4979 l
0.6151 0.5052 l
0.6238 0.5124 l
0.6324 0.5197 l
0.6411 0.5269 l
0.6497 0.5341 l
0.6583 0.5413 l
0.6670 0.5485 l
0.6756 0.5557 l
0.6842 0.5629 l
0.6929 0.5701 l
0.7015 0.5773 l
0.7102 0.5845 l
0.7188 0.5916 l
0.7274 0.5988 l
0.7361 0.6059 l
0.7447 0.6130 l
0.7533 0.6201 l
0.7620 0.6273 l
0.7706 0.6344 l
0.7793 0.6415 l
0.7879 0.6486 l
0.7965 0.6556 l
0.8052 0.6627 l
0.8138 0.6698 l
0.8224 0.6768 l
0.8311 0.6839 l
0.8397 0.6909 l
0.8484 0.6980 l
0.8570 0.7050 l
0.8656 0.7120 l
0.8743 0.7190 l
0.8829 0.7260 l
0.8916 0.7330 l
0.9002 0.7400 l
0.9088 0.7470 l
0.9175 0.7539 l
0.9261 0.7609 l
0.9347 0.7679 l
0.9434 0.7748 l
0.9520 0.7818 l
0.9607 0.7887 l
0.9693 0.7956 l
0.9779 0.8025 l
0.9866 0.8094 l
0.9952 0.8163 l
1.0039 0.8232 l
1.0125 0.8301 l
1.0211 0.8370 l
1.0298 0.8439 l
1.0375 0.8501 l
s
n
0.2546 0.1500 m
0.2546 0.1700 l
s
n
0.2546 0.8500 m
0.2546 0.8300 l
s
n
0.3644 0.1500 m
0.3644 0.1700 l
s
n
0.3644 0.8500 m
0.3644 0.8300 l
s
n
0.4742 0.1500 m
0.4742 0.1700 l
s
n
0.4742 0.8500 m
0.4742 0.8300 l
s
n
0.5839 0.1500 m
0.5839 0.1700 l
s
n
0.5839 0.8500 m
0.5839 0.8300 l
s
n
0.6937 0.1500 m
0.6937 0.1700 l
s
n
0.6937 0.8500 m
0.6937 0.8300 l
s
n
0.8035 0.1500 m
0.8035 0.1700 l
s
n
0.8035 0.8500 m
0.8035 0.8300 l
s
n
0.9133 0.1500 m
0.9133 0.1700 l
s
n
0.9133 0.8500 m
0.9133 0.8300 l
s
n
1.0230 0.1500 m
1.0230 0.1700 l
s
n
1.0230 0.8500 m
1.0230 0.8300 l
s
n
0.1997 0.1500 m
0.1997 0.1800 l
s
n
0.1997 0.8500 m
0.1997 0.8200 l
s
n
0.3095 0.1500 m
0.3095 0.1800 l
s
n
0.3095 0.8500 m
0.3095 0.8200 l
s
n
0.4193 0.1500 m
0.4193 0.1800 l
s
n
0.4193 0.8500 m
0.4193 0.8200 l
s
n
0.5290 0.1500 m
0.5290 0.1800 l
s
n
0.5290 0.8500 m
0.5290 0.8200 l
s
n
0.6388 0.1500 m
0.6388 0.1800 l
s
n
0.6388 0.8500 m
0.6388 0.8200 l
s
n
0.7486 0.1500 m
0.7486 0.1800 l
s
n
0.7486 0.8500 m
0.7486 0.8200 l
s
n
0.8584 0.1500 m
0.8584 0.1800 l
s
n
0.8584 0.8500 m
0.8584 0.8200 l
s
n
0.9681 0.1500 m
0.9681 0.1800 l
s
n
0.9681 0.8500 m
0.9681 0.8200 l
s
/Helvetica findfont
dup length dict begin
 {1 index /FID ne {def} {pop pop} ifelse} forall
 /Encoding DefEncoding def
 currentdict
end
/Font12 exch definefont pop
/Font12 FFSF
0.1655 0.1104 m
GS
[0.0420 0.0000 0.0000 0.0420 0 0] CC
(290) show
GR
/Font12 FFSF
0.2753 0.1104 m
GS
[0.0420 0.0000 0.0000 0.0420 0 0] CC
(300) show
GR
/Font12 FFSF
0.3851 0.1104 m
GS
[0.0420 0.0000 0.0000 0.0420 0 0] CC
(310) show
GR
/Font12 FFSF
0.4948 0.1104 m
GS
[0.0420 0.0000 0.0000 0.0420 0 0] CC
(320) show
GR
/Font12 FFSF
0.6046 0.1104 m
GS
[0.0420 0.0000 0.0000 0.0420 0 0] CC
(330) show
GR
/Font12 FFSF
0.7144 0.1104 m
GS
[0.0420 0.0000 0.0000 0.0420 0 0] CC
(340) show
GR
/Font12 FFSF
0.8242 0.1104 m
GS
[0.0420 0.0000 0.0000 0.0420 0 0] CC
(350) show
GR
/Font12 FFSF
0.9339 0.1104 m
GS
[0.0420 0.0000 0.0000 0.0420 0 0] CC
(360) show
GR
/Font12 FFSF
0.5784 0.0688 m
GS
[0.0420 0.0000 0.0000 0.0420 0 0] CC
(T/K) show
GR
n
0.1832 0.2042 m
0.2032 0.2042 l
s
n
1.0384 0.2042 m
1.0184 0.2042 l
s
n
0.1832 0.3707 m
0.2032 0.3707 l
s
n
1.0384 0.3707 m
1.0184 0.3707 l
s
n
0.1832 0.5372 m
0.2032 0.5372 l
s
n
1.0384 0.5372 m
1.0184 0.5372 l
s
n
0.1832 0.7037 m
0.2032 0.7037 l
s
n
1.0384 0.7037 m
1.0184 0.7037 l
s
n
0.1832 0.2875 m
0.2132 0.2875 l
s
n
1.0384 0.2875 m
1.0084 0.2875 l
s
n
0.1832 0.4540 m
0.2132 0.4540 l
s
n
1.0384 0.4540 m
1.0084 0.4540 l
s
n
0.1832 0.6204 m
0.2132 0.6204 l
s
n
1.0384 0.6204 m
1.0084 0.6204 l
s
n
0.1832 0.7869 m
0.2132 0.7869 l
s
n
1.0384 0.7869 m
1.0084 0.7869 l
s
/Font12 FFSF
0.0700 0.2731 m
GS
[0.0420 0.0000 0.0000 0.0420 0 0] CC
(350.0) show
GR
/Font12 FFSF
0.0700 0.4396 m
GS
[0.0420 0.0000 0.0000 0.0420 0 0] CC
(360.0) show
GR
/Font12 FFSF
0.0700 0.6060 m
GS
[0.0420 0.0000 0.0000 0.0420 0 0] CC
(370.0) show
GR
/Font12 FFSF
0.0700 0.7725 m
GS
[0.0420 0.0000 0.0000 0.0420 0 0] CC
(380.0) show
GR
/Font12 FFSF
0.0592 0.4398 m
GS
[0.0000 0.0420 -0.0420 0.0000 0 0] CC
(v/m s) show
GR
/Font12 FFSF
0.0340 0.5402 m
GS
[0.0000 0.0297 -0.0297 0.0000 0 0] CC
(-1) show
GR
n
0.1832 0.1500 m
0.1832 0.8500 l
1.0384 0.8500 l
1.0384 0.1500 l
0.1832 0.1500 l
c
s
%%Trailer
%%BoundingBox: 6 39 625 512
%%DocumentNeededResources: font Helvetica
%%EOF
