%!PS-Adobe-3.0 EPSF-3.0
%%BoundingBox: (atend)
%%LanguageLevel: 2
%%Creator: Grace-5.1.22
%%CreationDate: Wed Oct 15 22:56:20 2014
%%DocumentData: Clean8Bit
%%Orientation: Portrait
%%Title: fit-gph-3.agr
%%For: wfr
%%DocumentNeededResources: (atend)
%%EndComments
%%BeginProlog
/m {moveto} def
/l {lineto} def
/s {stroke} def
/n {newpath} def
/c {closepath} def
/RL {rlineto} def
/SLW {setlinewidth} def
/GS {gsave} def
/GR {grestore} def
/SC {setcolor} def
/SGRY {setgray} def
/SRGB {setrgbcolor} def
/SD {setdash} def
/SLC {setlinecap} def
/SLJ {setlinejoin} def
/SCS {setcolorspace} def
/FFSF {findfont setfont} def
/CC {concat} def
/PXL {n m 0 0 RL s} def
/Color0 {1.0000 1.0000 1.0000} def
/Color1 {0.0000 0.0000 0.0000} def
/Color2 {1.0000 0.0000 0.0000} def
/Color3 {0.0000 1.0000 0.0000} def
/Color4 {0.0000 0.0000 1.0000} def
/Color5 {1.0000 1.0000 0.0000} def
/Color6 {0.7373 0.5608 0.5608} def
/Color7 {0.8627 0.8627 0.8627} def
/Color8 {0.5804 0.0000 0.8275} def
/Color9 {0.0000 1.0000 1.0000} def
/Color10 {1.0000 0.0000 1.0000} def
/Color11 {1.0000 0.6471 0.0000} def
/Color12 {0.4471 0.1294 0.7373} def
/Color13 {0.4039 0.0275 0.2824} def
/Color14 {0.2510 0.8784 0.8157} def
/Color15 {0.0000 0.5451 0.0000} def
/PTRN {
 /pat_bits exch def 
 <<
  /PaintType 2
  /PatternType 1 /TilingType 1
  /BBox[0 0 16 16]
  /XStep 16 /YStep 16
  /PaintProc {
   pop
   16 16 true [-1 0 0 -1 16 16] pat_bits imagemask
  }
 >>
 [0.0017 0 0 0.0017 0 0]
 makepattern
} def
/Pattern0 {<0000000000000000000000000000000000000000000000000000000000000000> PTRN} bind def
/Pattern1 {<ffffffffffffffffffffffffffffffffffffffffffffffffffffffffffffffff> PTRN} bind def
/Pattern2 {<eeeeffffbbbbffffeeeeffffbbbbffffeeeeffffbbbbffffeeeeffffbbbbffff> PTRN} bind def
/Pattern3 {<eeeebbbbeeeebbbbeeeebbbbeeeebbbbeeeebbbbeeeebbbbeeeebbbbeeeebbbb> PTRN} bind def
/Pattern4 {<5555aaaa5555aaaa5555aaaa5555aaaa5555aaaa5555aaaa5555aaaa5555aaaa> PTRN} bind def
/Pattern5 {<1111444411114444111144441111444411114444111144441111444411114444> PTRN} bind def
/Pattern6 {<1111000044440000111100004444000011110000444400001111000044440000> PTRN} bind def
/Pattern7 {<1010000000000000010100000000000010100000000000000101000000000000> PTRN} bind def
/Pattern8 {<0000000000000000000000000000000000000000000000000000000000000000> PTRN} bind def
/Pattern9 {<1e1e0f0f8787c3c3e1e1f0f078783c3c1e1e0f0f8787c3c3e1e1f0f078783c3c> PTRN} bind def
/Pattern10 {<7878f0f0e1e1c3c387870f0f1e1e3c3c7878f0f0e1e1c3c387870f0f1e1e3c3c> PTRN} bind def
/Pattern11 {<3333333333333333333333333333333333333333333333333333333333333333> PTRN} bind def
/Pattern12 {<ffffffff00000000ffffffff00000000ffffffff00000000ffffffff00000000> PTRN} bind def
/Pattern13 {<8181424224241818181824244242818181814242242418181818242442428181> PTRN} bind def
/Pattern14 {<8080404020201010080804040202010180804040202010100808040402020101> PTRN} bind def
/Pattern15 {<0101020204040808101020204040808001010202040408081010202040408080> PTRN} bind def
/Pattern16 {<2222222222222222222222222222222222222222222222222222222222222222> PTRN} bind def
/Pattern17 {<0000ffff000000000000ffff000000000000ffff000000000000ffff00000000> PTRN} bind def
/Pattern18 {<2222ffff222222222222ffff222222222222ffff222222222222ffff22222222> PTRN} bind def
/Pattern19 {<ffffffff33333333ffffffff33333333ffffffff33333333ffffffff33333333> PTRN} bind def
/Pattern20 {<0f0f0f0f0f0f0f0ff0f0f0f0f0f0f0f00f0f0f0f0f0f0f0ff0f0f0f0f0f0f0f0> PTRN} bind def
/Pattern21 {<ff00ff00ff00ff00ff00ff00ff00ff0000ff00ff00ff00ff00ff00ff00ff00ff> PTRN} bind def
/Pattern22 {<8001800180018001800180018001ffffffff8001800180018001800180018001> PTRN} bind def
/Pattern23 {<c003c003c003c003c003c003ffffffffffffffffc003c003c003c003c003c003> PTRN} bind def
/Pattern24 {<040404040404ffff404040404040ffff040404040404ffff404040404040ffff> PTRN} bind def
/Pattern25 {<180018001800180018001800ffffffff001800180018001800180018ffffffff> PTRN} bind def
/Pattern26 {<1111b8b87c7c3a3a1111a3a3c7c78b8b1111b8b87c7c3a3a1111a3a3c7c78b8b> PTRN} bind def
/Pattern27 {<101010102828c7c70101010182827c7c101010102828c7c70101010182827c7c> PTRN} bind def
/Pattern28 {<1c1c121211112121c1c12121111112121c1c121211112121c1c1212111111212> PTRN} bind def
/Pattern29 {<3e3e414180808080e3e31414080808083e3e414180808080e3e3141408080808> PTRN} bind def
/Pattern30 {<4848888884848383848488884848383848488888848483838484888848483838> PTRN} bind def
/Pattern31 {<03030404080808080c0c12122121c0c003030404080808080c0c12122121c0c0> PTRN} bind def
/ellipsedict 8 dict def
ellipsedict /mtrx matrix put
/EARC {
 ellipsedict begin
  /endangle exch def
  /startangle exch def
  /yrad exch def
  /xrad exch def
  /y exch def
  /x exch def
  /savematrix mtrx currentmatrix def
  x y translate
  xrad yrad scale
  0 0 1 startangle endangle arc
  savematrix setmatrix
 end
} def
/TL {
  /kcomp exch def
  /linewidth exch def
  /offset exch def
  GS
  0 offset rmoveto
  linewidth SLW
  dup stringwidth exch kcomp add exch RL s
  GR
} def
/KINIT
{
 /kvector exch def
 /kid 0 def
} def
/KPROC
{
 pop pop
 kvector kid get
 0 rmoveto
 /kid 1 kid add def
} def
/DefEncoding [
 /.notdef
 /.notdef
 /.notdef
 /.notdef
 /.notdef
 /.notdef
 /.notdef
 /.notdef
 /.notdef
 /.notdef
 /.notdef
 /.notdef
 /.notdef
 /.notdef
 /.notdef
 /.notdef
 /.notdef
 /.notdef
 /.notdef
 /.notdef
 /.notdef
 /.notdef
 /.notdef
 /.notdef
 /.notdef
 /.notdef
 /.notdef
 /.notdef
 /.notdef
 /.notdef
 /.notdef
 /.notdef
 /space
 /exclam
 /quotedbl
 /numbersign
 /dollar
 /percent
 /ampersand
 /quoteright
 /parenleft
 /parenright
 /asterisk
 /plus
 /comma
 /hyphen
 /period
 /slash
 /zero
 /one
 /two
 /three
 /four
 /five
 /six
 /seven
 /eight
 /nine
 /colon
 /semicolon
 /less
 /equal
 /greater
 /question
 /at
 /A
 /B
 /C
 /D
 /E
 /F
 /G
 /H
 /I
 /J
 /K
 /L
 /M
 /N
 /O
 /P
 /Q
 /R
 /S
 /T
 /U
 /V
 /W
 /X
 /Y
 /Z
 /bracketleft
 /backslash
 /bracketright
 /asciicircum
 /underscore
 /grave
 /a
 /b
 /c
 /d
 /e
 /f
 /g
 /h
 /i
 /j
 /k
 /l
 /m
 /n
 /o
 /p
 /q
 /r
 /s
 /t
 /u
 /v
 /w
 /x
 /y
 /z
 /braceleft
 /bar
 /braceright
 /asciitilde
 /.notdef
 /.notdef
 /.notdef
 /.notdef
 /.notdef
 /.notdef
 /.notdef
 /.notdef
 /.notdef
 /.notdef
 /.notdef
 /.notdef
 /.notdef
 /.notdef
 /.notdef
 /.notdef
 /.notdef
 /.notdef
 /.notdef
 /.notdef
 /.notdef
 /.notdef
 /.notdef
 /.notdef
 /.notdef
 /.notdef
 /.notdef
 /.notdef
 /.notdef
 /.notdef
 /.notdef
 /.notdef
 /.notdef
 /space
 /exclamdown
 /cent
 /sterling
 /currency
 /yen
 /brokenbar
 /section
 /dieresis
 /copyright
 /ordfeminine
 /guillemotleft
 /logicalnot
 /hyphen
 /registered
 /macron
 /degree
 /plusminus
 /twosuperior
 /threesuperior
 /acute
 /mu
 /paragraph
 /periodcentered
 /cedilla
 /onesuperior
 /ordmasculine
 /guillemotright
 /onequarter
 /onehalf
 /threequarters
 /questiondown
 /Agrave
 /Aacute
 /Acircumflex
 /Atilde
 /Adieresis
 /Aring
 /AE
 /Ccedilla
 /Egrave
 /Eacute
 /Ecircumflex
 /Edieresis
 /Igrave
 /Iacute
 /Icircumflex
 /Idieresis
 /Eth
 /Ntilde
 /Ograve
 /Oacute
 /Ocircumflex
 /Otilde
 /Odieresis
 /multiply
 /Oslash
 /Ugrave
 /Uacute
 /Ucircumflex
 /Udieresis
 /Yacute
 /Thorn
 /germandbls
 /agrave
 /aacute
 /acircumflex
 /atilde
 /adieresis
 /aring
 /ae
 /ccedilla
 /egrave
 /eacute
 /ecircumflex
 /edieresis
 /igrave
 /iacute
 /icircumflex
 /idieresis
 /eth
 /ntilde
 /ograve
 /oacute
 /ocircumflex
 /otilde
 /odieresis
 /divide
 /oslash
 /ugrave
 /uacute
 /ucircumflex
 /udieresis
 /yacute
 /thorn
 /ydieresis
] def
%%EndProlog
%%BeginSetup
%%EndSetup
600.00 600.00 scale
n
0.0000 0.0000 m
0.0000 1.0000 l
1.2884 1.0000 l
1.2884 0.0000 l
c
[/DeviceRGB] SCS
Color0 SC
fill
[/DeviceRGB] SCS
Color1 SC
[] 0 SD
0.0015 SLW
0 SLC
0 SLJ
n
0.2074 0.1693 m
0.2074 0.1929 l
s
n
0.1974 0.1929 m
0.2174 0.1929 l
s
n
0.2074 0.1693 m
0.2074 0.1499 l
s
n
0.2579 0.1752 m
0.2579 0.2027 l
s
n
0.2479 0.2027 m
0.2679 0.2027 l
s
n
0.2579 0.1752 m
0.2579 0.1499 l
s
n
0.3083 0.1869 m
0.3083 0.2119 l
s
n
0.2983 0.2119 m
0.3183 0.2119 l
s
n
0.3083 0.1869 m
0.3083 0.1618 l
s
n
0.3183 0.1618 m
0.2983 0.1618 l
s
n
0.3587 0.1927 m
0.3587 0.2184 l
s
n
0.3487 0.2184 m
0.3687 0.2184 l
s
n
0.3587 0.1927 m
0.3587 0.1671 l
s
n
0.3687 0.1671 m
0.3487 0.1671 l
s
n
0.4091 0.2103 m
0.4091 0.2375 l
s
n
0.3991 0.2375 m
0.4191 0.2375 l
s
n
0.4091 0.2103 m
0.4091 0.1830 l
s
n
0.4191 0.1830 m
0.3991 0.1830 l
s
n
0.4394 0.2220 m
0.4394 0.2499 l
s
n
0.4294 0.2499 m
0.4494 0.2499 l
s
n
0.4394 0.2220 m
0.4394 0.1940 l
s
n
0.4494 0.1940 m
0.4294 0.1940 l
s
n
0.4596 0.2337 m
0.4596 0.2639 l
s
n
0.4496 0.2639 m
0.4696 0.2639 l
s
n
0.4596 0.2337 m
0.4596 0.2035 l
s
n
0.4696 0.2035 m
0.4496 0.2035 l
s
n
0.5100 0.2688 m
0.5100 0.2990 l
s
n
0.5000 0.2990 m
0.5200 0.2990 l
s
n
0.5100 0.2688 m
0.5100 0.2386 l
s
n
0.5200 0.2386 m
0.5000 0.2386 l
s
n
0.5402 0.2922 m
0.5402 0.3273 l
s
n
0.5302 0.3273 m
0.5502 0.3273 l
s
n
0.5402 0.2922 m
0.5402 0.2571 l
s
n
0.5502 0.2571 m
0.5302 0.2571 l
s
n
0.5604 0.3273 m
0.5604 0.3695 l
s
n
0.5504 0.3695 m
0.5704 0.3695 l
s
n
0.5604 0.3273 m
0.5604 0.2852 l
s
n
0.5704 0.2852 m
0.5504 0.2852 l
s
n
0.5907 0.3859 m
0.5907 0.4345 l
s
n
0.5807 0.4345 m
0.6007 0.4345 l
s
n
0.5907 0.3859 m
0.5907 0.3372 l
s
n
0.6007 0.3372 m
0.5807 0.3372 l
s
n
0.6108 0.4561 m
0.6108 0.5183 l
s
n
0.6008 0.5183 m
0.6208 0.5183 l
s
n
0.6108 0.4561 m
0.6108 0.3939 l
s
n
0.6208 0.3939 m
0.6008 0.3939 l
s
n
0.6310 0.5380 m
0.6310 0.6083 l
s
n
0.6210 0.6083 m
0.6410 0.6083 l
s
n
0.6310 0.5380 m
0.6310 0.4678 l
s
n
0.6410 0.4678 m
0.6210 0.4678 l
s
n
0.6562 0.6668 m
0.6562 0.7464 l
s
n
0.6462 0.7464 m
0.6662 0.7464 l
s
n
0.6562 0.6668 m
0.6562 0.5872 l
s
n
0.6662 0.5872 m
0.6462 0.5872 l
s
n
0.6814 0.8072 m
0.6814 0.8501 l
s
n
0.6814 0.8072 m
0.6814 0.7342 l
s
n
0.6914 0.7342 m
0.6714 0.7342 l
s
n
0.6915 0.8307 m
0.6915 0.8501 l
s
n
0.6915 0.8307 m
0.6915 0.8066 l
s
n
0.7015 0.8066 m
0.6815 0.8066 l
s
n
0.7016 0.8072 m
0.7016 0.8501 l
s
n
0.7016 0.8072 m
0.7016 0.7294 l
s
n
0.7116 0.7294 m
0.6916 0.7294 l
s
n
0.7217 0.6785 m
0.7217 0.7626 l
s
n
0.7117 0.7626 m
0.7317 0.7626 l
s
n
0.7217 0.6785 m
0.7217 0.5944 l
s
n
0.7317 0.5944 m
0.7117 0.5944 l
s
n
0.7470 0.5497 m
0.7470 0.6175 l
s
n
0.7370 0.6175 m
0.7570 0.6175 l
s
n
0.7470 0.5497 m
0.7470 0.4820 l
s
n
0.7570 0.4820 m
0.7370 0.4820 l
s
n
0.7621 0.5029 m
0.7621 0.5598 l
s
n
0.7521 0.5598 m
0.7721 0.5598 l
s
n
0.7621 0.5029 m
0.7621 0.4460 l
s
n
0.7721 0.4460 m
0.7521 0.4460 l
s
n
0.8125 0.3390 m
0.8125 0.3870 l
s
n
0.8025 0.3870 m
0.8225 0.3870 l
s
n
0.8125 0.3390 m
0.8125 0.2910 l
s
n
0.8225 0.2910 m
0.8025 0.2910 l
s
n
0.8629 0.2688 m
0.8629 0.3034 l
s
n
0.8529 0.3034 m
0.8729 0.3034 l
s
n
0.8629 0.2688 m
0.8629 0.2342 l
s
n
0.8729 0.2342 m
0.8529 0.2342 l
s
n
0.9134 0.2220 m
0.9134 0.2571 l
s
n
0.9034 0.2571 m
0.9234 0.2571 l
s
n
0.9134 0.2220 m
0.9134 0.1869 l
s
n
0.9234 0.1869 m
0.9034 0.1869 l
s
n
1.0142 0.1752 m
1.0142 0.2009 l
s
n
1.0042 0.2009 m
1.0242 0.2009 l
s
n
1.0142 0.1752 m
1.0142 0.1499 l
s
[] 0 SD
0.0030 SLW
n 0.2074 0.1693 0.0050 0.0050 0 360 EARC s
n 0.2579 0.1752 0.0050 0.0050 0 360 EARC s
n 0.3083 0.1869 0.0050 0.0050 0 360 EARC s
n 0.3587 0.1927 0.0050 0.0050 0 360 EARC s
n 0.4091 0.2103 0.0050 0.0050 0 360 EARC s
n 0.4394 0.2220 0.0050 0.0050 0 360 EARC s
n 0.4596 0.2337 0.0050 0.0050 0 360 EARC s
n 0.5100 0.2688 0.0050 0.0050 0 360 EARC s
n 0.5402 0.2922 0.0050 0.0050 0 360 EARC s
n 0.5604 0.3273 0.0050 0.0050 0 360 EARC s
n 0.5907 0.3859 0.0050 0.0050 0 360 EARC s
n 0.6108 0.4561 0.0050 0.0050 0 360 EARC s
n 0.6310 0.5380 0.0050 0.0050 0 360 EARC s
n 0.6562 0.6668 0.0050 0.0050 0 360 EARC s
n 0.6814 0.8072 0.0050 0.0050 0 360 EARC s
n 0.6915 0.8307 0.0050 0.0050 0 360 EARC s
n 0.7016 0.8072 0.0050 0.0050 0 360 EARC s
n 0.7217 0.6785 0.0050 0.0050 0 360 EARC s
n 0.7470 0.5497 0.0050 0.0050 0 360 EARC s
n 0.7621 0.5029 0.0050 0.0050 0 360 EARC s
n 0.8125 0.3390 0.0050 0.0050 0 360 EARC s
n 0.8629 0.2688 0.0050 0.0050 0 360 EARC s
n 0.9134 0.2220 0.0050 0.0050 0 360 EARC s
n 1.0142 0.1752 0.0050 0.0050 0 360 EARC s
[/DeviceRGB] SCS
Color2 SC
[] 0 SD
0.0015 SLW
n
0.1832 0.1513 m
0.1867 0.1516 l
0.1901 0.1520 l
0.1936 0.1524 l
0.1970 0.1528 l
0.2004 0.1532 l
0.2038 0.1536 l
0.2073 0.1541 l
0.2107 0.1545 l
0.2142 0.1549 l
0.2176 0.1553 l
0.2210 0.1558 l
0.2245 0.1562 l
0.2279 0.1567 l
0.2313 0.1572 l
0.2348 0.1576 l
0.2382 0.1581 l
0.2416 0.1586 l
0.2451 0.1591 l
0.2485 0.1596 l
0.2519 0.1601 l
0.2554 0.1606 l
0.2588 0.1611 l
0.2622 0.1617 l
0.2657 0.1622 l
0.2691 0.1627 l
0.2725 0.1633 l
0.2760 0.1639 l
0.2794 0.1645 l
0.2828 0.1650 l
0.2863 0.1656 l
0.2897 0.1662 l
0.2931 0.1669 l
0.2966 0.1675 l
0.3000 0.1681 l
0.3035 0.1688 l
0.3069 0.1695 l
0.3103 0.1701 l
0.3137 0.1708 l
0.3172 0.1715 l
0.3206 0.1722 l
0.3241 0.1730 l
0.3275 0.1737 l
0.3309 0.1745 l
0.3344 0.1752 l
0.3378 0.1760 l
0.3412 0.1768 l
0.3447 0.1776 l
0.3481 0.1785 l
0.3515 0.1793 l
0.3550 0.1802 l
0.3584 0.1811 l
0.3618 0.1820 l
0.3653 0.1829 l
0.3687 0.1838 l
0.3721 0.1848 l
0.3756 0.1858 l
0.3790 0.1868 l
0.3824 0.1878 l
0.3859 0.1889 l
0.3893 0.1900 l
0.3927 0.1910 l
0.3962 0.1922 l
0.3996 0.1933 l
0.4030 0.1945 l
0.4065 0.1957 l
0.4099 0.1969 l
0.4134 0.1982 l
0.4168 0.1995 l
0.4202 0.2008 l
0.4236 0.2022 l
0.4271 0.2036 l
0.4305 0.2050 l
0.4340 0.2065 l
0.4374 0.2080 l
0.4408 0.2095 l
0.4443 0.2111 l
0.4477 0.2127 l
0.4511 0.2144 l
0.4546 0.2161 l
0.4580 0.2179 l
0.4614 0.2197 l
0.4649 0.2216 l
0.4683 0.2236 l
0.4717 0.2255 l
0.4752 0.2276 l
0.4786 0.2297 l
0.4820 0.2319 l
0.4855 0.2341 l
0.4889 0.2365 l
0.4923 0.2389 l
0.4958 0.2414 l
0.4992 0.2439 l
0.5026 0.2466 l
0.5061 0.2493 l
0.5095 0.2522 l
0.5129 0.2551 l
0.5164 0.2582 l
0.5198 0.2613 l
0.5232 0.2646 l
0.5267 0.2681 l
0.5301 0.2716 l
0.5335 0.2753 l
0.5370 0.2792 l
0.5404 0.2832 l
0.5439 0.2873 l
0.5473 0.2917 l
0.5507 0.2962 l
0.5542 0.3010 l
0.5576 0.3060 l
0.5610 0.3112 l
0.5645 0.3166 l
0.5679 0.3223 l
0.5713 0.3283 l
0.5748 0.3346 l
0.5782 0.3413 l
0.5816 0.3482 l
0.5851 0.3556 l
0.5885 0.3633 l
0.5919 0.3715 l
0.5954 0.3802 l
0.5988 0.3894 l
0.6022 0.3991 l
0.6057 0.4094 l
0.6091 0.4203 l
0.6125 0.4320 l
0.6160 0.4443 l
0.6194 0.4575 l
0.6228 0.4716 l
0.6263 0.4865 l
0.6297 0.5025 l
0.6331 0.5195 l
0.6366 0.5377 l
0.6400 0.5570 l
0.6434 0.5776 l
0.6469 0.5994 l
0.6503 0.6224 l
0.6538 0.6465 l
0.6572 0.6717 l
0.6606 0.6976 l
0.6641 0.7240 l
0.6675 0.7503 l
0.6709 0.7757 l
0.6744 0.7996 l
0.6778 0.8209 l
0.6812 0.8386 l
0.6843 0.8501 l
s
n
0.6967 0.8501 m
0.6984 0.8448 l
0.7018 0.8288 l
0.7053 0.8086 l
0.7087 0.7851 l
0.7121 0.7595 l
0.7156 0.7326 l
0.7190 0.7053 l
0.7224 0.6782 l
0.7259 0.6517 l
0.7293 0.6262 l
0.7327 0.6018 l
0.7362 0.5787 l
0.7396 0.5568 l
0.7430 0.5362 l
0.7465 0.5169 l
0.7499 0.4988 l
0.7533 0.4818 l
0.7568 0.4659 l
0.7602 0.4510 l
0.7636 0.4370 l
0.7671 0.4239 l
0.7705 0.4116 l
0.7740 0.4001 l
0.7774 0.3892 l
0.7808 0.3790 l
0.7843 0.3693 l
0.7877 0.3602 l
0.7911 0.3516 l
0.7946 0.3435 l
0.7980 0.3358 l
0.8014 0.3285 l
0.8049 0.3215 l
0.8083 0.3149 l
0.8117 0.3087 l
0.8152 0.3027 l
0.8186 0.2970 l
0.8220 0.2916 l
0.8255 0.2865 l
0.8289 0.2815 l
0.8323 0.2768 l
0.8358 0.2723 l
0.8392 0.2679 l
0.8426 0.2638 l
0.8461 0.2598 l
0.8495 0.2560 l
0.8529 0.2523 l
0.8564 0.2487 l
0.8598 0.2453 l
0.8632 0.2421 l
0.8667 0.2389 l
0.8701 0.2359 l
0.8735 0.2329 l
0.8770 0.2301 l
0.8804 0.2274 l
0.8839 0.2247 l
0.8873 0.2222 l
0.8907 0.2197 l
0.8942 0.2173 l
0.8976 0.2150 l
0.9010 0.2127 l
0.9045 0.2106 l
0.9079 0.2085 l
0.9113 0.2064 l
0.9148 0.2044 l
0.9182 0.2025 l
0.9216 0.2006 l
0.9251 0.1988 l
0.9285 0.1970 l
0.9319 0.1953 l
0.9354 0.1936 l
0.9388 0.1920 l
0.9422 0.1904 l
0.9457 0.1889 l
0.9491 0.1874 l
0.9525 0.1859 l
0.9560 0.1845 l
0.9594 0.1831 l
0.9628 0.1817 l
0.9663 0.1804 l
0.9697 0.1791 l
0.9731 0.1779 l
0.9766 0.1766 l
0.9800 0.1754 l
0.9834 0.1742 l
0.9869 0.1731 l
0.9903 0.1720 l
0.9938 0.1709 l
0.9972 0.1698 l
1.0006 0.1688 l
1.0040 0.1677 l
1.0075 0.1667 l
1.0109 0.1657 l
1.0144 0.1648 l
1.0178 0.1638 l
1.0212 0.1629 l
1.0247 0.1620 l
1.0281 0.1611 l
1.0315 0.1602 l
1.0350 0.1594 l
1.0384 0.1586 l
s
[/DeviceRGB] SCS
Color1 SC
[] 0 SD
0.0030 SLW
n
0.1832 0.1513 m
0.1867 0.1516 l
0.1901 0.1520 l
0.1936 0.1524 l
0.1970 0.1528 l
0.2004 0.1532 l
0.2038 0.1536 l
0.2073 0.1541 l
0.2107 0.1545 l
0.2142 0.1549 l
0.2176 0.1553 l
0.2210 0.1558 l
0.2245 0.1562 l
0.2279 0.1567 l
0.2313 0.1572 l
0.2348 0.1576 l
0.2382 0.1581 l
0.2416 0.1586 l
0.2451 0.1591 l
0.2485 0.1596 l
0.2519 0.1601 l
0.2554 0.1606 l
0.2588 0.1611 l
0.2622 0.1617 l
0.2657 0.1622 l
0.2691 0.1627 l
0.2725 0.1633 l
0.2760 0.1639 l
0.2794 0.1645 l
0.2828 0.1650 l
0.2863 0.1656 l
0.2897 0.1662 l
0.2931 0.1669 l
0.2966 0.1675 l
0.3000 0.1681 l
0.3035 0.1688 l
0.3069 0.1695 l
0.3103 0.1701 l
0.3137 0.1708 l
0.3172 0.1715 l
0.3206 0.1722 l
0.3241 0.1730 l
0.3275 0.1737 l
0.3309 0.1745 l
0.3344 0.1752 l
0.3378 0.1760 l
0.3412 0.1768 l
0.3447 0.1776 l
0.3481 0.1785 l
0.3515 0.1793 l
0.3550 0.1802 l
0.3584 0.1811 l
0.3618 0.1820 l
0.3653 0.1829 l
0.3687 0.1838 l
0.3721 0.1848 l
0.3756 0.1858 l
0.3790 0.1868 l
0.3824 0.1878 l
0.3859 0.1889 l
0.3893 0.1900 l
0.3927 0.1910 l
0.3962 0.1922 l
0.3996 0.1933 l
0.4030 0.1945 l
0.4065 0.1957 l
0.4099 0.1969 l
0.4134 0.1982 l
0.4168 0.1995 l
0.4202 0.2008 l
0.4236 0.2022 l
0.4271 0.2036 l
0.4305 0.2050 l
0.4340 0.2065 l
0.4374 0.2080 l
0.4408 0.2095 l
0.4443 0.2111 l
0.4477 0.2127 l
0.4511 0.2144 l
0.4546 0.2161 l
0.4580 0.2179 l
0.4614 0.2197 l
0.4649 0.2216 l
0.4683 0.2236 l
0.4717 0.2255 l
0.4752 0.2276 l
0.4786 0.2297 l
0.4820 0.2319 l
0.4855 0.2341 l
0.4889 0.2365 l
0.4923 0.2389 l
0.4958 0.2414 l
0.4992 0.2439 l
0.5026 0.2466 l
0.5061 0.2493 l
0.5095 0.2522 l
0.5129 0.2551 l
0.5164 0.2582 l
0.5198 0.2613 l
0.5232 0.2646 l
0.5267 0.2681 l
0.5301 0.2716 l
0.5335 0.2753 l
0.5370 0.2792 l
0.5404 0.2832 l
0.5439 0.2873 l
0.5473 0.2917 l
0.5507 0.2962 l
0.5542 0.3010 l
0.5576 0.3060 l
0.5610 0.3112 l
0.5645 0.3166 l
0.5679 0.3223 l
0.5713 0.3283 l
0.5748 0.3346 l
0.5782 0.3413 l
0.5816 0.3482 l
0.5851 0.3556 l
0.5885 0.3633 l
0.5919 0.3715 l
0.5954 0.3802 l
0.5988 0.3894 l
0.6022 0.3991 l
0.6057 0.4094 l
0.6091 0.4203 l
0.6125 0.4320 l
0.6160 0.4443 l
0.6194 0.4575 l
0.6228 0.4716 l
0.6263 0.4865 l
0.6297 0.5025 l
0.6331 0.5195 l
0.6366 0.5377 l
0.6400 0.5570 l
0.6434 0.5776 l
0.6469 0.5994 l
0.6503 0.6224 l
0.6538 0.6465 l
0.6572 0.6717 l
0.6606 0.6976 l
0.6641 0.7240 l
0.6675 0.7503 l
0.6709 0.7757 l
0.6744 0.7996 l
0.6778 0.8209 l
0.6812 0.8386 l
0.6843 0.8501 l
s
n
0.6967 0.8501 m
0.6984 0.8448 l
0.7018 0.8288 l
0.7053 0.8086 l
0.7087 0.7851 l
0.7121 0.7595 l
0.7156 0.7326 l
0.7190 0.7053 l
0.7224 0.6782 l
0.7259 0.6517 l
0.7293 0.6262 l
0.7327 0.6018 l
0.7362 0.5787 l
0.7396 0.5568 l
0.7430 0.5362 l
0.7465 0.5169 l
0.7499 0.4988 l
0.7533 0.4818 l
0.7568 0.4659 l
0.7602 0.4510 l
0.7636 0.4370 l
0.7671 0.4239 l
0.7705 0.4116 l
0.7740 0.4001 l
0.7774 0.3892 l
0.7808 0.3790 l
0.7843 0.3693 l
0.7877 0.3602 l
0.7911 0.3516 l
0.7946 0.3435 l
0.7980 0.3358 l
0.8014 0.3285 l
0.8049 0.3215 l
0.8083 0.3149 l
0.8117 0.3087 l
0.8152 0.3027 l
0.8186 0.2970 l
0.8220 0.2916 l
0.8255 0.2865 l
0.8289 0.2815 l
0.8323 0.2768 l
0.8358 0.2723 l
0.8392 0.2679 l
0.8426 0.2638 l
0.8461 0.2598 l
0.8495 0.2560 l
0.8529 0.2523 l
0.8564 0.2487 l
0.8598 0.2453 l
0.8632 0.2421 l
0.8667 0.2389 l
0.8701 0.2359 l
0.8735 0.2329 l
0.8770 0.2301 l
0.8804 0.2274 l
0.8839 0.2247 l
0.8873 0.2222 l
0.8907 0.2197 l
0.8942 0.2173 l
0.8976 0.2150 l
0.9010 0.2127 l
0.9045 0.2106 l
0.9079 0.2085 l
0.9113 0.2064 l
0.9148 0.2044 l
0.9182 0.2025 l
0.9216 0.2006 l
0.9251 0.1988 l
0.9285 0.1970 l
0.9319 0.1953 l
0.9354 0.1936 l
0.9388 0.1920 l
0.9422 0.1904 l
0.9457 0.1889 l
0.9491 0.1874 l
0.9525 0.1859 l
0.9560 0.1845 l
0.9594 0.1831 l
0.9628 0.1817 l
0.9663 0.1804 l
0.9697 0.1791 l
0.9731 0.1779 l
0.9766 0.1766 l
0.9800 0.1754 l
0.9834 0.1742 l
0.9869 0.1731 l
0.9903 0.1720 l
0.9938 0.1709 l
0.9972 0.1698 l
1.0006 0.1688 l
1.0040 0.1677 l
1.0075 0.1667 l
1.0109 0.1657 l
1.0144 0.1648 l
1.0178 0.1638 l
1.0212 0.1629 l
1.0247 0.1620 l
1.0281 0.1611 l
1.0315 0.1602 l
1.0350 0.1594 l
1.0384 0.1586 l
s
n
0.2125 0.1500 m
0.2125 0.1700 l
s
n
0.2125 0.8500 m
0.2125 0.8300 l
s
n
0.3839 0.1500 m
0.3839 0.1700 l
s
n
0.3839 0.8500 m
0.3839 0.8300 l
s
n
0.5554 0.1500 m
0.5554 0.1700 l
s
n
0.5554 0.8500 m
0.5554 0.8300 l
s
n
0.7268 0.1500 m
0.7268 0.1700 l
s
n
0.7268 0.8500 m
0.7268 0.8300 l
s
n
0.8982 0.1500 m
0.8982 0.1700 l
s
n
0.8982 0.8500 m
0.8982 0.8300 l
s
n
0.2982 0.1500 m
0.2982 0.1800 l
s
n
0.2982 0.8500 m
0.2982 0.8200 l
s
n
0.4696 0.1500 m
0.4696 0.1800 l
s
n
0.4696 0.8500 m
0.4696 0.8200 l
s
n
0.6411 0.1500 m
0.6411 0.1800 l
s
n
0.6411 0.8500 m
0.6411 0.8200 l
s
n
0.8125 0.1500 m
0.8125 0.1800 l
s
n
0.8125 0.8500 m
0.8125 0.8200 l
s
n
0.9839 0.1500 m
0.9839 0.1800 l
s
n
0.9839 0.8500 m
0.9839 0.8200 l
s
/Helvetica findfont
dup length dict begin
 {1 index /FID ne {def} {pop pop} ifelse} forall
 /Encoding DefEncoding def
 currentdict
end
/Font12 exch definefont pop
/Font12 FFSF
0.2584 0.1104 m
GS
[0.0420 0.0000 0.0000 0.0420 0 0] CC
(1.19) show
GR
/Font12 FFSF
0.4296 0.1104 m
GS
[0.0420 0.0000 0.0000 0.0420 0 0] CC
(1.36) show
GR
/Font12 FFSF
0.6013 0.1104 m
GS
[0.0420 0.0000 0.0000 0.0420 0 0] CC
(1.53) show
GR
/Font12 FFSF
0.7725 0.1104 m
GS
[0.0420 0.0000 0.0000 0.0420 0 0] CC
(1.70) show
GR
/Font12 FFSF
0.9437 0.1104 m
GS
[0.0420 0.0000 0.0000 0.0420 0 0] CC
(1.87) show
GR
/Font12 FFSF
0.5670 0.0684 m
GS
[0.0420 0.0000 0.0000 0.0420 0 0] CC
(f\(Hz\)) show
GR
n
0.1832 0.1517 m
0.2032 0.1517 l
s
n
1.0384 0.1517 m
1.0184 0.1517 l
s
n
0.1832 0.2922 m
0.2032 0.2922 l
s
n
1.0384 0.2922 m
1.0184 0.2922 l
s
n
0.1832 0.4327 m
0.2032 0.4327 l
s
n
1.0384 0.4327 m
1.0184 0.4327 l
s
n
0.1832 0.5731 m
0.2032 0.5731 l
s
n
1.0384 0.5731 m
1.0184 0.5731 l
s
n
0.1832 0.7136 m
0.2032 0.7136 l
s
n
1.0384 0.7136 m
1.0184 0.7136 l
s
n
0.1832 0.2220 m
0.2132 0.2220 l
s
n
1.0384 0.2220 m
1.0084 0.2220 l
s
n
0.1832 0.3624 m
0.2132 0.3624 l
s
n
1.0384 0.3624 m
1.0084 0.3624 l
s
n
0.1832 0.5029 m
0.2132 0.5029 l
s
n
1.0384 0.5029 m
1.0084 0.5029 l
s
n
0.1832 0.6434 m
0.2132 0.6434 l
s
n
1.0384 0.6434 m
1.0084 0.6434 l
s
n
0.1832 0.7838 m
0.2132 0.7838 l
s
n
1.0384 0.7838 m
1.0084 0.7838 l
s
/Font12 FFSF
0.0700 0.2076 m
GS
[0.0420 0.0000 0.0000 0.0420 0 0] CC
(0.012) show
GR
/Font12 FFSF
0.0696 0.3480 m
GS
[0.0420 0.0000 0.0000 0.0420 0 0] CC
(0.024) show
GR
/Font12 FFSF
0.0700 0.4885 m
GS
[0.0420 0.0000 0.0000 0.0420 0 0] CC
(0.036) show
GR
/Font12 FFSF
0.0700 0.6290 m
GS
[0.0420 0.0000 0.0000 0.0420 0 0] CC
(0.048) show
GR
/Font12 FFSF
0.0700 0.7694 m
GS
[0.0420 0.0000 0.0000 0.0420 0 0] CC
(0.060) show
GR
/Font12 FFSF
0.0504 0.4562 m
GS
[0.0000 0.0420 -0.0420 0.0000 0 0] CC
(A\(m\)) show
GR
n
0.1832 0.1500 m
0.1832 0.8500 l
1.0384 0.8500 l
1.0384 0.1500 l
0.1832 0.1500 l
c
s
%%Trailer
%%BoundingBox: 10 34 625 512
%%DocumentNeededResources: font Helvetica
%%EOF
