%!PS-Adobe-3.0 EPSF-3.0
%%BoundingBox: (atend)
%%LanguageLevel: 2
%%Creator: Grace-5.1.22
%%CreationDate: Wed Oct 15 20:14:49 2014
%%DocumentData: Clean8Bit
%%Orientation: Portrait
%%Title: fit-gph-2.agr
%%For: wfr
%%DocumentNeededResources: (atend)
%%EndComments
%%BeginProlog
/m {moveto} def
/l {lineto} def
/s {stroke} def
/n {newpath} def
/c {closepath} def
/RL {rlineto} def
/SLW {setlinewidth} def
/GS {gsave} def
/GR {grestore} def
/SC {setcolor} def
/SGRY {setgray} def
/SRGB {setrgbcolor} def
/SD {setdash} def
/SLC {setlinecap} def
/SLJ {setlinejoin} def
/SCS {setcolorspace} def
/FFSF {findfont setfont} def
/CC {concat} def
/PXL {n m 0 0 RL s} def
/Color0 {1.0000 1.0000 1.0000} def
/Color1 {0.0000 0.0000 0.0000} def
/Color2 {1.0000 0.0000 0.0000} def
/Color3 {0.0000 1.0000 0.0000} def
/Color4 {0.0000 0.0000 1.0000} def
/Color5 {1.0000 1.0000 0.0000} def
/Color6 {0.7373 0.5608 0.5608} def
/Color7 {0.8627 0.8627 0.8627} def
/Color8 {0.5804 0.0000 0.8275} def
/Color9 {0.0000 1.0000 1.0000} def
/Color10 {1.0000 0.0000 1.0000} def
/Color11 {1.0000 0.6471 0.0000} def
/Color12 {0.4471 0.1294 0.7373} def
/Color13 {0.4039 0.0275 0.2824} def
/Color14 {0.2510 0.8784 0.8157} def
/Color15 {0.0000 0.5451 0.0000} def
/PTRN {
 /pat_bits exch def 
 <<
  /PaintType 2
  /PatternType 1 /TilingType 1
  /BBox[0 0 16 16]
  /XStep 16 /YStep 16
  /PaintProc {
   pop
   16 16 true [-1 0 0 -1 16 16] pat_bits imagemask
  }
 >>
 [0.0017 0 0 0.0017 0 0]
 makepattern
} def
/Pattern0 {<0000000000000000000000000000000000000000000000000000000000000000> PTRN} bind def
/Pattern1 {<ffffffffffffffffffffffffffffffffffffffffffffffffffffffffffffffff> PTRN} bind def
/Pattern2 {<eeeeffffbbbbffffeeeeffffbbbbffffeeeeffffbbbbffffeeeeffffbbbbffff> PTRN} bind def
/Pattern3 {<eeeebbbbeeeebbbbeeeebbbbeeeebbbbeeeebbbbeeeebbbbeeeebbbbeeeebbbb> PTRN} bind def
/Pattern4 {<5555aaaa5555aaaa5555aaaa5555aaaa5555aaaa5555aaaa5555aaaa5555aaaa> PTRN} bind def
/Pattern5 {<1111444411114444111144441111444411114444111144441111444411114444> PTRN} bind def
/Pattern6 {<1111000044440000111100004444000011110000444400001111000044440000> PTRN} bind def
/Pattern7 {<1010000000000000010100000000000010100000000000000101000000000000> PTRN} bind def
/Pattern8 {<0000000000000000000000000000000000000000000000000000000000000000> PTRN} bind def
/Pattern9 {<1e1e0f0f8787c3c3e1e1f0f078783c3c1e1e0f0f8787c3c3e1e1f0f078783c3c> PTRN} bind def
/Pattern10 {<7878f0f0e1e1c3c387870f0f1e1e3c3c7878f0f0e1e1c3c387870f0f1e1e3c3c> PTRN} bind def
/Pattern11 {<3333333333333333333333333333333333333333333333333333333333333333> PTRN} bind def
/Pattern12 {<ffffffff00000000ffffffff00000000ffffffff00000000ffffffff00000000> PTRN} bind def
/Pattern13 {<8181424224241818181824244242818181814242242418181818242442428181> PTRN} bind def
/Pattern14 {<8080404020201010080804040202010180804040202010100808040402020101> PTRN} bind def
/Pattern15 {<0101020204040808101020204040808001010202040408081010202040408080> PTRN} bind def
/Pattern16 {<2222222222222222222222222222222222222222222222222222222222222222> PTRN} bind def
/Pattern17 {<0000ffff000000000000ffff000000000000ffff000000000000ffff00000000> PTRN} bind def
/Pattern18 {<2222ffff222222222222ffff222222222222ffff222222222222ffff22222222> PTRN} bind def
/Pattern19 {<ffffffff33333333ffffffff33333333ffffffff33333333ffffffff33333333> PTRN} bind def
/Pattern20 {<0f0f0f0f0f0f0f0ff0f0f0f0f0f0f0f00f0f0f0f0f0f0f0ff0f0f0f0f0f0f0f0> PTRN} bind def
/Pattern21 {<ff00ff00ff00ff00ff00ff00ff00ff0000ff00ff00ff00ff00ff00ff00ff00ff> PTRN} bind def
/Pattern22 {<8001800180018001800180018001ffffffff8001800180018001800180018001> PTRN} bind def
/Pattern23 {<c003c003c003c003c003c003ffffffffffffffffc003c003c003c003c003c003> PTRN} bind def
/Pattern24 {<040404040404ffff404040404040ffff040404040404ffff404040404040ffff> PTRN} bind def
/Pattern25 {<180018001800180018001800ffffffff001800180018001800180018ffffffff> PTRN} bind def
/Pattern26 {<1111b8b87c7c3a3a1111a3a3c7c78b8b1111b8b87c7c3a3a1111a3a3c7c78b8b> PTRN} bind def
/Pattern27 {<101010102828c7c70101010182827c7c101010102828c7c70101010182827c7c> PTRN} bind def
/Pattern28 {<1c1c121211112121c1c12121111112121c1c121211112121c1c1212111111212> PTRN} bind def
/Pattern29 {<3e3e414180808080e3e31414080808083e3e414180808080e3e3141408080808> PTRN} bind def
/Pattern30 {<4848888884848383848488884848383848488888848483838484888848483838> PTRN} bind def
/Pattern31 {<03030404080808080c0c12122121c0c003030404080808080c0c12122121c0c0> PTRN} bind def
/ellipsedict 8 dict def
ellipsedict /mtrx matrix put
/EARC {
 ellipsedict begin
  /endangle exch def
  /startangle exch def
  /yrad exch def
  /xrad exch def
  /y exch def
  /x exch def
  /savematrix mtrx currentmatrix def
  x y translate
  xrad yrad scale
  0 0 1 startangle endangle arc
  savematrix setmatrix
 end
} def
/TL {
  /kcomp exch def
  /linewidth exch def
  /offset exch def
  GS
  0 offset rmoveto
  linewidth SLW
  dup stringwidth exch kcomp add exch RL s
  GR
} def
/KINIT
{
 /kvector exch def
 /kid 0 def
} def
/KPROC
{
 pop pop
 kvector kid get
 0 rmoveto
 /kid 1 kid add def
} def
/DefEncoding [
 /.notdef
 /.notdef
 /.notdef
 /.notdef
 /.notdef
 /.notdef
 /.notdef
 /.notdef
 /.notdef
 /.notdef
 /.notdef
 /.notdef
 /.notdef
 /.notdef
 /.notdef
 /.notdef
 /.notdef
 /.notdef
 /.notdef
 /.notdef
 /.notdef
 /.notdef
 /.notdef
 /.notdef
 /.notdef
 /.notdef
 /.notdef
 /.notdef
 /.notdef
 /.notdef
 /.notdef
 /.notdef
 /space
 /exclam
 /quotedbl
 /numbersign
 /dollar
 /percent
 /ampersand
 /quoteright
 /parenleft
 /parenright
 /asterisk
 /plus
 /comma
 /hyphen
 /period
 /slash
 /zero
 /one
 /two
 /three
 /four
 /five
 /six
 /seven
 /eight
 /nine
 /colon
 /semicolon
 /less
 /equal
 /greater
 /question
 /at
 /A
 /B
 /C
 /D
 /E
 /F
 /G
 /H
 /I
 /J
 /K
 /L
 /M
 /N
 /O
 /P
 /Q
 /R
 /S
 /T
 /U
 /V
 /W
 /X
 /Y
 /Z
 /bracketleft
 /backslash
 /bracketright
 /asciicircum
 /underscore
 /grave
 /a
 /b
 /c
 /d
 /e
 /f
 /g
 /h
 /i
 /j
 /k
 /l
 /m
 /n
 /o
 /p
 /q
 /r
 /s
 /t
 /u
 /v
 /w
 /x
 /y
 /z
 /braceleft
 /bar
 /braceright
 /asciitilde
 /.notdef
 /.notdef
 /.notdef
 /.notdef
 /.notdef
 /.notdef
 /.notdef
 /.notdef
 /.notdef
 /.notdef
 /.notdef
 /.notdef
 /.notdef
 /.notdef
 /.notdef
 /.notdef
 /.notdef
 /.notdef
 /.notdef
 /.notdef
 /.notdef
 /.notdef
 /.notdef
 /.notdef
 /.notdef
 /.notdef
 /.notdef
 /.notdef
 /.notdef
 /.notdef
 /.notdef
 /.notdef
 /.notdef
 /space
 /exclamdown
 /cent
 /sterling
 /currency
 /yen
 /brokenbar
 /section
 /dieresis
 /copyright
 /ordfeminine
 /guillemotleft
 /logicalnot
 /hyphen
 /registered
 /macron
 /degree
 /plusminus
 /twosuperior
 /threesuperior
 /acute
 /mu
 /paragraph
 /periodcentered
 /cedilla
 /onesuperior
 /ordmasculine
 /guillemotright
 /onequarter
 /onehalf
 /threequarters
 /questiondown
 /Agrave
 /Aacute
 /Acircumflex
 /Atilde
 /Adieresis
 /Aring
 /AE
 /Ccedilla
 /Egrave
 /Eacute
 /Ecircumflex
 /Edieresis
 /Igrave
 /Iacute
 /Icircumflex
 /Idieresis
 /Eth
 /Ntilde
 /Ograve
 /Oacute
 /Ocircumflex
 /Otilde
 /Odieresis
 /multiply
 /Oslash
 /Ugrave
 /Uacute
 /Ucircumflex
 /Udieresis
 /Yacute
 /Thorn
 /germandbls
 /agrave
 /aacute
 /acircumflex
 /atilde
 /adieresis
 /aring
 /ae
 /ccedilla
 /egrave
 /eacute
 /ecircumflex
 /edieresis
 /igrave
 /iacute
 /icircumflex
 /idieresis
 /eth
 /ntilde
 /ograve
 /oacute
 /ocircumflex
 /otilde
 /odieresis
 /divide
 /oslash
 /ugrave
 /uacute
 /ucircumflex
 /udieresis
 /yacute
 /thorn
 /ydieresis
] def
%%EndProlog
%%BeginSetup
%%EndSetup
600.00 600.00 scale
n
0.0000 0.0000 m
0.0000 1.0000 l
1.2884 1.0000 l
1.2884 0.0000 l
c
[/DeviceRGB] SCS
Color0 SC
fill
[/DeviceRGB] SCS
Color1 SC
[] 0 SD
0.0015 SLW
0 SLC
0 SLJ
n
0.2076 0.8294 m
0.2076 0.8501 l
s
n
0.2076 0.8294 m
0.2076 0.8046 l
s
n
0.2176 0.8046 m
0.1976 0.8046 l
s
n
0.2220 0.7922 m
0.2220 0.8170 l
s
n
0.2120 0.8170 m
0.2320 0.8170 l
s
n
0.2220 0.7922 m
0.2220 0.7673 l
s
n
0.2320 0.7673 m
0.2120 0.7673 l
s
n
0.2364 0.7673 m
0.2364 0.7922 l
s
n
0.2264 0.7922 m
0.2464 0.7922 l
s
n
0.2364 0.7673 m
0.2364 0.7424 l
s
n
0.2464 0.7424 m
0.2264 0.7424 l
s
n
0.2508 0.7424 m
0.2508 0.7673 l
s
n
0.2408 0.7673 m
0.2608 0.7673 l
s
n
0.2508 0.7424 m
0.2508 0.7176 l
s
n
0.2608 0.7176 m
0.2408 0.7176 l
s
n
0.2652 0.7176 m
0.2652 0.7424 l
s
n
0.2552 0.7424 m
0.2752 0.7424 l
s
n
0.2652 0.7176 m
0.2652 0.6927 l
s
n
0.2752 0.6927 m
0.2552 0.6927 l
s
n
0.2796 0.6927 m
0.2796 0.7176 l
s
n
0.2696 0.7176 m
0.2896 0.7176 l
s
n
0.2796 0.6927 m
0.2796 0.6678 l
s
n
0.2896 0.6678 m
0.2696 0.6678 l
s
n
0.2940 0.6554 m
0.2940 0.6803 l
s
n
0.2840 0.6803 m
0.3040 0.6803 l
s
n
0.2940 0.6554 m
0.2940 0.6305 l
s
n
0.3040 0.6305 m
0.2840 0.6305 l
s
n
0.3084 0.6430 m
0.3084 0.6678 l
s
n
0.2984 0.6678 m
0.3184 0.6678 l
s
n
0.3084 0.6430 m
0.3084 0.6181 l
s
n
0.3184 0.6181 m
0.2984 0.6181 l
s
n
0.3228 0.6181 m
0.3228 0.6430 l
s
n
0.3128 0.6430 m
0.3328 0.6430 l
s
n
0.3228 0.6181 m
0.3228 0.5932 l
s
n
0.3328 0.5932 m
0.3128 0.5932 l
s
n
0.3372 0.6057 m
0.3372 0.6305 l
s
n
0.3272 0.6305 m
0.3472 0.6305 l
s
n
0.3372 0.6057 m
0.3372 0.5808 l
s
n
0.3472 0.5808 m
0.3272 0.5808 l
s
n
0.3516 0.5932 m
0.3516 0.6181 l
s
n
0.3416 0.6181 m
0.3616 0.6181 l
s
n
0.3516 0.5932 m
0.3516 0.5684 l
s
n
0.3616 0.5684 m
0.3416 0.5684 l
s
n
0.3660 0.5684 m
0.3660 0.5932 l
s
n
0.3560 0.5932 m
0.3760 0.5932 l
s
n
0.3660 0.5684 m
0.3660 0.5435 l
s
n
0.3760 0.5435 m
0.3560 0.5435 l
s
n
0.3804 0.5559 m
0.3804 0.5808 l
s
n
0.3704 0.5808 m
0.3904 0.5808 l
s
n
0.3804 0.5559 m
0.3804 0.5311 l
s
n
0.3904 0.5311 m
0.3704 0.5311 l
s
n
0.3948 0.5435 m
0.3948 0.5684 l
s
n
0.3848 0.5684 m
0.4048 0.5684 l
s
n
0.3948 0.5435 m
0.3948 0.5186 l
s
n
0.4048 0.5186 m
0.3848 0.5186 l
s
n
0.4092 0.5186 m
0.4092 0.5435 l
s
n
0.3992 0.5435 m
0.4192 0.5435 l
s
n
0.4092 0.5186 m
0.4092 0.4938 l
s
n
0.4192 0.4938 m
0.3992 0.4938 l
s
n
0.4236 0.5186 m
0.4236 0.5435 l
s
n
0.4136 0.5435 m
0.4336 0.5435 l
s
n
0.4236 0.5186 m
0.4236 0.4938 l
s
n
0.4336 0.4938 m
0.4136 0.4938 l
s
n
0.4380 0.5062 m
0.4380 0.5311 l
s
n
0.4280 0.5311 m
0.4480 0.5311 l
s
n
0.4380 0.5062 m
0.4380 0.4813 l
s
n
0.4480 0.4813 m
0.4280 0.4813 l
s
n
0.4524 0.4938 m
0.4524 0.5186 l
s
n
0.4424 0.5186 m
0.4624 0.5186 l
s
n
0.4524 0.4938 m
0.4524 0.4689 l
s
n
0.4624 0.4689 m
0.4424 0.4689 l
s
n
0.4668 0.4938 m
0.4668 0.5186 l
s
n
0.4568 0.5186 m
0.4768 0.5186 l
s
n
0.4668 0.4938 m
0.4668 0.4689 l
s
n
0.4768 0.4689 m
0.4568 0.4689 l
s
n
0.4812 0.4689 m
0.4812 0.4938 l
s
n
0.4712 0.4938 m
0.4912 0.4938 l
s
n
0.4812 0.4689 m
0.4812 0.4440 l
s
n
0.4912 0.4440 m
0.4712 0.4440 l
s
n
0.4956 0.4689 m
0.4956 0.4938 l
s
n
0.4856 0.4938 m
0.5056 0.4938 l
s
n
0.4956 0.4689 m
0.4956 0.4440 l
s
n
0.5056 0.4440 m
0.4856 0.4440 l
s
n
0.5100 0.4689 m
0.5100 0.4938 l
s
n
0.5000 0.4938 m
0.5200 0.4938 l
s
n
0.5100 0.4689 m
0.5100 0.4440 l
s
n
0.5200 0.4440 m
0.5000 0.4440 l
s
n
0.5244 0.4565 m
0.5244 0.4813 l
s
n
0.5144 0.4813 m
0.5344 0.4813 l
s
n
0.5244 0.4565 m
0.5244 0.4316 l
s
n
0.5344 0.4316 m
0.5144 0.4316 l
s
n
0.5388 0.4440 m
0.5388 0.4689 l
s
n
0.5288 0.4689 m
0.5488 0.4689 l
s
n
0.5388 0.4440 m
0.5388 0.4192 l
s
n
0.5488 0.4192 m
0.5288 0.4192 l
s
n
0.5532 0.4440 m
0.5532 0.4689 l
s
n
0.5432 0.4689 m
0.5632 0.4689 l
s
n
0.5532 0.4440 m
0.5532 0.4192 l
s
n
0.5632 0.4192 m
0.5432 0.4192 l
s
n
0.5676 0.4192 m
0.5676 0.4440 l
s
n
0.5576 0.4440 m
0.5776 0.4440 l
s
n
0.5676 0.4192 m
0.5676 0.3943 l
s
n
0.5776 0.3943 m
0.5576 0.3943 l
s
n
0.5820 0.4192 m
0.5820 0.4440 l
s
n
0.5720 0.4440 m
0.5920 0.4440 l
s
n
0.5820 0.4192 m
0.5820 0.3943 l
s
n
0.5920 0.3943 m
0.5720 0.3943 l
s
n
0.5964 0.4067 m
0.5964 0.4316 l
s
n
0.5864 0.4316 m
0.6064 0.4316 l
s
n
0.5964 0.4067 m
0.5964 0.3819 l
s
n
0.6064 0.3819 m
0.5864 0.3819 l
s
n
0.6108 0.3943 m
0.6108 0.4192 l
s
n
0.6008 0.4192 m
0.6208 0.4192 l
s
n
0.6108 0.3943 m
0.6108 0.3694 l
s
n
0.6208 0.3694 m
0.6008 0.3694 l
s
n
0.6252 0.3943 m
0.6252 0.4192 l
s
n
0.6152 0.4192 m
0.6352 0.4192 l
s
n
0.6252 0.3943 m
0.6252 0.3694 l
s
n
0.6352 0.3694 m
0.6152 0.3694 l
s
n
0.6396 0.3694 m
0.6396 0.3943 l
s
n
0.6296 0.3943 m
0.6496 0.3943 l
s
n
0.6396 0.3694 m
0.6396 0.3446 l
s
n
0.6496 0.3446 m
0.6296 0.3446 l
s
n
0.6540 0.3694 m
0.6540 0.3943 l
s
n
0.6440 0.3943 m
0.6640 0.3943 l
s
n
0.6540 0.3694 m
0.6540 0.3446 l
s
n
0.6640 0.3446 m
0.6440 0.3446 l
s
n
0.6684 0.3694 m
0.6684 0.3943 l
s
n
0.6584 0.3943 m
0.6784 0.3943 l
s
n
0.6684 0.3694 m
0.6684 0.3446 l
s
n
0.6784 0.3446 m
0.6584 0.3446 l
s
n
0.6828 0.3446 m
0.6828 0.3694 l
s
n
0.6728 0.3694 m
0.6928 0.3694 l
s
n
0.6828 0.3446 m
0.6828 0.3197 l
s
n
0.6928 0.3197 m
0.6728 0.3197 l
s
n
0.6972 0.3446 m
0.6972 0.3694 l
s
n
0.6872 0.3694 m
0.7072 0.3694 l
s
n
0.6972 0.3446 m
0.6972 0.3197 l
s
n
0.7072 0.3197 m
0.6872 0.3197 l
s
n
0.7116 0.3446 m
0.7116 0.3694 l
s
n
0.7016 0.3694 m
0.7216 0.3694 l
s
n
0.7116 0.3446 m
0.7116 0.3197 l
s
n
0.7216 0.3197 m
0.7016 0.3197 l
s
n
0.7260 0.3197 m
0.7260 0.3446 l
s
n
0.7160 0.3446 m
0.7360 0.3446 l
s
n
0.7260 0.3197 m
0.7260 0.2948 l
s
n
0.7360 0.2948 m
0.7160 0.2948 l
s
n
0.7404 0.3197 m
0.7404 0.3446 l
s
n
0.7304 0.3446 m
0.7504 0.3446 l
s
n
0.7404 0.3197 m
0.7404 0.2948 l
s
n
0.7504 0.2948 m
0.7304 0.2948 l
s
n
0.7548 0.3073 m
0.7548 0.3321 l
s
n
0.7448 0.3321 m
0.7648 0.3321 l
s
n
0.7548 0.3073 m
0.7548 0.2824 l
s
n
0.7648 0.2824 m
0.7448 0.2824 l
s
n
0.7692 0.2948 m
0.7692 0.3197 l
s
n
0.7592 0.3197 m
0.7792 0.3197 l
s
n
0.7692 0.2948 m
0.7692 0.2700 l
s
n
0.7792 0.2700 m
0.7592 0.2700 l
s
n
0.7836 0.2948 m
0.7836 0.3197 l
s
n
0.7736 0.3197 m
0.7936 0.3197 l
s
n
0.7836 0.2948 m
0.7836 0.2700 l
s
n
0.7936 0.2700 m
0.7736 0.2700 l
s
n
0.7980 0.2824 m
0.7980 0.3073 l
s
n
0.7880 0.3073 m
0.8080 0.3073 l
s
n
0.7980 0.2824 m
0.7980 0.2575 l
s
n
0.8080 0.2575 m
0.7880 0.2575 l
s
n
0.8124 0.2700 m
0.8124 0.2948 l
s
n
0.8024 0.2948 m
0.8224 0.2948 l
s
n
0.8124 0.2700 m
0.8124 0.2451 l
s
n
0.8224 0.2451 m
0.8024 0.2451 l
s
n
0.8268 0.2700 m
0.8268 0.2948 l
s
n
0.8168 0.2948 m
0.8368 0.2948 l
s
n
0.8268 0.2700 m
0.8268 0.2451 l
s
n
0.8368 0.2451 m
0.8168 0.2451 l
s
n
0.8412 0.2575 m
0.8412 0.2824 l
s
n
0.8312 0.2824 m
0.8512 0.2824 l
s
n
0.8412 0.2575 m
0.8412 0.2327 l
s
n
0.8512 0.2327 m
0.8312 0.2327 l
s
n
0.8556 0.2451 m
0.8556 0.2700 l
s
n
0.8456 0.2700 m
0.8656 0.2700 l
s
n
0.8556 0.2451 m
0.8556 0.2202 l
s
n
0.8656 0.2202 m
0.8456 0.2202 l
s
n
0.8700 0.2451 m
0.8700 0.2700 l
s
n
0.8600 0.2700 m
0.8800 0.2700 l
s
n
0.8700 0.2451 m
0.8700 0.2202 l
s
n
0.8800 0.2202 m
0.8600 0.2202 l
s
n
0.8844 0.2451 m
0.8844 0.2700 l
s
n
0.8744 0.2700 m
0.8944 0.2700 l
s
n
0.8844 0.2451 m
0.8844 0.2202 l
s
n
0.8944 0.2202 m
0.8744 0.2202 l
s
n
0.8988 0.2202 m
0.8988 0.2451 l
s
n
0.8888 0.2451 m
0.9088 0.2451 l
s
n
0.8988 0.2202 m
0.8988 0.1954 l
s
n
0.9088 0.1954 m
0.8888 0.1954 l
s
n
0.9132 0.2202 m
0.9132 0.2451 l
s
n
0.9032 0.2451 m
0.9232 0.2451 l
s
n
0.9132 0.2202 m
0.9132 0.1954 l
s
n
0.9232 0.1954 m
0.9032 0.1954 l
s
n
0.9276 0.2202 m
0.9276 0.2451 l
s
n
0.9176 0.2451 m
0.9376 0.2451 l
s
n
0.9276 0.2202 m
0.9276 0.1954 l
s
n
0.9376 0.1954 m
0.9176 0.1954 l
s
n
0.9420 0.2202 m
0.9420 0.2451 l
s
n
0.9320 0.2451 m
0.9520 0.2451 l
s
n
0.9420 0.2202 m
0.9420 0.1954 l
s
n
0.9520 0.1954 m
0.9320 0.1954 l
s
n
0.9564 0.1954 m
0.9564 0.2202 l
s
n
0.9464 0.2202 m
0.9664 0.2202 l
s
n
0.9564 0.1954 m
0.9564 0.1705 l
s
n
0.9664 0.1705 m
0.9464 0.1705 l
s
n
0.9708 0.1954 m
0.9708 0.2202 l
s
n
0.9608 0.2202 m
0.9808 0.2202 l
s
n
0.9708 0.1954 m
0.9708 0.1705 l
s
n
0.9808 0.1705 m
0.9608 0.1705 l
s
n
0.9853 0.1829 m
0.9853 0.2078 l
s
n
0.9753 0.2078 m
0.9953 0.2078 l
s
n
0.9853 0.1829 m
0.9853 0.1581 l
s
n
0.9953 0.1581 m
0.9753 0.1581 l
s
n
0.9997 0.1705 m
0.9997 0.1954 l
s
n
0.9897 0.1954 m
1.0097 0.1954 l
s
n
0.9997 0.1705 m
0.9997 0.1499 l
s
n
1.0141 0.1705 m
1.0141 0.1954 l
s
n
1.0041 0.1954 m
1.0241 0.1954 l
s
n
1.0141 0.1705 m
1.0141 0.1499 l
s
[] 0 SD
0.0030 SLW
n 0.2076 0.8294 0.0050 0.0050 0 360 EARC s
n 0.2220 0.7922 0.0050 0.0050 0 360 EARC s
n 0.2364 0.7673 0.0050 0.0050 0 360 EARC s
n 0.2508 0.7424 0.0050 0.0050 0 360 EARC s
n 0.2652 0.7176 0.0050 0.0050 0 360 EARC s
n 0.2796 0.6927 0.0050 0.0050 0 360 EARC s
n 0.2940 0.6554 0.0050 0.0050 0 360 EARC s
n 0.3084 0.6430 0.0050 0.0050 0 360 EARC s
n 0.3228 0.6181 0.0050 0.0050 0 360 EARC s
n 0.3372 0.6057 0.0050 0.0050 0 360 EARC s
n 0.3516 0.5932 0.0050 0.0050 0 360 EARC s
n 0.3660 0.5684 0.0050 0.0050 0 360 EARC s
n 0.3804 0.5559 0.0050 0.0050 0 360 EARC s
n 0.3948 0.5435 0.0050 0.0050 0 360 EARC s
n 0.4092 0.5186 0.0050 0.0050 0 360 EARC s
n 0.4236 0.5186 0.0050 0.0050 0 360 EARC s
n 0.4380 0.5062 0.0050 0.0050 0 360 EARC s
n 0.4524 0.4938 0.0050 0.0050 0 360 EARC s
n 0.4668 0.4938 0.0050 0.0050 0 360 EARC s
n 0.4812 0.4689 0.0050 0.0050 0 360 EARC s
n 0.4956 0.4689 0.0050 0.0050 0 360 EARC s
n 0.5100 0.4689 0.0050 0.0050 0 360 EARC s
n 0.5244 0.4565 0.0050 0.0050 0 360 EARC s
n 0.5388 0.4440 0.0050 0.0050 0 360 EARC s
n 0.5532 0.4440 0.0050 0.0050 0 360 EARC s
n 0.5676 0.4192 0.0050 0.0050 0 360 EARC s
n 0.5820 0.4192 0.0050 0.0050 0 360 EARC s
n 0.5964 0.4067 0.0050 0.0050 0 360 EARC s
n 0.6108 0.3943 0.0050 0.0050 0 360 EARC s
n 0.6252 0.3943 0.0050 0.0050 0 360 EARC s
n 0.6396 0.3694 0.0050 0.0050 0 360 EARC s
n 0.6540 0.3694 0.0050 0.0050 0 360 EARC s
n 0.6684 0.3694 0.0050 0.0050 0 360 EARC s
n 0.6828 0.3446 0.0050 0.0050 0 360 EARC s
n 0.6972 0.3446 0.0050 0.0050 0 360 EARC s
n 0.7116 0.3446 0.0050 0.0050 0 360 EARC s
n 0.7260 0.3197 0.0050 0.0050 0 360 EARC s
n 0.7404 0.3197 0.0050 0.0050 0 360 EARC s
n 0.7548 0.3073 0.0050 0.0050 0 360 EARC s
n 0.7692 0.2948 0.0050 0.0050 0 360 EARC s
n 0.7836 0.2948 0.0050 0.0050 0 360 EARC s
n 0.7980 0.2824 0.0050 0.0050 0 360 EARC s
n 0.8124 0.2700 0.0050 0.0050 0 360 EARC s
n 0.8268 0.2700 0.0050 0.0050 0 360 EARC s
n 0.8412 0.2575 0.0050 0.0050 0 360 EARC s
n 0.8556 0.2451 0.0050 0.0050 0 360 EARC s
n 0.8700 0.2451 0.0050 0.0050 0 360 EARC s
n 0.8844 0.2451 0.0050 0.0050 0 360 EARC s
n 0.8988 0.2202 0.0050 0.0050 0 360 EARC s
n 0.9132 0.2202 0.0050 0.0050 0 360 EARC s
n 0.9276 0.2202 0.0050 0.0050 0 360 EARC s
n 0.9420 0.2202 0.0050 0.0050 0 360 EARC s
n 0.9564 0.1954 0.0050 0.0050 0 360 EARC s
n 0.9708 0.1954 0.0050 0.0050 0 360 EARC s
n 0.9853 0.1829 0.0050 0.0050 0 360 EARC s
n 0.9997 0.1705 0.0050 0.0050 0 360 EARC s
n 1.0141 0.1705 0.0050 0.0050 0 360 EARC s
[/DeviceRGB] SCS
Color2 SC
[] 0 SD
0.0015 SLW
n
0.1832 0.8272 m
0.1867 0.8220 l
0.1901 0.8168 l
0.1936 0.8117 l
0.1970 0.8066 l
0.2004 0.8016 l
0.2039 0.7965 l
0.2073 0.7915 l
0.2107 0.7866 l
0.2142 0.7816 l
0.2176 0.7768 l
0.2210 0.7719 l
0.2245 0.7671 l
0.2279 0.7623 l
0.2313 0.7575 l
0.2348 0.7527 l
0.2382 0.7480 l
0.2416 0.7434 l
0.2451 0.7387 l
0.2485 0.7341 l
0.2519 0.7295 l
0.2554 0.7250 l
0.2588 0.7204 l
0.2622 0.7159 l
0.2657 0.7115 l
0.2691 0.7070 l
0.2725 0.7026 l
0.2760 0.6982 l
0.2794 0.6939 l
0.2828 0.6895 l
0.2863 0.6852 l
0.2897 0.6810 l
0.2931 0.6767 l
0.2966 0.6725 l
0.3000 0.6683 l
0.3034 0.6642 l
0.3069 0.6600 l
0.3103 0.6559 l
0.3138 0.6519 l
0.3172 0.6478 l
0.3206 0.6438 l
0.3241 0.6398 l
0.3275 0.6358 l
0.3309 0.6318 l
0.3344 0.6279 l
0.3378 0.6240 l
0.3412 0.6202 l
0.3447 0.6163 l
0.3481 0.6125 l
0.3515 0.6087 l
0.3550 0.6049 l
0.3584 0.6012 l
0.3618 0.5974 l
0.3653 0.5937 l
0.3687 0.5901 l
0.3721 0.5864 l
0.3756 0.5828 l
0.3790 0.5792 l
0.3824 0.5756 l
0.3859 0.5720 l
0.3893 0.5685 l
0.3927 0.5650 l
0.3962 0.5615 l
0.3996 0.5580 l
0.4030 0.5546 l
0.4065 0.5512 l
0.4099 0.5478 l
0.4133 0.5444 l
0.4168 0.5410 l
0.4202 0.5377 l
0.4237 0.5344 l
0.4271 0.5311 l
0.4305 0.5278 l
0.4340 0.5246 l
0.4374 0.5213 l
0.4408 0.5181 l
0.4443 0.5149 l
0.4477 0.5118 l
0.4511 0.5086 l
0.4546 0.5055 l
0.4580 0.5024 l
0.4614 0.4993 l
0.4649 0.4963 l
0.4683 0.4932 l
0.4717 0.4902 l
0.4752 0.4872 l
0.4786 0.4842 l
0.4820 0.4812 l
0.4855 0.4783 l
0.4889 0.4754 l
0.4923 0.4724 l
0.4958 0.4696 l
0.4992 0.4667 l
0.5026 0.4638 l
0.5061 0.4610 l
0.5095 0.4582 l
0.5129 0.4554 l
0.5164 0.4526 l
0.5198 0.4498 l
0.5232 0.4471 l
0.5267 0.4444 l
0.5301 0.4417 l
0.5335 0.4390 l
0.5370 0.4363 l
0.5404 0.4337 l
0.5439 0.4310 l
0.5473 0.4284 l
0.5507 0.4258 l
0.5542 0.4232 l
0.5576 0.4206 l
0.5610 0.4181 l
0.5645 0.4155 l
0.5679 0.4130 l
0.5713 0.4105 l
0.5748 0.4080 l
0.5782 0.4056 l
0.5816 0.4031 l
0.5851 0.4007 l
0.5885 0.3982 l
0.5919 0.3958 l
0.5954 0.3934 l
0.5988 0.3911 l
0.6022 0.3887 l
0.6057 0.3863 l
0.6091 0.3840 l
0.6125 0.3817 l
0.6160 0.3794 l
0.6194 0.3771 l
0.6228 0.3748 l
0.6263 0.3726 l
0.6297 0.3703 l
0.6331 0.3681 l
0.6366 0.3659 l
0.6400 0.3637 l
0.6434 0.3615 l
0.6469 0.3593 l
0.6503 0.3572 l
0.6538 0.3550 l
0.6572 0.3529 l
0.6606 0.3508 l
0.6641 0.3487 l
0.6675 0.3466 l
0.6709 0.3445 l
0.6744 0.3425 l
0.6778 0.3404 l
0.6812 0.3384 l
0.6847 0.3364 l
0.6881 0.3344 l
0.6915 0.3324 l
0.6950 0.3304 l
0.6984 0.3284 l
0.7018 0.3265 l
0.7053 0.3245 l
0.7087 0.3226 l
0.7121 0.3207 l
0.7156 0.3188 l
0.7190 0.3169 l
0.7224 0.3150 l
0.7259 0.3131 l
0.7293 0.3113 l
0.7327 0.3094 l
0.7362 0.3076 l
0.7396 0.3058 l
0.7430 0.3040 l
0.7465 0.3022 l
0.7499 0.3004 l
0.7533 0.2986 l
0.7568 0.2969 l
0.7602 0.2951 l
0.7636 0.2934 l
0.7671 0.2916 l
0.7705 0.2899 l
0.7740 0.2882 l
0.7774 0.2865 l
0.7808 0.2848 l
0.7843 0.2832 l
0.7877 0.2815 l
0.7911 0.2798 l
0.7946 0.2782 l
0.7980 0.2766 l
0.8014 0.2750 l
0.8049 0.2733 l
0.8083 0.2717 l
0.8117 0.2702 l
0.8152 0.2686 l
0.8186 0.2670 l
0.8220 0.2655 l
0.8255 0.2639 l
0.8289 0.2624 l
0.8323 0.2608 l
0.8358 0.2593 l
0.8392 0.2578 l
0.8426 0.2563 l
0.8461 0.2548 l
0.8495 0.2534 l
0.8529 0.2519 l
0.8564 0.2504 l
0.8598 0.2490 l
0.8632 0.2475 l
0.8667 0.2461 l
0.8701 0.2447 l
0.8735 0.2433 l
0.8770 0.2419 l
0.8804 0.2405 l
0.8839 0.2391 l
0.8873 0.2377 l
0.8907 0.2363 l
0.8942 0.2350 l
0.8976 0.2336 l
0.9010 0.2323 l
0.9045 0.2310 l
0.9079 0.2296 l
0.9113 0.2283 l
0.9148 0.2270 l
0.9182 0.2257 l
0.9216 0.2244 l
0.9251 0.2231 l
0.9285 0.2219 l
0.9319 0.2206 l
0.9354 0.2194 l
0.9388 0.2181 l
0.9422 0.2169 l
0.9457 0.2156 l
0.9491 0.2144 l
0.9525 0.2132 l
0.9560 0.2120 l
0.9594 0.2108 l
0.9628 0.2096 l
0.9663 0.2084 l
0.9697 0.2072 l
0.9731 0.2061 l
0.9766 0.2049 l
0.9800 0.2037 l
0.9834 0.2026 l
0.9869 0.2015 l
0.9903 0.2003 l
0.9938 0.1992 l
0.9972 0.1981 l
1.0006 0.1970 l
1.0041 0.1959 l
1.0075 0.1948 l
1.0109 0.1937 l
1.0144 0.1926 l
1.0178 0.1915 l
1.0212 0.1905 l
1.0247 0.1894 l
1.0281 0.1883 l
1.0315 0.1873 l
1.0350 0.1863 l
1.0384 0.1852 l
s
[/DeviceRGB] SCS
Color1 SC
[] 0 SD
0.0030 SLW
n
0.1832 0.8272 m
0.1867 0.8220 l
0.1901 0.8168 l
0.1936 0.8117 l
0.1970 0.8066 l
0.2004 0.8016 l
0.2039 0.7965 l
0.2073 0.7915 l
0.2107 0.7866 l
0.2142 0.7816 l
0.2176 0.7768 l
0.2210 0.7719 l
0.2245 0.7671 l
0.2279 0.7623 l
0.2313 0.7575 l
0.2348 0.7527 l
0.2382 0.7480 l
0.2416 0.7434 l
0.2451 0.7387 l
0.2485 0.7341 l
0.2519 0.7295 l
0.2554 0.7250 l
0.2588 0.7204 l
0.2622 0.7159 l
0.2657 0.7115 l
0.2691 0.7070 l
0.2725 0.7026 l
0.2760 0.6982 l
0.2794 0.6939 l
0.2828 0.6895 l
0.2863 0.6852 l
0.2897 0.6810 l
0.2931 0.6767 l
0.2966 0.6725 l
0.3000 0.6683 l
0.3034 0.6642 l
0.3069 0.6600 l
0.3103 0.6559 l
0.3138 0.6519 l
0.3172 0.6478 l
0.3206 0.6438 l
0.3241 0.6398 l
0.3275 0.6358 l
0.3309 0.6318 l
0.3344 0.6279 l
0.3378 0.6240 l
0.3412 0.6202 l
0.3447 0.6163 l
0.3481 0.6125 l
0.3515 0.6087 l
0.3550 0.6049 l
0.3584 0.6012 l
0.3618 0.5974 l
0.3653 0.5937 l
0.3687 0.5901 l
0.3721 0.5864 l
0.3756 0.5828 l
0.3790 0.5792 l
0.3824 0.5756 l
0.3859 0.5720 l
0.3893 0.5685 l
0.3927 0.5650 l
0.3962 0.5615 l
0.3996 0.5580 l
0.4030 0.5546 l
0.4065 0.5512 l
0.4099 0.5478 l
0.4133 0.5444 l
0.4168 0.5410 l
0.4202 0.5377 l
0.4237 0.5344 l
0.4271 0.5311 l
0.4305 0.5278 l
0.4340 0.5246 l
0.4374 0.5213 l
0.4408 0.5181 l
0.4443 0.5149 l
0.4477 0.5118 l
0.4511 0.5086 l
0.4546 0.5055 l
0.4580 0.5024 l
0.4614 0.4993 l
0.4649 0.4963 l
0.4683 0.4932 l
0.4717 0.4902 l
0.4752 0.4872 l
0.4786 0.4842 l
0.4820 0.4812 l
0.4855 0.4783 l
0.4889 0.4754 l
0.4923 0.4724 l
0.4958 0.4696 l
0.4992 0.4667 l
0.5026 0.4638 l
0.5061 0.4610 l
0.5095 0.4582 l
0.5129 0.4554 l
0.5164 0.4526 l
0.5198 0.4498 l
0.5232 0.4471 l
0.5267 0.4444 l
0.5301 0.4417 l
0.5335 0.4390 l
0.5370 0.4363 l
0.5404 0.4337 l
0.5439 0.4310 l
0.5473 0.4284 l
0.5507 0.4258 l
0.5542 0.4232 l
0.5576 0.4206 l
0.5610 0.4181 l
0.5645 0.4155 l
0.5679 0.4130 l
0.5713 0.4105 l
0.5748 0.4080 l
0.5782 0.4056 l
0.5816 0.4031 l
0.5851 0.4007 l
0.5885 0.3982 l
0.5919 0.3958 l
0.5954 0.3934 l
0.5988 0.3911 l
0.6022 0.3887 l
0.6057 0.3863 l
0.6091 0.3840 l
0.6125 0.3817 l
0.6160 0.3794 l
0.6194 0.3771 l
0.6228 0.3748 l
0.6263 0.3726 l
0.6297 0.3703 l
0.6331 0.3681 l
0.6366 0.3659 l
0.6400 0.3637 l
0.6434 0.3615 l
0.6469 0.3593 l
0.6503 0.3572 l
0.6538 0.3550 l
0.6572 0.3529 l
0.6606 0.3508 l
0.6641 0.3487 l
0.6675 0.3466 l
0.6709 0.3445 l
0.6744 0.3425 l
0.6778 0.3404 l
0.6812 0.3384 l
0.6847 0.3364 l
0.6881 0.3344 l
0.6915 0.3324 l
0.6950 0.3304 l
0.6984 0.3284 l
0.7018 0.3265 l
0.7053 0.3245 l
0.7087 0.3226 l
0.7121 0.3207 l
0.7156 0.3188 l
0.7190 0.3169 l
0.7224 0.3150 l
0.7259 0.3131 l
0.7293 0.3113 l
0.7327 0.3094 l
0.7362 0.3076 l
0.7396 0.3058 l
0.7430 0.3040 l
0.7465 0.3022 l
0.7499 0.3004 l
0.7533 0.2986 l
0.7568 0.2969 l
0.7602 0.2951 l
0.7636 0.2934 l
0.7671 0.2916 l
0.7705 0.2899 l
0.7740 0.2882 l
0.7774 0.2865 l
0.7808 0.2848 l
0.7843 0.2832 l
0.7877 0.2815 l
0.7911 0.2798 l
0.7946 0.2782 l
0.7980 0.2766 l
0.8014 0.2750 l
0.8049 0.2733 l
0.8083 0.2717 l
0.8117 0.2702 l
0.8152 0.2686 l
0.8186 0.2670 l
0.8220 0.2655 l
0.8255 0.2639 l
0.8289 0.2624 l
0.8323 0.2608 l
0.8358 0.2593 l
0.8392 0.2578 l
0.8426 0.2563 l
0.8461 0.2548 l
0.8495 0.2534 l
0.8529 0.2519 l
0.8564 0.2504 l
0.8598 0.2490 l
0.8632 0.2475 l
0.8667 0.2461 l
0.8701 0.2447 l
0.8735 0.2433 l
0.8770 0.2419 l
0.8804 0.2405 l
0.8839 0.2391 l
0.8873 0.2377 l
0.8907 0.2363 l
0.8942 0.2350 l
0.8976 0.2336 l
0.9010 0.2323 l
0.9045 0.2310 l
0.9079 0.2296 l
0.9113 0.2283 l
0.9148 0.2270 l
0.9182 0.2257 l
0.9216 0.2244 l
0.9251 0.2231 l
0.9285 0.2219 l
0.9319 0.2206 l
0.9354 0.2194 l
0.9388 0.2181 l
0.9422 0.2169 l
0.9457 0.2156 l
0.9491 0.2144 l
0.9525 0.2132 l
0.9560 0.2120 l
0.9594 0.2108 l
0.9628 0.2096 l
0.9663 0.2084 l
0.9697 0.2072 l
0.9731 0.2061 l
0.9766 0.2049 l
0.9800 0.2037 l
0.9834 0.2026 l
0.9869 0.2015 l
0.9903 0.2003 l
0.9938 0.1992 l
0.9972 0.1981 l
1.0006 0.1970 l
1.0041 0.1959 l
1.0075 0.1948 l
1.0109 0.1937 l
1.0144 0.1926 l
1.0178 0.1915 l
1.0212 0.1905 l
1.0247 0.1894 l
1.0281 0.1883 l
1.0315 0.1873 l
1.0350 0.1863 l
1.0384 0.1852 l
s
n
0.2933 0.1500 m
0.2933 0.1700 l
s
n
0.2933 0.8500 m
0.2933 0.8300 l
s
n
0.4648 0.1500 m
0.4648 0.1700 l
s
n
0.4648 0.8500 m
0.4648 0.8300 l
s
n
0.6362 0.1500 m
0.6362 0.1700 l
s
n
0.6362 0.8500 m
0.6362 0.8300 l
s
n
0.8076 0.1500 m
0.8076 0.1700 l
s
n
0.8076 0.8500 m
0.8076 0.8300 l
s
n
0.9791 0.1500 m
0.9791 0.1700 l
s
n
0.9791 0.8500 m
0.9791 0.8300 l
s
n
0.2076 0.1500 m
0.2076 0.1800 l
s
n
0.2076 0.8500 m
0.2076 0.8200 l
s
n
0.3790 0.1500 m
0.3790 0.1800 l
s
n
0.3790 0.8500 m
0.3790 0.8200 l
s
n
0.5505 0.1500 m
0.5505 0.1800 l
s
n
0.5505 0.8500 m
0.5505 0.8200 l
s
n
0.7219 0.1500 m
0.7219 0.1800 l
s
n
0.7219 0.8500 m
0.7219 0.8200 l
s
n
0.8934 0.1500 m
0.8934 0.1800 l
s
n
0.8934 0.8500 m
0.8934 0.8200 l
s
/Helvetica findfont
dup length dict begin
 {1 index /FID ne {def} {pop pop} ifelse} forall
 /Encoding DefEncoding def
 currentdict
end
/Font12 exch definefont pop
/Font12 FFSF
0.1792 0.1104 m
GS
[0.0420 0.0000 0.0000 0.0420 0 0] CC
(0.0) show
GR
/Font12 FFSF
0.3506 0.1104 m
GS
[0.0420 0.0000 0.0000 0.0420 0 0] CC
(7.5) show
GR
/Font12 FFSF
0.5105 0.1104 m
GS
[0.0420 0.0000 0.0000 0.0420 0 0] CC
(15.0) show
GR
/Font12 FFSF
0.6819 0.1104 m
GS
[0.0420 0.0000 0.0000 0.0420 0 0] CC
(22.5) show
GR
/Font12 FFSF
0.8534 0.1104 m
GS
[0.0420 0.0000 0.0000 0.0420 0 0] CC
(30.0) show
GR
/Font12 FFSF
0.5820 0.0688 m
GS
[0.0420 0.0000 0.0000 0.0420 0 0] CC
(t\(s\)) show
GR
n
0.1832 0.1767 m
0.2032 0.1767 l
s
n
1.0384 0.1767 m
1.0184 0.1767 l
s
n
0.1832 0.3135 m
0.2032 0.3135 l
s
n
1.0384 0.3135 m
1.0184 0.3135 l
s
n
0.1832 0.4502 m
0.2032 0.4502 l
s
n
1.0384 0.4502 m
1.0184 0.4502 l
s
n
0.1832 0.5870 m
0.2032 0.5870 l
s
n
1.0384 0.5870 m
1.0184 0.5870 l
s
n
0.1832 0.7238 m
0.2032 0.7238 l
s
n
1.0384 0.7238 m
1.0184 0.7238 l
s
n
0.1832 0.2451 m
0.2132 0.2451 l
s
n
1.0384 0.2451 m
1.0084 0.2451 l
s
n
0.1832 0.3819 m
0.2132 0.3819 l
s
n
1.0384 0.3819 m
1.0084 0.3819 l
s
n
0.1832 0.5186 m
0.2132 0.5186 l
s
n
1.0384 0.5186 m
1.0084 0.5186 l
s
n
0.1832 0.6554 m
0.2132 0.6554 l
s
n
1.0384 0.6554 m
1.0084 0.6554 l
s
n
0.1832 0.7922 m
0.2132 0.7922 l
s
n
1.0384 0.7922 m
1.0084 0.7922 l
s
/Font12 FFSF
0.0700 0.2307 m
GS
[0.0420 0.0000 0.0000 0.0420 0 0] CC
(0.055) show
GR
/Font12 FFSF
0.0700 0.3675 m
GS
[0.0420 0.0000 0.0000 0.0420 0 0] CC
(0.066) show
GR
/Font12 FFSF
0.0696 0.5042 m
GS
[0.0420 0.0000 0.0000 0.0420 0 0] CC
(0.077) show
GR
/Font12 FFSF
0.0700 0.6410 m
GS
[0.0420 0.0000 0.0000 0.0420 0 0] CC
(0.088) show
GR
/Font12 FFSF
0.0704 0.7778 m
GS
[0.0420 0.0000 0.0000 0.0420 0 0] CC
(0.099) show
GR
/Font12 FFSF
0.0504 0.4562 m
GS
[0.0000 0.0420 -0.0420 0.0000 0 0] CC
(A\(m\)) show
GR
n
0.1832 0.1500 m
0.1832 0.8500 l
1.0384 0.8500 l
1.0384 0.1500 l
0.1832 0.1500 l
c
s
%%Trailer
%%BoundingBox: 10 34 625 512
%%DocumentNeededResources: font Helvetica
%%EOF
