%!PS-Adobe-3.0 EPSF-3.0
%%BoundingBox: (atend)
%%LanguageLevel: 2
%%Creator: Grace-5.1.22
%%CreationDate: Wed Oct 15 22:56:19 2014
%%DocumentData: Clean8Bit
%%Orientation: Portrait
%%Title: fit-gph-2.agr
%%For: wfr
%%DocumentNeededResources: (atend)
%%EndComments
%%BeginProlog
/m {moveto} def
/l {lineto} def
/s {stroke} def
/n {newpath} def
/c {closepath} def
/RL {rlineto} def
/SLW {setlinewidth} def
/GS {gsave} def
/GR {grestore} def
/SC {setcolor} def
/SGRY {setgray} def
/SRGB {setrgbcolor} def
/SD {setdash} def
/SLC {setlinecap} def
/SLJ {setlinejoin} def
/SCS {setcolorspace} def
/FFSF {findfont setfont} def
/CC {concat} def
/PXL {n m 0 0 RL s} def
/Color0 {1.0000 1.0000 1.0000} def
/Color1 {0.0000 0.0000 0.0000} def
/Color2 {1.0000 0.0000 0.0000} def
/Color3 {0.0000 1.0000 0.0000} def
/Color4 {0.0000 0.0000 1.0000} def
/Color5 {1.0000 1.0000 0.0000} def
/Color6 {0.7373 0.5608 0.5608} def
/Color7 {0.8627 0.8627 0.8627} def
/Color8 {0.5804 0.0000 0.8275} def
/Color9 {0.0000 1.0000 1.0000} def
/Color10 {1.0000 0.0000 1.0000} def
/Color11 {1.0000 0.6471 0.0000} def
/Color12 {0.4471 0.1294 0.7373} def
/Color13 {0.4039 0.0275 0.2824} def
/Color14 {0.2510 0.8784 0.8157} def
/Color15 {0.0000 0.5451 0.0000} def
/PTRN {
 /pat_bits exch def 
 <<
  /PaintType 2
  /PatternType 1 /TilingType 1
  /BBox[0 0 16 16]
  /XStep 16 /YStep 16
  /PaintProc {
   pop
   16 16 true [-1 0 0 -1 16 16] pat_bits imagemask
  }
 >>
 [0.0017 0 0 0.0017 0 0]
 makepattern
} def
/Pattern0 {<0000000000000000000000000000000000000000000000000000000000000000> PTRN} bind def
/Pattern1 {<ffffffffffffffffffffffffffffffffffffffffffffffffffffffffffffffff> PTRN} bind def
/Pattern2 {<eeeeffffbbbbffffeeeeffffbbbbffffeeeeffffbbbbffffeeeeffffbbbbffff> PTRN} bind def
/Pattern3 {<eeeebbbbeeeebbbbeeeebbbbeeeebbbbeeeebbbbeeeebbbbeeeebbbbeeeebbbb> PTRN} bind def
/Pattern4 {<5555aaaa5555aaaa5555aaaa5555aaaa5555aaaa5555aaaa5555aaaa5555aaaa> PTRN} bind def
/Pattern5 {<1111444411114444111144441111444411114444111144441111444411114444> PTRN} bind def
/Pattern6 {<1111000044440000111100004444000011110000444400001111000044440000> PTRN} bind def
/Pattern7 {<1010000000000000010100000000000010100000000000000101000000000000> PTRN} bind def
/Pattern8 {<0000000000000000000000000000000000000000000000000000000000000000> PTRN} bind def
/Pattern9 {<1e1e0f0f8787c3c3e1e1f0f078783c3c1e1e0f0f8787c3c3e1e1f0f078783c3c> PTRN} bind def
/Pattern10 {<7878f0f0e1e1c3c387870f0f1e1e3c3c7878f0f0e1e1c3c387870f0f1e1e3c3c> PTRN} bind def
/Pattern11 {<3333333333333333333333333333333333333333333333333333333333333333> PTRN} bind def
/Pattern12 {<ffffffff00000000ffffffff00000000ffffffff00000000ffffffff00000000> PTRN} bind def
/Pattern13 {<8181424224241818181824244242818181814242242418181818242442428181> PTRN} bind def
/Pattern14 {<8080404020201010080804040202010180804040202010100808040402020101> PTRN} bind def
/Pattern15 {<0101020204040808101020204040808001010202040408081010202040408080> PTRN} bind def
/Pattern16 {<2222222222222222222222222222222222222222222222222222222222222222> PTRN} bind def
/Pattern17 {<0000ffff000000000000ffff000000000000ffff000000000000ffff00000000> PTRN} bind def
/Pattern18 {<2222ffff222222222222ffff222222222222ffff222222222222ffff22222222> PTRN} bind def
/Pattern19 {<ffffffff33333333ffffffff33333333ffffffff33333333ffffffff33333333> PTRN} bind def
/Pattern20 {<0f0f0f0f0f0f0f0ff0f0f0f0f0f0f0f00f0f0f0f0f0f0f0ff0f0f0f0f0f0f0f0> PTRN} bind def
/Pattern21 {<ff00ff00ff00ff00ff00ff00ff00ff0000ff00ff00ff00ff00ff00ff00ff00ff> PTRN} bind def
/Pattern22 {<8001800180018001800180018001ffffffff8001800180018001800180018001> PTRN} bind def
/Pattern23 {<c003c003c003c003c003c003ffffffffffffffffc003c003c003c003c003c003> PTRN} bind def
/Pattern24 {<040404040404ffff404040404040ffff040404040404ffff404040404040ffff> PTRN} bind def
/Pattern25 {<180018001800180018001800ffffffff001800180018001800180018ffffffff> PTRN} bind def
/Pattern26 {<1111b8b87c7c3a3a1111a3a3c7c78b8b1111b8b87c7c3a3a1111a3a3c7c78b8b> PTRN} bind def
/Pattern27 {<101010102828c7c70101010182827c7c101010102828c7c70101010182827c7c> PTRN} bind def
/Pattern28 {<1c1c121211112121c1c12121111112121c1c121211112121c1c1212111111212> PTRN} bind def
/Pattern29 {<3e3e414180808080e3e31414080808083e3e414180808080e3e3141408080808> PTRN} bind def
/Pattern30 {<4848888884848383848488884848383848488888848483838484888848483838> PTRN} bind def
/Pattern31 {<03030404080808080c0c12122121c0c003030404080808080c0c12122121c0c0> PTRN} bind def
/ellipsedict 8 dict def
ellipsedict /mtrx matrix put
/EARC {
 ellipsedict begin
  /endangle exch def
  /startangle exch def
  /yrad exch def
  /xrad exch def
  /y exch def
  /x exch def
  /savematrix mtrx currentmatrix def
  x y translate
  xrad yrad scale
  0 0 1 startangle endangle arc
  savematrix setmatrix
 end
} def
/TL {
  /kcomp exch def
  /linewidth exch def
  /offset exch def
  GS
  0 offset rmoveto
  linewidth SLW
  dup stringwidth exch kcomp add exch RL s
  GR
} def
/KINIT
{
 /kvector exch def
 /kid 0 def
} def
/KPROC
{
 pop pop
 kvector kid get
 0 rmoveto
 /kid 1 kid add def
} def
/DefEncoding [
 /.notdef
 /.notdef
 /.notdef
 /.notdef
 /.notdef
 /.notdef
 /.notdef
 /.notdef
 /.notdef
 /.notdef
 /.notdef
 /.notdef
 /.notdef
 /.notdef
 /.notdef
 /.notdef
 /.notdef
 /.notdef
 /.notdef
 /.notdef
 /.notdef
 /.notdef
 /.notdef
 /.notdef
 /.notdef
 /.notdef
 /.notdef
 /.notdef
 /.notdef
 /.notdef
 /.notdef
 /.notdef
 /space
 /exclam
 /quotedbl
 /numbersign
 /dollar
 /percent
 /ampersand
 /quoteright
 /parenleft
 /parenright
 /asterisk
 /plus
 /comma
 /hyphen
 /period
 /slash
 /zero
 /one
 /two
 /three
 /four
 /five
 /six
 /seven
 /eight
 /nine
 /colon
 /semicolon
 /less
 /equal
 /greater
 /question
 /at
 /A
 /B
 /C
 /D
 /E
 /F
 /G
 /H
 /I
 /J
 /K
 /L
 /M
 /N
 /O
 /P
 /Q
 /R
 /S
 /T
 /U
 /V
 /W
 /X
 /Y
 /Z
 /bracketleft
 /backslash
 /bracketright
 /asciicircum
 /underscore
 /grave
 /a
 /b
 /c
 /d
 /e
 /f
 /g
 /h
 /i
 /j
 /k
 /l
 /m
 /n
 /o
 /p
 /q
 /r
 /s
 /t
 /u
 /v
 /w
 /x
 /y
 /z
 /braceleft
 /bar
 /braceright
 /asciitilde
 /.notdef
 /.notdef
 /.notdef
 /.notdef
 /.notdef
 /.notdef
 /.notdef
 /.notdef
 /.notdef
 /.notdef
 /.notdef
 /.notdef
 /.notdef
 /.notdef
 /.notdef
 /.notdef
 /.notdef
 /.notdef
 /.notdef
 /.notdef
 /.notdef
 /.notdef
 /.notdef
 /.notdef
 /.notdef
 /.notdef
 /.notdef
 /.notdef
 /.notdef
 /.notdef
 /.notdef
 /.notdef
 /.notdef
 /space
 /exclamdown
 /cent
 /sterling
 /currency
 /yen
 /brokenbar
 /section
 /dieresis
 /copyright
 /ordfeminine
 /guillemotleft
 /logicalnot
 /hyphen
 /registered
 /macron
 /degree
 /plusminus
 /twosuperior
 /threesuperior
 /acute
 /mu
 /paragraph
 /periodcentered
 /cedilla
 /onesuperior
 /ordmasculine
 /guillemotright
 /onequarter
 /onehalf
 /threequarters
 /questiondown
 /Agrave
 /Aacute
 /Acircumflex
 /Atilde
 /Adieresis
 /Aring
 /AE
 /Ccedilla
 /Egrave
 /Eacute
 /Ecircumflex
 /Edieresis
 /Igrave
 /Iacute
 /Icircumflex
 /Idieresis
 /Eth
 /Ntilde
 /Ograve
 /Oacute
 /Ocircumflex
 /Otilde
 /Odieresis
 /multiply
 /Oslash
 /Ugrave
 /Uacute
 /Ucircumflex
 /Udieresis
 /Yacute
 /Thorn
 /germandbls
 /agrave
 /aacute
 /acircumflex
 /atilde
 /adieresis
 /aring
 /ae
 /ccedilla
 /egrave
 /eacute
 /ecircumflex
 /edieresis
 /igrave
 /iacute
 /icircumflex
 /idieresis
 /eth
 /ntilde
 /ograve
 /oacute
 /ocircumflex
 /otilde
 /odieresis
 /divide
 /oslash
 /ugrave
 /uacute
 /ucircumflex
 /udieresis
 /yacute
 /thorn
 /ydieresis
] def
%%EndProlog
%%BeginSetup
%%EndSetup
600.00 600.00 scale
n
0.0000 0.0000 m
0.0000 1.0000 l
1.2884 1.0000 l
1.2884 0.0000 l
c
[/DeviceRGB] SCS
Color0 SC
fill
[/DeviceRGB] SCS
Color1 SC
[] 0 SD
0.0015 SLW
0 SLC
0 SLJ
n
0.2073 0.8299 m
0.2073 0.8501 l
s
n
0.2073 0.8299 m
0.2073 0.8092 l
s
n
0.2173 0.8092 m
0.1973 0.8092 l
s
n
0.2476 0.7474 m
0.2476 0.7680 l
s
n
0.2376 0.7680 m
0.2576 0.7680 l
s
n
0.2476 0.7474 m
0.2476 0.7268 l
s
n
0.2576 0.7268 m
0.2376 0.7268 l
s
n
0.2880 0.6649 m
0.2880 0.6855 l
s
n
0.2780 0.6855 m
0.2980 0.6855 l
s
n
0.2880 0.6649 m
0.2880 0.6443 l
s
n
0.2980 0.6443 m
0.2780 0.6443 l
s
n
0.3283 0.5928 m
0.3283 0.6134 l
s
n
0.3183 0.6134 m
0.3383 0.6134 l
s
n
0.3283 0.5928 m
0.3283 0.5721 l
s
n
0.3383 0.5721 m
0.3183 0.5721 l
s
n
0.3687 0.5309 m
0.3687 0.5515 l
s
n
0.3587 0.5515 m
0.3787 0.5515 l
s
n
0.3687 0.5309 m
0.3687 0.5103 l
s
n
0.3787 0.5103 m
0.3587 0.5103 l
s
n
0.4090 0.4794 m
0.4090 0.5000 l
s
n
0.3990 0.5000 m
0.4190 0.5000 l
s
n
0.4090 0.4794 m
0.4090 0.4587 l
s
n
0.4190 0.4587 m
0.3990 0.4587 l
s
n
0.4494 0.4278 m
0.4494 0.4484 l
s
n
0.4394 0.4484 m
0.4594 0.4484 l
s
n
0.4494 0.4278 m
0.4494 0.4072 l
s
n
0.4594 0.4072 m
0.4394 0.4072 l
s
n
0.4898 0.3969 m
0.4898 0.4175 l
s
n
0.4798 0.4175 m
0.4998 0.4175 l
s
n
0.4898 0.3969 m
0.4898 0.3763 l
s
n
0.4998 0.3763 m
0.4798 0.3763 l
s
n
0.5301 0.3660 m
0.5301 0.3866 l
s
n
0.5201 0.3866 m
0.5401 0.3866 l
s
n
0.5301 0.3660 m
0.5301 0.3453 l
s
n
0.5401 0.3453 m
0.5201 0.3453 l
s
n
0.5705 0.3350 m
0.5705 0.3557 l
s
n
0.5605 0.3557 m
0.5805 0.3557 l
s
n
0.5705 0.3350 m
0.5705 0.3144 l
s
n
0.5805 0.3144 m
0.5605 0.3144 l
s
n
0.6108 0.2835 m
0.6108 0.3041 l
s
n
0.6008 0.3041 m
0.6208 0.3041 l
s
n
0.6108 0.2835 m
0.6108 0.2629 l
s
n
0.6208 0.2629 m
0.6008 0.2629 l
s
n
0.6512 0.2835 m
0.6512 0.3041 l
s
n
0.6412 0.3041 m
0.6612 0.3041 l
s
n
0.6512 0.2835 m
0.6512 0.2629 l
s
n
0.6612 0.2629 m
0.6412 0.2629 l
s
n
0.6915 0.2526 m
0.6915 0.2732 l
s
n
0.6815 0.2732 m
0.7015 0.2732 l
s
n
0.6915 0.2526 m
0.6915 0.2319 l
s
n
0.7015 0.2319 m
0.6815 0.2319 l
s
n
0.7319 0.2526 m
0.7319 0.2732 l
s
n
0.7219 0.2732 m
0.7419 0.2732 l
s
n
0.7319 0.2526 m
0.7319 0.2319 l
s
n
0.7419 0.2319 m
0.7219 0.2319 l
s
n
0.7722 0.2216 m
0.7722 0.2423 l
s
n
0.7622 0.2423 m
0.7822 0.2423 l
s
n
0.7722 0.2216 m
0.7722 0.2010 l
s
n
0.7822 0.2010 m
0.7622 0.2010 l
s
n
0.8126 0.2113 m
0.8126 0.2319 l
s
n
0.8026 0.2319 m
0.8226 0.2319 l
s
n
0.8126 0.2113 m
0.8126 0.1907 l
s
n
0.8226 0.1907 m
0.8026 0.1907 l
s
n
0.8530 0.1907 m
0.8530 0.2113 l
s
n
0.8430 0.2113 m
0.8630 0.2113 l
s
n
0.8530 0.1907 m
0.8530 0.1701 l
s
n
0.8630 0.1701 m
0.8430 0.1701 l
s
n
0.8933 0.1907 m
0.8933 0.2113 l
s
n
0.8833 0.2113 m
0.9033 0.2113 l
s
n
0.8933 0.1907 m
0.8933 0.1701 l
s
n
0.9033 0.1701 m
0.8833 0.1701 l
s
n
0.9337 0.1701 m
0.9337 0.1907 l
s
n
0.9237 0.1907 m
0.9437 0.1907 l
s
n
0.9337 0.1701 m
0.9337 0.1499 l
s
n
0.9740 0.1701 m
0.9740 0.1907 l
s
n
0.9640 0.1907 m
0.9840 0.1907 l
s
n
0.9740 0.1701 m
0.9740 0.1499 l
s
n
1.0144 0.1701 m
1.0144 0.1907 l
s
n
1.0044 0.1907 m
1.0244 0.1907 l
s
n
1.0144 0.1701 m
1.0144 0.1499 l
s
[] 0 SD
0.0030 SLW
n 0.2073 0.8299 0.0050 0.0050 0 360 EARC s
n 0.2476 0.7474 0.0050 0.0050 0 360 EARC s
n 0.2880 0.6649 0.0050 0.0050 0 360 EARC s
n 0.3283 0.5928 0.0050 0.0050 0 360 EARC s
n 0.3687 0.5309 0.0050 0.0050 0 360 EARC s
n 0.4090 0.4794 0.0050 0.0050 0 360 EARC s
n 0.4494 0.4278 0.0050 0.0050 0 360 EARC s
n 0.4898 0.3969 0.0050 0.0050 0 360 EARC s
n 0.5301 0.3660 0.0050 0.0050 0 360 EARC s
n 0.5705 0.3350 0.0050 0.0050 0 360 EARC s
n 0.6108 0.2835 0.0050 0.0050 0 360 EARC s
n 0.6512 0.2835 0.0050 0.0050 0 360 EARC s
n 0.6915 0.2526 0.0050 0.0050 0 360 EARC s
n 0.7319 0.2526 0.0050 0.0050 0 360 EARC s
n 0.7722 0.2216 0.0050 0.0050 0 360 EARC s
n 0.8126 0.2113 0.0050 0.0050 0 360 EARC s
n 0.8530 0.1907 0.0050 0.0050 0 360 EARC s
n 0.8933 0.1907 0.0050 0.0050 0 360 EARC s
n 0.9337 0.1701 0.0050 0.0050 0 360 EARC s
n 0.9740 0.1701 0.0050 0.0050 0 360 EARC s
n 1.0144 0.1701 0.0050 0.0050 0 360 EARC s
[/DeviceRGB] SCS
Color2 SC
[] 0 SD
0.0015 SLW
n
0.2062 0.8501 m
0.2073 0.8473 l
0.2107 0.8383 l
0.2142 0.8294 l
0.2176 0.8206 l
0.2210 0.8119 l
0.2245 0.8033 l
0.2279 0.7949 l
0.2313 0.7865 l
0.2348 0.7783 l
0.2382 0.7701 l
0.2416 0.7621 l
0.2451 0.7542 l
0.2485 0.7463 l
0.2519 0.7386 l
0.2554 0.7310 l
0.2588 0.7234 l
0.2622 0.7160 l
0.2657 0.7086 l
0.2691 0.7014 l
0.2725 0.6942 l
0.2760 0.6872 l
0.2794 0.6802 l
0.2828 0.6733 l
0.2863 0.6665 l
0.2897 0.6598 l
0.2931 0.6531 l
0.2966 0.6466 l
0.3000 0.6401 l
0.3034 0.6337 l
0.3069 0.6274 l
0.3103 0.6212 l
0.3138 0.6151 l
0.3172 0.6090 l
0.3206 0.6030 l
0.3241 0.5971 l
0.3275 0.5913 l
0.3309 0.5855 l
0.3344 0.5798 l
0.3378 0.5742 l
0.3412 0.5687 l
0.3447 0.5632 l
0.3481 0.5578 l
0.3515 0.5525 l
0.3550 0.5472 l
0.3584 0.5420 l
0.3618 0.5369 l
0.3653 0.5318 l
0.3687 0.5268 l
0.3721 0.5219 l
0.3756 0.5170 l
0.3790 0.5122 l
0.3824 0.5074 l
0.3859 0.5027 l
0.3893 0.4981 l
0.3927 0.4935 l
0.3962 0.4890 l
0.3996 0.4845 l
0.4030 0.4801 l
0.4065 0.4758 l
0.4099 0.4715 l
0.4133 0.4673 l
0.4168 0.4631 l
0.4202 0.4590 l
0.4237 0.4549 l
0.4271 0.4509 l
0.4305 0.4469 l
0.4340 0.4430 l
0.4374 0.4391 l
0.4408 0.4353 l
0.4443 0.4315 l
0.4477 0.4278 l
0.4511 0.4241 l
0.4546 0.4204 l
0.4580 0.4169 l
0.4614 0.4133 l
0.4649 0.4098 l
0.4683 0.4064 l
0.4717 0.4030 l
0.4752 0.3996 l
0.4786 0.3963 l
0.4820 0.3930 l
0.4855 0.3898 l
0.4889 0.3866 l
0.4923 0.3834 l
0.4958 0.3803 l
0.4992 0.3772 l
0.5026 0.3742 l
0.5061 0.3712 l
0.5095 0.3682 l
0.5129 0.3653 l
0.5164 0.3624 l
0.5198 0.3596 l
0.5232 0.3567 l
0.5267 0.3540 l
0.5301 0.3512 l
0.5335 0.3485 l
0.5370 0.3459 l
0.5404 0.3432 l
0.5439 0.3406 l
0.5473 0.3380 l
0.5507 0.3355 l
0.5542 0.3330 l
0.5576 0.3305 l
0.5610 0.3281 l
0.5645 0.3257 l
0.5679 0.3233 l
0.5713 0.3209 l
0.5748 0.3186 l
0.5782 0.3163 l
0.5816 0.3141 l
0.5851 0.3118 l
0.5885 0.3096 l
0.5919 0.3074 l
0.5954 0.3053 l
0.5988 0.3032 l
0.6022 0.3011 l
0.6057 0.2990 l
0.6091 0.2970 l
0.6125 0.2949 l
0.6160 0.2930 l
0.6194 0.2910 l
0.6228 0.2891 l
0.6263 0.2871 l
0.6297 0.2852 l
0.6331 0.2834 l
0.6366 0.2815 l
0.6400 0.2797 l
0.6434 0.2779 l
0.6469 0.2761 l
0.6503 0.2744 l
0.6538 0.2727 l
0.6572 0.2710 l
0.6606 0.2693 l
0.6641 0.2676 l
0.6675 0.2660 l
0.6709 0.2643 l
0.6744 0.2627 l
0.6778 0.2612 l
0.6812 0.2596 l
0.6847 0.2581 l
0.6881 0.2565 l
0.6915 0.2550 l
0.6950 0.2536 l
0.6984 0.2521 l
0.7018 0.2506 l
0.7053 0.2492 l
0.7087 0.2478 l
0.7121 0.2464 l
0.7156 0.2450 l
0.7190 0.2437 l
0.7224 0.2424 l
0.7259 0.2410 l
0.7293 0.2397 l
0.7327 0.2384 l
0.7362 0.2372 l
0.7396 0.2359 l
0.7430 0.2347 l
0.7465 0.2334 l
0.7499 0.2322 l
0.7533 0.2310 l
0.7568 0.2299 l
0.7602 0.2287 l
0.7636 0.2276 l
0.7671 0.2264 l
0.7705 0.2253 l
0.7740 0.2242 l
0.7774 0.2231 l
0.7808 0.2220 l
0.7843 0.2210 l
0.7877 0.2199 l
0.7911 0.2189 l
0.7946 0.2179 l
0.7980 0.2169 l
0.8014 0.2159 l
0.8049 0.2149 l
0.8083 0.2139 l
0.8117 0.2129 l
0.8152 0.2120 l
0.8186 0.2111 l
0.8220 0.2101 l
0.8255 0.2092 l
0.8289 0.2083 l
0.8323 0.2074 l
0.8358 0.2066 l
0.8392 0.2057 l
0.8426 0.2048 l
0.8461 0.2040 l
0.8495 0.2032 l
0.8529 0.2023 l
0.8564 0.2015 l
0.8598 0.2007 l
0.8632 0.1999 l
0.8667 0.1991 l
0.8701 0.1984 l
0.8735 0.1976 l
0.8770 0.1969 l
0.8804 0.1961 l
0.8838 0.1954 l
0.8873 0.1947 l
0.8907 0.1939 l
0.8942 0.1932 l
0.8976 0.1925 l
0.9010 0.1919 l
0.9045 0.1912 l
0.9079 0.1905 l
0.9113 0.1898 l
0.9148 0.1892 l
0.9182 0.1885 l
0.9216 0.1879 l
0.9251 0.1873 l
0.9285 0.1867 l
0.9319 0.1860 l
0.9354 0.1854 l
0.9388 0.1848 l
0.9422 0.1843 l
0.9457 0.1837 l
0.9491 0.1831 l
0.9525 0.1825 l
0.9560 0.1820 l
0.9594 0.1814 l
0.9628 0.1809 l
0.9663 0.1803 l
0.9697 0.1798 l
0.9731 0.1793 l
0.9766 0.1788 l
0.9800 0.1782 l
0.9834 0.1777 l
0.9869 0.1772 l
0.9903 0.1767 l
0.9937 0.1763 l
0.9972 0.1758 l
1.0006 0.1753 l
1.0041 0.1748 l
1.0075 0.1744 l
1.0109 0.1739 l
1.0144 0.1735 l
1.0178 0.1730 l
1.0212 0.1726 l
1.0247 0.1721 l
1.0281 0.1717 l
1.0315 0.1713 l
1.0350 0.1709 l
1.0384 0.1705 l
s
[/DeviceRGB] SCS
Color1 SC
[] 0 SD
0.0030 SLW
n
0.2062 0.8501 m
0.2073 0.8473 l
0.2107 0.8383 l
0.2142 0.8294 l
0.2176 0.8206 l
0.2210 0.8119 l
0.2245 0.8033 l
0.2279 0.7949 l
0.2313 0.7865 l
0.2348 0.7783 l
0.2382 0.7701 l
0.2416 0.7621 l
0.2451 0.7542 l
0.2485 0.7463 l
0.2519 0.7386 l
0.2554 0.7310 l
0.2588 0.7234 l
0.2622 0.7160 l
0.2657 0.7086 l
0.2691 0.7014 l
0.2725 0.6942 l
0.2760 0.6872 l
0.2794 0.6802 l
0.2828 0.6733 l
0.2863 0.6665 l
0.2897 0.6598 l
0.2931 0.6531 l
0.2966 0.6466 l
0.3000 0.6401 l
0.3034 0.6337 l
0.3069 0.6274 l
0.3103 0.6212 l
0.3138 0.6151 l
0.3172 0.6090 l
0.3206 0.6030 l
0.3241 0.5971 l
0.3275 0.5913 l
0.3309 0.5855 l
0.3344 0.5798 l
0.3378 0.5742 l
0.3412 0.5687 l
0.3447 0.5632 l
0.3481 0.5578 l
0.3515 0.5525 l
0.3550 0.5472 l
0.3584 0.5420 l
0.3618 0.5369 l
0.3653 0.5318 l
0.3687 0.5268 l
0.3721 0.5219 l
0.3756 0.5170 l
0.3790 0.5122 l
0.3824 0.5074 l
0.3859 0.5027 l
0.3893 0.4981 l
0.3927 0.4935 l
0.3962 0.4890 l
0.3996 0.4845 l
0.4030 0.4801 l
0.4065 0.4758 l
0.4099 0.4715 l
0.4133 0.4673 l
0.4168 0.4631 l
0.4202 0.4590 l
0.4237 0.4549 l
0.4271 0.4509 l
0.4305 0.4469 l
0.4340 0.4430 l
0.4374 0.4391 l
0.4408 0.4353 l
0.4443 0.4315 l
0.4477 0.4278 l
0.4511 0.4241 l
0.4546 0.4204 l
0.4580 0.4169 l
0.4614 0.4133 l
0.4649 0.4098 l
0.4683 0.4064 l
0.4717 0.4030 l
0.4752 0.3996 l
0.4786 0.3963 l
0.4820 0.3930 l
0.4855 0.3898 l
0.4889 0.3866 l
0.4923 0.3834 l
0.4958 0.3803 l
0.4992 0.3772 l
0.5026 0.3742 l
0.5061 0.3712 l
0.5095 0.3682 l
0.5129 0.3653 l
0.5164 0.3624 l
0.5198 0.3596 l
0.5232 0.3567 l
0.5267 0.3540 l
0.5301 0.3512 l
0.5335 0.3485 l
0.5370 0.3459 l
0.5404 0.3432 l
0.5439 0.3406 l
0.5473 0.3380 l
0.5507 0.3355 l
0.5542 0.3330 l
0.5576 0.3305 l
0.5610 0.3281 l
0.5645 0.3257 l
0.5679 0.3233 l
0.5713 0.3209 l
0.5748 0.3186 l
0.5782 0.3163 l
0.5816 0.3141 l
0.5851 0.3118 l
0.5885 0.3096 l
0.5919 0.3074 l
0.5954 0.3053 l
0.5988 0.3032 l
0.6022 0.3011 l
0.6057 0.2990 l
0.6091 0.2970 l
0.6125 0.2949 l
0.6160 0.2930 l
0.6194 0.2910 l
0.6228 0.2891 l
0.6263 0.2871 l
0.6297 0.2852 l
0.6331 0.2834 l
0.6366 0.2815 l
0.6400 0.2797 l
0.6434 0.2779 l
0.6469 0.2761 l
0.6503 0.2744 l
0.6538 0.2727 l
0.6572 0.2710 l
0.6606 0.2693 l
0.6641 0.2676 l
0.6675 0.2660 l
0.6709 0.2643 l
0.6744 0.2627 l
0.6778 0.2612 l
0.6812 0.2596 l
0.6847 0.2581 l
0.6881 0.2565 l
0.6915 0.2550 l
0.6950 0.2536 l
0.6984 0.2521 l
0.7018 0.2506 l
0.7053 0.2492 l
0.7087 0.2478 l
0.7121 0.2464 l
0.7156 0.2450 l
0.7190 0.2437 l
0.7224 0.2424 l
0.7259 0.2410 l
0.7293 0.2397 l
0.7327 0.2384 l
0.7362 0.2372 l
0.7396 0.2359 l
0.7430 0.2347 l
0.7465 0.2334 l
0.7499 0.2322 l
0.7533 0.2310 l
0.7568 0.2299 l
0.7602 0.2287 l
0.7636 0.2276 l
0.7671 0.2264 l
0.7705 0.2253 l
0.7740 0.2242 l
0.7774 0.2231 l
0.7808 0.2220 l
0.7843 0.2210 l
0.7877 0.2199 l
0.7911 0.2189 l
0.7946 0.2179 l
0.7980 0.2169 l
0.8014 0.2159 l
0.8049 0.2149 l
0.8083 0.2139 l
0.8117 0.2129 l
0.8152 0.2120 l
0.8186 0.2111 l
0.8220 0.2101 l
0.8255 0.2092 l
0.8289 0.2083 l
0.8323 0.2074 l
0.8358 0.2066 l
0.8392 0.2057 l
0.8426 0.2048 l
0.8461 0.2040 l
0.8495 0.2032 l
0.8529 0.2023 l
0.8564 0.2015 l
0.8598 0.2007 l
0.8632 0.1999 l
0.8667 0.1991 l
0.8701 0.1984 l
0.8735 0.1976 l
0.8770 0.1969 l
0.8804 0.1961 l
0.8838 0.1954 l
0.8873 0.1947 l
0.8907 0.1939 l
0.8942 0.1932 l
0.8976 0.1925 l
0.9010 0.1919 l
0.9045 0.1912 l
0.9079 0.1905 l
0.9113 0.1898 l
0.9148 0.1892 l
0.9182 0.1885 l
0.9216 0.1879 l
0.9251 0.1873 l
0.9285 0.1867 l
0.9319 0.1860 l
0.9354 0.1854 l
0.9388 0.1848 l
0.9422 0.1843 l
0.9457 0.1837 l
0.9491 0.1831 l
0.9525 0.1825 l
0.9560 0.1820 l
0.9594 0.1814 l
0.9628 0.1809 l
0.9663 0.1803 l
0.9697 0.1798 l
0.9731 0.1793 l
0.9766 0.1788 l
0.9800 0.1782 l
0.9834 0.1777 l
0.9869 0.1772 l
0.9903 0.1767 l
0.9937 0.1763 l
0.9972 0.1758 l
1.0006 0.1753 l
1.0041 0.1748 l
1.0075 0.1744 l
1.0109 0.1739 l
1.0144 0.1735 l
1.0178 0.1730 l
1.0212 0.1726 l
1.0247 0.1721 l
1.0281 0.1717 l
1.0315 0.1713 l
1.0350 0.1709 l
1.0384 0.1705 l
s
n
0.2937 0.1500 m
0.2937 0.1700 l
s
n
0.2937 0.8500 m
0.2937 0.8300 l
s
n
0.4667 0.1500 m
0.4667 0.1700 l
s
n
0.4667 0.8500 m
0.4667 0.8300 l
s
n
0.6396 0.1500 m
0.6396 0.1700 l
s
n
0.6396 0.8500 m
0.6396 0.8300 l
s
n
0.8126 0.1500 m
0.8126 0.1700 l
s
n
0.8126 0.8500 m
0.8126 0.8300 l
s
n
0.9856 0.1500 m
0.9856 0.1700 l
s
n
0.9856 0.8500 m
0.9856 0.8300 l
s
n
0.2073 0.1500 m
0.2073 0.1800 l
s
n
0.2073 0.8500 m
0.2073 0.8200 l
s
n
0.3802 0.1500 m
0.3802 0.1800 l
s
n
0.3802 0.8500 m
0.3802 0.8200 l
s
n
0.5532 0.1500 m
0.5532 0.1800 l
s
n
0.5532 0.8500 m
0.5532 0.8200 l
s
n
0.7261 0.1500 m
0.7261 0.1800 l
s
n
0.7261 0.8500 m
0.7261 0.8200 l
s
n
0.8991 0.1500 m
0.8991 0.1800 l
s
n
0.8991 0.8500 m
0.8991 0.8200 l
s
/Helvetica findfont
dup length dict begin
 {1 index /FID ne {def} {pop pop} ifelse} forall
 /Encoding DefEncoding def
 currentdict
end
/Font12 exch definefont pop
/Font12 FFSF
0.1789 0.1104 m
GS
[0.0420 0.0000 0.0000 0.0420 0 0] CC
(0.0) show
GR
/Font12 FFSF
0.3516 0.1104 m
GS
[0.0420 0.0000 0.0000 0.0420 0 0] CC
(2.7) show
GR
/Font12 FFSF
0.5246 0.1104 m
GS
[0.0420 0.0000 0.0000 0.0420 0 0] CC
(5.4) show
GR
/Font12 FFSF
0.7013 0.1104 m
GS
[0.0420 0.0000 0.0000 0.0420 0 0] CC
(8.1) show
GR
/Font12 FFSF
0.8591 0.1104 m
GS
[0.0420 0.0000 0.0000 0.0420 0 0] CC
(10.8) show
GR
/Font12 FFSF
0.5820 0.0688 m
GS
[0.0420 0.0000 0.0000 0.0420 0 0] CC
(t\(s\)) show
GR
n
0.1832 0.2113 m
0.2032 0.2113 l
s
n
1.0384 0.2113 m
1.0184 0.2113 l
s
n
0.1832 0.3557 m
0.2032 0.3557 l
s
n
1.0384 0.3557 m
1.0184 0.3557 l
s
n
0.1832 0.5000 m
0.2032 0.5000 l
s
n
1.0384 0.5000 m
1.0184 0.5000 l
s
n
0.1832 0.6443 m
0.2032 0.6443 l
s
n
1.0384 0.6443 m
1.0184 0.6443 l
s
n
0.1832 0.7886 m
0.2032 0.7886 l
s
n
1.0384 0.7886 m
1.0184 0.7886 l
s
n
0.1832 0.2835 m
0.2132 0.2835 l
s
n
1.0384 0.2835 m
1.0084 0.2835 l
s
n
0.1832 0.4278 m
0.2132 0.4278 l
s
n
1.0384 0.4278 m
1.0084 0.4278 l
s
n
0.1832 0.5721 m
0.2132 0.5721 l
s
n
1.0384 0.5721 m
1.0084 0.5721 l
s
n
0.1832 0.7165 m
0.2132 0.7165 l
s
n
1.0384 0.7165 m
1.0084 0.7165 l
s
/Font12 FFSF
0.0696 0.2691 m
GS
[0.0420 0.0000 0.0000 0.0420 0 0] CC
(0.014) show
GR
/Font12 FFSF
0.0700 0.4134 m
GS
[0.0420 0.0000 0.0000 0.0420 0 0] CC
(0.028) show
GR
/Font12 FFSF
0.0700 0.5577 m
GS
[0.0420 0.0000 0.0000 0.0420 0 0] CC
(0.042) show
GR
/Font12 FFSF
0.0700 0.7021 m
GS
[0.0420 0.0000 0.0000 0.0420 0 0] CC
(0.056) show
GR
/Font12 FFSF
0.0504 0.4562 m
GS
[0.0000 0.0420 -0.0420 0.0000 0 0] CC
(A\(m\)) show
GR
n
0.1832 0.1500 m
0.1832 0.8500 l
1.0384 0.8500 l
1.0384 0.1500 l
0.1832 0.1500 l
c
s
%%Trailer
%%BoundingBox: 10 34 625 512
%%DocumentNeededResources: font Helvetica
%%EOF
