%!PS-Adobe-3.0 EPSF-3.0
%%BoundingBox: (atend)
%%LanguageLevel: 2
%%Creator: Grace-5.1.22
%%CreationDate: Mon Nov  3 01:03:49 2014
%%DocumentData: Clean8Bit
%%Orientation: Portrait
%%Title: fit-gph.agr
%%For: wfr
%%DocumentNeededResources: (atend)
%%EndComments
%%BeginProlog
/m {moveto} def
/l {lineto} def
/s {stroke} def
/n {newpath} def
/c {closepath} def
/RL {rlineto} def
/SLW {setlinewidth} def
/GS {gsave} def
/GR {grestore} def
/SC {setcolor} def
/SGRY {setgray} def
/SRGB {setrgbcolor} def
/SD {setdash} def
/SLC {setlinecap} def
/SLJ {setlinejoin} def
/SCS {setcolorspace} def
/FFSF {findfont setfont} def
/CC {concat} def
/PXL {n m 0 0 RL s} def
/Color0 {1.0000 1.0000 1.0000} def
/Color1 {0.0000 0.0000 0.0000} def
/Color2 {1.0000 0.0000 0.0000} def
/Color3 {0.0000 1.0000 0.0000} def
/Color4 {0.0000 0.0000 1.0000} def
/Color5 {1.0000 1.0000 0.0000} def
/Color6 {0.7373 0.5608 0.5608} def
/Color7 {0.8627 0.8627 0.8627} def
/Color8 {0.5804 0.0000 0.8275} def
/Color9 {0.0000 1.0000 1.0000} def
/Color10 {1.0000 0.0000 1.0000} def
/Color11 {1.0000 0.6471 0.0000} def
/Color12 {0.4471 0.1294 0.7373} def
/Color13 {0.4039 0.0275 0.2824} def
/Color14 {0.2510 0.8784 0.8157} def
/Color15 {0.0000 0.5451 0.0000} def
/PTRN {
 /pat_bits exch def 
 <<
  /PaintType 2
  /PatternType 1 /TilingType 1
  /BBox[0 0 16 16]
  /XStep 16 /YStep 16
  /PaintProc {
   pop
   16 16 true [-1 0 0 -1 16 16] pat_bits imagemask
  }
 >>
 [0.0017 0 0 0.0017 0 0]
 makepattern
} def
/Pattern0 {<0000000000000000000000000000000000000000000000000000000000000000> PTRN} bind def
/Pattern1 {<ffffffffffffffffffffffffffffffffffffffffffffffffffffffffffffffff> PTRN} bind def
/Pattern2 {<eeeeffffbbbbffffeeeeffffbbbbffffeeeeffffbbbbffffeeeeffffbbbbffff> PTRN} bind def
/Pattern3 {<eeeebbbbeeeebbbbeeeebbbbeeeebbbbeeeebbbbeeeebbbbeeeebbbbeeeebbbb> PTRN} bind def
/Pattern4 {<5555aaaa5555aaaa5555aaaa5555aaaa5555aaaa5555aaaa5555aaaa5555aaaa> PTRN} bind def
/Pattern5 {<1111444411114444111144441111444411114444111144441111444411114444> PTRN} bind def
/Pattern6 {<1111000044440000111100004444000011110000444400001111000044440000> PTRN} bind def
/Pattern7 {<1010000000000000010100000000000010100000000000000101000000000000> PTRN} bind def
/Pattern8 {<0000000000000000000000000000000000000000000000000000000000000000> PTRN} bind def
/Pattern9 {<1e1e0f0f8787c3c3e1e1f0f078783c3c1e1e0f0f8787c3c3e1e1f0f078783c3c> PTRN} bind def
/Pattern10 {<7878f0f0e1e1c3c387870f0f1e1e3c3c7878f0f0e1e1c3c387870f0f1e1e3c3c> PTRN} bind def
/Pattern11 {<3333333333333333333333333333333333333333333333333333333333333333> PTRN} bind def
/Pattern12 {<ffffffff00000000ffffffff00000000ffffffff00000000ffffffff00000000> PTRN} bind def
/Pattern13 {<8181424224241818181824244242818181814242242418181818242442428181> PTRN} bind def
/Pattern14 {<8080404020201010080804040202010180804040202010100808040402020101> PTRN} bind def
/Pattern15 {<0101020204040808101020204040808001010202040408081010202040408080> PTRN} bind def
/Pattern16 {<2222222222222222222222222222222222222222222222222222222222222222> PTRN} bind def
/Pattern17 {<0000ffff000000000000ffff000000000000ffff000000000000ffff00000000> PTRN} bind def
/Pattern18 {<2222ffff222222222222ffff222222222222ffff222222222222ffff22222222> PTRN} bind def
/Pattern19 {<ffffffff33333333ffffffff33333333ffffffff33333333ffffffff33333333> PTRN} bind def
/Pattern20 {<0f0f0f0f0f0f0f0ff0f0f0f0f0f0f0f00f0f0f0f0f0f0f0ff0f0f0f0f0f0f0f0> PTRN} bind def
/Pattern21 {<ff00ff00ff00ff00ff00ff00ff00ff0000ff00ff00ff00ff00ff00ff00ff00ff> PTRN} bind def
/Pattern22 {<8001800180018001800180018001ffffffff8001800180018001800180018001> PTRN} bind def
/Pattern23 {<c003c003c003c003c003c003ffffffffffffffffc003c003c003c003c003c003> PTRN} bind def
/Pattern24 {<040404040404ffff404040404040ffff040404040404ffff404040404040ffff> PTRN} bind def
/Pattern25 {<180018001800180018001800ffffffff001800180018001800180018ffffffff> PTRN} bind def
/Pattern26 {<1111b8b87c7c3a3a1111a3a3c7c78b8b1111b8b87c7c3a3a1111a3a3c7c78b8b> PTRN} bind def
/Pattern27 {<101010102828c7c70101010182827c7c101010102828c7c70101010182827c7c> PTRN} bind def
/Pattern28 {<1c1c121211112121c1c12121111112121c1c121211112121c1c1212111111212> PTRN} bind def
/Pattern29 {<3e3e414180808080e3e31414080808083e3e414180808080e3e3141408080808> PTRN} bind def
/Pattern30 {<4848888884848383848488884848383848488888848483838484888848483838> PTRN} bind def
/Pattern31 {<03030404080808080c0c12122121c0c003030404080808080c0c12122121c0c0> PTRN} bind def
/ellipsedict 8 dict def
ellipsedict /mtrx matrix put
/EARC {
 ellipsedict begin
  /endangle exch def
  /startangle exch def
  /yrad exch def
  /xrad exch def
  /y exch def
  /x exch def
  /savematrix mtrx currentmatrix def
  x y translate
  xrad yrad scale
  0 0 1 startangle endangle arc
  savematrix setmatrix
 end
} def
/TL {
  /kcomp exch def
  /linewidth exch def
  /offset exch def
  GS
  0 offset rmoveto
  linewidth SLW
  dup stringwidth exch kcomp add exch RL s
  GR
} def
/KINIT
{
 /kvector exch def
 /kid 0 def
} def
/KPROC
{
 pop pop
 kvector kid get
 0 rmoveto
 /kid 1 kid add def
} def
/DefEncoding [
 /.notdef
 /.notdef
 /.notdef
 /.notdef
 /.notdef
 /.notdef
 /.notdef
 /.notdef
 /.notdef
 /.notdef
 /.notdef
 /.notdef
 /.notdef
 /.notdef
 /.notdef
 /.notdef
 /.notdef
 /.notdef
 /.notdef
 /.notdef
 /.notdef
 /.notdef
 /.notdef
 /.notdef
 /.notdef
 /.notdef
 /.notdef
 /.notdef
 /.notdef
 /.notdef
 /.notdef
 /.notdef
 /space
 /exclam
 /quotedbl
 /numbersign
 /dollar
 /percent
 /ampersand
 /quoteright
 /parenleft
 /parenright
 /asterisk
 /plus
 /comma
 /hyphen
 /period
 /slash
 /zero
 /one
 /two
 /three
 /four
 /five
 /six
 /seven
 /eight
 /nine
 /colon
 /semicolon
 /less
 /equal
 /greater
 /question
 /at
 /A
 /B
 /C
 /D
 /E
 /F
 /G
 /H
 /I
 /J
 /K
 /L
 /M
 /N
 /O
 /P
 /Q
 /R
 /S
 /T
 /U
 /V
 /W
 /X
 /Y
 /Z
 /bracketleft
 /backslash
 /bracketright
 /asciicircum
 /underscore
 /grave
 /a
 /b
 /c
 /d
 /e
 /f
 /g
 /h
 /i
 /j
 /k
 /l
 /m
 /n
 /o
 /p
 /q
 /r
 /s
 /t
 /u
 /v
 /w
 /x
 /y
 /z
 /braceleft
 /bar
 /braceright
 /asciitilde
 /.notdef
 /.notdef
 /.notdef
 /.notdef
 /.notdef
 /.notdef
 /.notdef
 /.notdef
 /.notdef
 /.notdef
 /.notdef
 /.notdef
 /.notdef
 /.notdef
 /.notdef
 /.notdef
 /.notdef
 /.notdef
 /.notdef
 /.notdef
 /.notdef
 /.notdef
 /.notdef
 /.notdef
 /.notdef
 /.notdef
 /.notdef
 /.notdef
 /.notdef
 /.notdef
 /.notdef
 /.notdef
 /.notdef
 /space
 /exclamdown
 /cent
 /sterling
 /currency
 /yen
 /brokenbar
 /section
 /dieresis
 /copyright
 /ordfeminine
 /guillemotleft
 /logicalnot
 /hyphen
 /registered
 /macron
 /degree
 /plusminus
 /twosuperior
 /threesuperior
 /acute
 /mu
 /paragraph
 /periodcentered
 /cedilla
 /onesuperior
 /ordmasculine
 /guillemotright
 /onequarter
 /onehalf
 /threequarters
 /questiondown
 /Agrave
 /Aacute
 /Acircumflex
 /Atilde
 /Adieresis
 /Aring
 /AE
 /Ccedilla
 /Egrave
 /Eacute
 /Ecircumflex
 /Edieresis
 /Igrave
 /Iacute
 /Icircumflex
 /Idieresis
 /Eth
 /Ntilde
 /Ograve
 /Oacute
 /Ocircumflex
 /Otilde
 /Odieresis
 /multiply
 /Oslash
 /Ugrave
 /Uacute
 /Ucircumflex
 /Udieresis
 /Yacute
 /Thorn
 /germandbls
 /agrave
 /aacute
 /acircumflex
 /atilde
 /adieresis
 /aring
 /ae
 /ccedilla
 /egrave
 /eacute
 /ecircumflex
 /edieresis
 /igrave
 /iacute
 /icircumflex
 /idieresis
 /eth
 /ntilde
 /ograve
 /oacute
 /ocircumflex
 /otilde
 /odieresis
 /divide
 /oslash
 /ugrave
 /uacute
 /ucircumflex
 /udieresis
 /yacute
 /thorn
 /ydieresis
] def
%%EndProlog
%%BeginSetup
%%EndSetup
600.00 600.00 scale
n
0.0000 0.0000 m
0.0000 1.0000 l
1.2884 1.0000 l
1.2884 0.0000 l
c
[/DeviceRGB] SCS
Color0 SC
fill
[/DeviceRGB] SCS
Color1 SC
[] 0 SD
0.0015 SLW
0 SLC
0 SLJ
n
0.2074 0.2000 m
0.2074 0.2014 l
s
n
0.1974 0.2014 m
0.2174 0.2014 l
s
n
0.2074 0.2000 m
0.2074 0.1985 l
s
n
0.2174 0.1985 m
0.1974 0.1985 l
s
n
0.2165 0.2117 m
0.2165 0.2131 l
s
n
0.2065 0.2131 m
0.2265 0.2131 l
s
n
0.2165 0.2117 m
0.2165 0.2103 l
s
n
0.2265 0.2103 m
0.2065 0.2103 l
s
n
0.2254 0.2234 m
0.2254 0.2249 l
s
n
0.2154 0.2249 m
0.2354 0.2249 l
s
n
0.2254 0.2234 m
0.2254 0.2219 l
s
n
0.2354 0.2219 m
0.2154 0.2219 l
s
n
0.2395 0.2438 m
0.2395 0.2453 l
s
n
0.2295 0.2453 m
0.2495 0.2453 l
s
n
0.2395 0.2438 m
0.2395 0.2423 l
s
n
0.2495 0.2423 m
0.2295 0.2423 l
s
n
0.2456 0.2526 m
0.2456 0.2544 l
s
n
0.2356 0.2544 m
0.2556 0.2544 l
s
n
0.2456 0.2526 m
0.2456 0.2508 l
s
n
0.2556 0.2508 m
0.2356 0.2508 l
s
n
0.2717 0.3038 m
0.2717 0.3056 l
s
n
0.2617 0.3056 m
0.2817 0.3056 l
s
n
0.2717 0.3038 m
0.2717 0.3019 l
s
n
0.2817 0.3019 m
0.2617 0.3019 l
s
n
0.2867 0.3381 m
0.2867 0.3402 l
s
n
0.2767 0.3402 m
0.2967 0.3402 l
s
n
0.2867 0.3381 m
0.2867 0.3360 l
s
n
0.2967 0.3360 m
0.2767 0.3360 l
s
n
0.3041 0.3856 m
0.3041 0.3882 l
s
n
0.2941 0.3882 m
0.3141 0.3882 l
s
n
0.3041 0.3856 m
0.3041 0.3830 l
s
n
0.3141 0.3830 m
0.2941 0.3830 l
s
n
0.3114 0.4200 m
0.3114 0.4229 l
s
n
0.3014 0.4229 m
0.3214 0.4229 l
s
n
0.3114 0.4200 m
0.3114 0.4170 l
s
n
0.3214 0.4170 m
0.3014 0.4170 l
s
n
0.3263 0.4740 m
0.3263 0.4772 l
s
n
0.3163 0.4772 m
0.3363 0.4772 l
s
n
0.3263 0.4740 m
0.3263 0.4709 l
s
n
0.3363 0.4709 m
0.3163 0.4709 l
s
n
0.3380 0.5398 m
0.3380 0.5439 l
s
n
0.3280 0.5439 m
0.3480 0.5439 l
s
n
0.3380 0.5398 m
0.3380 0.5357 l
s
n
0.3480 0.5357 m
0.3280 0.5357 l
s
n
0.3474 0.5983 m
0.3474 0.6026 l
s
n
0.3374 0.6026 m
0.3574 0.6026 l
s
n
0.3474 0.5983 m
0.3474 0.5940 l
s
n
0.3574 0.5940 m
0.3374 0.5940 l
s
n
0.3579 0.6662 m
0.3579 0.6704 l
s
n
0.3479 0.6704 m
0.3679 0.6704 l
s
n
0.3579 0.6662 m
0.3579 0.6620 l
s
n
0.3679 0.6620 m
0.3479 0.6620 l
s
n
0.3660 0.7159 m
0.3660 0.7206 l
s
n
0.3560 0.7206 m
0.3760 0.7206 l
s
n
0.3660 0.7159 m
0.3660 0.7113 l
s
n
0.3760 0.7113 m
0.3560 0.7113 l
s
n
0.3704 0.7525 m
0.3704 0.7571 l
s
n
0.3604 0.7571 m
0.3804 0.7571 l
s
n
0.3704 0.7525 m
0.3704 0.7479 l
s
n
0.3804 0.7479 m
0.3604 0.7479 l
s
n
0.3735 0.7664 m
0.3735 0.7690 l
s
n
0.3635 0.7690 m
0.3835 0.7690 l
s
n
0.3735 0.7664 m
0.3735 0.7638 l
s
n
0.3835 0.7638 m
0.3635 0.7638 l
s
n
0.3765 0.7773 m
0.3765 0.7816 l
s
n
0.3665 0.7816 m
0.3865 0.7816 l
s
n
0.3765 0.7773 m
0.3765 0.7730 l
s
n
0.3865 0.7730 m
0.3665 0.7730 l
s
n
0.3826 0.8190 m
0.3826 0.8220 l
s
n
0.3726 0.8220 m
0.3926 0.8220 l
s
n
0.3826 0.8190 m
0.3826 0.8159 l
s
n
0.3926 0.8159 m
0.3726 0.8159 l
s
n
0.3909 0.8307 m
0.3909 0.8314 l
s
n
0.3809 0.8314 m
0.4009 0.8314 l
s
n
0.3909 0.8307 m
0.3909 0.8299 l
s
n
0.4009 0.8299 m
0.3809 0.8299 l
s
n
0.4004 0.8256 m
0.4004 0.8269 l
s
n
0.3904 0.8269 m
0.4104 0.8269 l
s
n
0.4004 0.8256 m
0.4004 0.8242 l
s
n
0.4104 0.8242 m
0.3904 0.8242 l
s
n
0.4040 0.8182 m
0.4040 0.8203 l
s
n
0.3940 0.8203 m
0.4140 0.8203 l
s
n
0.4040 0.8182 m
0.4040 0.8162 l
s
n
0.4140 0.8162 m
0.3940 0.8162 l
s
n
0.4092 0.8036 m
0.4092 0.8066 l
s
n
0.3992 0.8066 m
0.4192 0.8066 l
s
n
0.4092 0.8036 m
0.4092 0.8007 l
s
n
0.4192 0.8007 m
0.3992 0.8007 l
s
n
0.4214 0.7459 m
0.4214 0.7496 l
s
n
0.4114 0.7496 m
0.4314 0.7496 l
s
n
0.4214 0.7459 m
0.4214 0.7422 l
s
n
0.4314 0.7422 m
0.4114 0.7422 l
s
n
0.4311 0.6882 m
0.4311 0.6926 l
s
n
0.4211 0.6926 m
0.4411 0.6926 l
s
n
0.4311 0.6882 m
0.4311 0.6838 l
s
n
0.4411 0.6838 m
0.4211 0.6838 l
s
n
0.4384 0.6399 m
0.4384 0.6437 l
s
n
0.4284 0.6437 m
0.4484 0.6437 l
s
n
0.4384 0.6399 m
0.4384 0.6361 l
s
n
0.4484 0.6361 m
0.4284 0.6361 l
s
n
0.4542 0.5720 m
0.4542 0.5742 l
s
n
0.4442 0.5742 m
0.4642 0.5742 l
s
n
0.4542 0.5720 m
0.4542 0.5698 l
s
n
0.4642 0.5698 m
0.4442 0.5698 l
s
n
0.5121 0.4178 m
0.5121 0.4204 l
s
n
0.5021 0.4204 m
0.5221 0.4204 l
s
n
0.5121 0.4178 m
0.5121 0.4151 l
s
n
0.5221 0.4151 m
0.5021 0.4151 l
s
n
0.4769 0.5003 m
0.4769 0.5017 l
s
n
0.4669 0.5017 m
0.4869 0.5017 l
s
n
0.4769 0.5003 m
0.4769 0.4990 l
s
n
0.4869 0.4990 m
0.4669 0.4990 l
s
n
0.5834 0.3345 m
0.5834 0.3359 l
s
n
0.5734 0.3359 m
0.5934 0.3359 l
s
n
0.5834 0.3345 m
0.5834 0.3330 l
s
n
0.5934 0.3330 m
0.5734 0.3330 l
s
n
0.6593 0.2869 m
0.6593 0.2878 l
s
n
0.6493 0.2878 m
0.6693 0.2878 l
s
n
0.6593 0.2869 m
0.6593 0.2861 l
s
n
0.6693 0.2861 m
0.6493 0.2861 l
s
n
0.8407 0.2446 m
0.8407 0.2454 l
s
n
0.8307 0.2454 m
0.8507 0.2454 l
s
n
0.8407 0.2446 m
0.8407 0.2437 l
s
n
0.8507 0.2437 m
0.8307 0.2437 l
s
n
0.9178 0.2175 m
0.9178 0.2186 l
s
n
0.9078 0.2186 m
0.9278 0.2186 l
s
n
0.9178 0.2175 m
0.9178 0.2165 l
s
n
0.9278 0.2165 m
0.9078 0.2165 l
s
[] 0 SD
0.0030 SLW
n 0.2074 0.2000 0.0020 0.0020 0 360 EARC s
n 0.2165 0.2117 0.0020 0.0020 0 360 EARC s
n 0.2254 0.2234 0.0020 0.0020 0 360 EARC s
n 0.2395 0.2438 0.0020 0.0020 0 360 EARC s
n 0.2456 0.2526 0.0020 0.0020 0 360 EARC s
n 0.2717 0.3038 0.0020 0.0020 0 360 EARC s
n 0.2867 0.3381 0.0020 0.0020 0 360 EARC s
n 0.3041 0.3856 0.0020 0.0020 0 360 EARC s
n 0.3114 0.4200 0.0020 0.0020 0 360 EARC s
n 0.3263 0.4740 0.0020 0.0020 0 360 EARC s
n 0.3380 0.5398 0.0020 0.0020 0 360 EARC s
n 0.3474 0.5983 0.0020 0.0020 0 360 EARC s
n 0.3579 0.6662 0.0020 0.0020 0 360 EARC s
n 0.3660 0.7159 0.0020 0.0020 0 360 EARC s
n 0.3704 0.7525 0.0020 0.0020 0 360 EARC s
n 0.3735 0.7664 0.0020 0.0020 0 360 EARC s
n 0.3765 0.7773 0.0020 0.0020 0 360 EARC s
n 0.3826 0.8190 0.0020 0.0020 0 360 EARC s
n 0.3909 0.8307 0.0020 0.0020 0 360 EARC s
n 0.4004 0.8256 0.0020 0.0020 0 360 EARC s
n 0.4040 0.8182 0.0020 0.0020 0 360 EARC s
n 0.4092 0.8036 0.0020 0.0020 0 360 EARC s
n 0.4214 0.7459 0.0020 0.0020 0 360 EARC s
n 0.4311 0.6882 0.0020 0.0020 0 360 EARC s
n 0.4384 0.6399 0.0020 0.0020 0 360 EARC s
n 0.4542 0.5720 0.0020 0.0020 0 360 EARC s
n 0.5121 0.4178 0.0020 0.0020 0 360 EARC s
n 0.4769 0.5003 0.0020 0.0020 0 360 EARC s
n 0.5834 0.3345 0.0020 0.0020 0 360 EARC s
n 0.6593 0.2869 0.0020 0.0020 0 360 EARC s
n 0.8407 0.2446 0.0020 0.0020 0 360 EARC s
n 0.9178 0.2175 0.0020 0.0020 0 360 EARC s
[/DeviceRGB] SCS
Color2 SC
[] 0 SD
0.0015 SLW
n
0.1832 0.1719 m
0.1919 0.1815 l
0.2005 0.1915 l
0.2092 0.2020 l
0.2178 0.2129 l
0.2264 0.2245 l
0.2351 0.2368 l
0.2437 0.2501 l
0.2523 0.2644 l
0.2610 0.2800 l
0.2696 0.2972 l
0.2783 0.3161 l
0.2869 0.3373 l
0.2955 0.3611 l
0.3042 0.3881 l
0.3128 0.4188 l
0.3215 0.4540 l
0.3301 0.4944 l
0.3387 0.5406 l
0.3474 0.5930 l
0.3560 0.6505 l
0.3646 0.7105 l
0.3733 0.7667 l
0.3819 0.8101 l
0.3906 0.8317 l
0.3992 0.8273 l
0.4078 0.8008 l
0.4165 0.7605 l
0.4251 0.7148 l
0.4337 0.6693 l
0.4424 0.6269 l
0.4510 0.5888 l
0.4597 0.5551 l
0.4683 0.5255 l
0.4769 0.4995 l
0.4856 0.4765 l
0.4942 0.4563 l
0.5028 0.4384 l
0.5115 0.4223 l
0.5201 0.4080 l
0.5288 0.3951 l
0.5374 0.3834 l
0.5460 0.3728 l
0.5547 0.3631 l
0.5633 0.3542 l
0.5720 0.3461 l
0.5806 0.3386 l
0.5892 0.3316 l
0.5979 0.3252 l
0.6065 0.3192 l
0.6151 0.3136 l
0.6238 0.3083 l
0.6324 0.3034 l
0.6411 0.2988 l
0.6497 0.2944 l
0.6583 0.2903 l
0.6670 0.2865 l
0.6756 0.2828 l
0.6842 0.2793 l
0.6929 0.2760 l
0.7015 0.2729 l
0.7102 0.2699 l
0.7188 0.2670 l
0.7274 0.2643 l
0.7361 0.2617 l
0.7447 0.2592 l
0.7533 0.2568 l
0.7620 0.2545 l
0.7706 0.2523 l
0.7793 0.2502 l
0.7879 0.2482 l
0.7965 0.2462 l
0.8052 0.2444 l
0.8138 0.2425 l
0.8224 0.2408 l
0.8311 0.2391 l
0.8397 0.2375 l
0.8484 0.2359 l
0.8570 0.2344 l
0.8656 0.2329 l
0.8743 0.2315 l
0.8829 0.2301 l
0.8916 0.2288 l
0.9002 0.2274 l
0.9088 0.2262 l
0.9175 0.2250 l
0.9261 0.2238 l
0.9347 0.2226 l
0.9434 0.2215 l
0.9520 0.2204 l
0.9607 0.2193 l
0.9693 0.2183 l
0.9779 0.2173 l
0.9866 0.2163 l
0.9952 0.2153 l
1.0038 0.2144 l
1.0125 0.2135 l
1.0211 0.2126 l
1.0298 0.2117 l
1.0384 0.2109 l
s
[/DeviceRGB] SCS
Color1 SC
[] 0 SD
0.0030 SLW
n
0.1832 0.1719 m
0.1919 0.1815 l
0.2005 0.1915 l
0.2092 0.2020 l
0.2178 0.2129 l
0.2264 0.2245 l
0.2351 0.2368 l
0.2437 0.2501 l
0.2523 0.2644 l
0.2610 0.2800 l
0.2696 0.2972 l
0.2783 0.3161 l
0.2869 0.3373 l
0.2955 0.3611 l
0.3042 0.3881 l
0.3128 0.4188 l
0.3215 0.4540 l
0.3301 0.4944 l
0.3387 0.5406 l
0.3474 0.5930 l
0.3560 0.6505 l
0.3646 0.7105 l
0.3733 0.7667 l
0.3819 0.8101 l
0.3906 0.8317 l
0.3992 0.8273 l
0.4078 0.8008 l
0.4165 0.7605 l
0.4251 0.7148 l
0.4337 0.6693 l
0.4424 0.6269 l
0.4510 0.5888 l
0.4597 0.5551 l
0.4683 0.5255 l
0.4769 0.4995 l
0.4856 0.4765 l
0.4942 0.4563 l
0.5028 0.4384 l
0.5115 0.4223 l
0.5201 0.4080 l
0.5288 0.3951 l
0.5374 0.3834 l
0.5460 0.3728 l
0.5547 0.3631 l
0.5633 0.3542 l
0.5720 0.3461 l
0.5806 0.3386 l
0.5892 0.3316 l
0.5979 0.3252 l
0.6065 0.3192 l
0.6151 0.3136 l
0.6238 0.3083 l
0.6324 0.3034 l
0.6411 0.2988 l
0.6497 0.2944 l
0.6583 0.2903 l
0.6670 0.2865 l
0.6756 0.2828 l
0.6842 0.2793 l
0.6929 0.2760 l
0.7015 0.2729 l
0.7102 0.2699 l
0.7188 0.2670 l
0.7274 0.2643 l
0.7361 0.2617 l
0.7447 0.2592 l
0.7533 0.2568 l
0.7620 0.2545 l
0.7706 0.2523 l
0.7793 0.2502 l
0.7879 0.2482 l
0.7965 0.2462 l
0.8052 0.2444 l
0.8138 0.2425 l
0.8224 0.2408 l
0.8311 0.2391 l
0.8397 0.2375 l
0.8484 0.2359 l
0.8570 0.2344 l
0.8656 0.2329 l
0.8743 0.2315 l
0.8829 0.2301 l
0.8916 0.2288 l
0.9002 0.2274 l
0.9088 0.2262 l
0.9175 0.2250 l
0.9261 0.2238 l
0.9347 0.2226 l
0.9434 0.2215 l
0.9520 0.2204 l
0.9607 0.2193 l
0.9693 0.2183 l
0.9779 0.2173 l
0.9866 0.2163 l
0.9952 0.2153 l
1.0038 0.2144 l
1.0125 0.2135 l
1.0211 0.2126 l
1.0298 0.2117 l
1.0384 0.2109 l
s
n
0.1838 0.1500 m
0.1838 0.1700 l
s
n
0.1838 0.8500 m
0.1838 0.8300 l
s
n
0.2185 0.1500 m
0.2185 0.1700 l
s
n
0.2185 0.8500 m
0.2185 0.8300 l
s
n
0.2531 0.1500 m
0.2531 0.1700 l
s
n
0.2531 0.8500 m
0.2531 0.8300 l
s
n
0.3224 0.1500 m
0.3224 0.1700 l
s
n
0.3224 0.8500 m
0.3224 0.8300 l
s
n
0.3571 0.1500 m
0.3571 0.1700 l
s
n
0.3571 0.8500 m
0.3571 0.8300 l
s
n
0.3918 0.1500 m
0.3918 0.1700 l
s
n
0.3918 0.8500 m
0.3918 0.8300 l
s
n
0.4611 0.1500 m
0.4611 0.1700 l
s
n
0.4611 0.8500 m
0.4611 0.8300 l
s
n
0.4957 0.1500 m
0.4957 0.1700 l
s
n
0.4957 0.8500 m
0.4957 0.8300 l
s
n
0.5304 0.1500 m
0.5304 0.1700 l
s
n
0.5304 0.8500 m
0.5304 0.8300 l
s
n
0.5997 0.1500 m
0.5997 0.1700 l
s
n
0.5997 0.8500 m
0.5997 0.8300 l
s
n
0.6344 0.1500 m
0.6344 0.1700 l
s
n
0.6344 0.8500 m
0.6344 0.8300 l
s
n
0.6691 0.1500 m
0.6691 0.1700 l
s
n
0.6691 0.8500 m
0.6691 0.8300 l
s
n
0.7384 0.1500 m
0.7384 0.1700 l
s
n
0.7384 0.8500 m
0.7384 0.8300 l
s
n
0.7730 0.1500 m
0.7730 0.1700 l
s
n
0.7730 0.8500 m
0.7730 0.8300 l
s
n
0.8077 0.1500 m
0.8077 0.1700 l
s
n
0.8077 0.8500 m
0.8077 0.8300 l
s
n
0.8770 0.1500 m
0.8770 0.1700 l
s
n
0.8770 0.8500 m
0.8770 0.8300 l
s
n
0.9117 0.1500 m
0.9117 0.1700 l
s
n
0.9117 0.8500 m
0.9117 0.8300 l
s
n
0.9463 0.1500 m
0.9463 0.1700 l
s
n
0.9463 0.8500 m
0.9463 0.8300 l
s
n
1.0157 0.1500 m
1.0157 0.1700 l
s
n
1.0157 0.8500 m
1.0157 0.8300 l
s
n
0.2878 0.1500 m
0.2878 0.1800 l
s
n
0.2878 0.8500 m
0.2878 0.8200 l
s
n
0.4264 0.1500 m
0.4264 0.1800 l
s
n
0.4264 0.8500 m
0.4264 0.8200 l
s
n
0.5651 0.1500 m
0.5651 0.1800 l
s
n
0.5651 0.8500 m
0.5651 0.8200 l
s
n
0.7037 0.1500 m
0.7037 0.1800 l
s
n
0.7037 0.8500 m
0.7037 0.8200 l
s
n
0.8424 0.1500 m
0.8424 0.1800 l
s
n
0.8424 0.8500 m
0.8424 0.8200 l
s
n
0.9810 0.1500 m
0.9810 0.1800 l
s
n
0.9810 0.8500 m
0.9810 0.8200 l
s
/Helvetica findfont
dup length dict begin
 {1 index /FID ne {def} {pop pop} ifelse} forall
 /Encoding DefEncoding def
 currentdict
end
/Font12 exch definefont pop
/Font12 FFSF
0.2536 0.1104 m
GS
[0.0420 0.0000 0.0000 0.0420 0 0] CC
(500) show
GR
/Font12 FFSF
0.3806 0.1104 m
GS
[0.0420 0.0000 0.0000 0.0420 0 0] CC
(1000) show
GR
/Font12 FFSF
0.5193 0.1104 m
GS
[0.0420 0.0000 0.0000 0.0420 0 0] CC
(1500) show
GR
/Font12 FFSF
0.6579 0.1104 m
GS
[0.0420 0.0000 0.0000 0.0420 0 0] CC
(2000) show
GR
/Font12 FFSF
0.7966 0.1104 m
GS
[0.0420 0.0000 0.0000 0.0420 0 0] CC
(2500) show
GR
/Font12 FFSF
0.9352 0.1104 m
GS
[0.0420 0.0000 0.0000 0.0420 0 0] CC
(3000) show
GR
/Font12 FFSF
0.5610 0.0684 m
GS
[0.0420 0.0000 0.0000 0.0420 0 0] CC
(f \(Hz\)) show
GR
n
0.1832 0.1759 m
0.2032 0.1759 l
s
n
1.0384 0.1759 m
1.0184 0.1759 l
s
n
0.1832 0.2161 m
0.2032 0.2161 l
s
n
1.0384 0.2161 m
1.0184 0.2161 l
s
n
0.1832 0.2563 m
0.2032 0.2563 l
s
n
1.0384 0.2563 m
1.0184 0.2563 l
s
n
0.1832 0.3366 m
0.2032 0.3366 l
s
n
1.0384 0.3366 m
1.0184 0.3366 l
s
n
0.1832 0.3768 m
0.2032 0.3768 l
s
n
1.0384 0.3768 m
1.0184 0.3768 l
s
n
0.1832 0.4170 m
0.2032 0.4170 l
s
n
1.0384 0.4170 m
1.0184 0.4170 l
s
n
0.1832 0.4974 m
0.2032 0.4974 l
s
n
1.0384 0.4974 m
1.0184 0.4974 l
s
n
0.1832 0.5376 m
0.2032 0.5376 l
s
n
1.0384 0.5376 m
1.0184 0.5376 l
s
n
0.1832 0.5778 m
0.2032 0.5778 l
s
n
1.0384 0.5778 m
1.0184 0.5778 l
s
n
0.1832 0.6582 m
0.2032 0.6582 l
s
n
1.0384 0.6582 m
1.0184 0.6582 l
s
n
0.1832 0.6984 m
0.2032 0.6984 l
s
n
1.0384 0.6984 m
1.0184 0.6984 l
s
n
0.1832 0.7386 m
0.2032 0.7386 l
s
n
1.0384 0.7386 m
1.0184 0.7386 l
s
n
0.1832 0.8190 m
0.2032 0.8190 l
s
n
1.0384 0.8190 m
1.0184 0.8190 l
s
n
0.1832 0.2964 m
0.2132 0.2964 l
s
n
1.0384 0.2964 m
1.0084 0.2964 l
s
n
0.1832 0.4572 m
0.2132 0.4572 l
s
n
1.0384 0.4572 m
1.0084 0.4572 l
s
n
0.1832 0.6180 m
0.2132 0.6180 l
s
n
1.0384 0.6180 m
1.0084 0.6180 l
s
n
0.1832 0.7788 m
0.2132 0.7788 l
s
n
1.0384 0.7788 m
1.0084 0.7788 l
s
/Font12 FFSF
0.0464 0.2820 m
GS
[0.0420 0.0000 0.0000 0.0420 0 0] CC
(0.0020) show
GR
/Font12 FFSF
0.0464 0.4428 m
GS
[0.0420 0.0000 0.0000 0.0420 0 0] CC
(0.0040) show
GR
/Font12 FFSF
0.0464 0.6036 m
GS
[0.0420 0.0000 0.0000 0.0420 0 0] CC
(0.0060) show
GR
/Font12 FFSF
0.0464 0.7644 m
GS
[0.0420 0.0000 0.0000 0.0420 0 0] CC
(0.0080) show
GR
/Font12 FFSF
0.0272 0.4678 m
GS
[0.0000 0.0420 -0.0420 0.0000 0 0] CC
(I\(A\)) show
GR
n
0.1832 0.1500 m
0.1832 0.8500 l
1.0384 0.8500 l
1.0384 0.1500 l
0.1832 0.1500 l
c
s
%%Trailer
%%BoundingBox: -3 34 625 512
%%DocumentNeededResources: font Helvetica
%%EOF
