%!PS-Adobe-3.0 EPSF-3.0
%%BoundingBox: (atend)
%%LanguageLevel: 2
%%Creator: Grace-5.1.22
%%CreationDate: Mon Nov  3 15:38:19 2014
%%DocumentData: Clean8Bit
%%Orientation: Portrait
%%Title: fit-gph.agr
%%For: wfr
%%DocumentNeededResources: (atend)
%%EndComments
%%BeginProlog
/m {moveto} def
/l {lineto} def
/s {stroke} def
/n {newpath} def
/c {closepath} def
/RL {rlineto} def
/SLW {setlinewidth} def
/GS {gsave} def
/GR {grestore} def
/SC {setcolor} def
/SGRY {setgray} def
/SRGB {setrgbcolor} def
/SD {setdash} def
/SLC {setlinecap} def
/SLJ {setlinejoin} def
/SCS {setcolorspace} def
/FFSF {findfont setfont} def
/CC {concat} def
/PXL {n m 0 0 RL s} def
/Color0 {1.0000 1.0000 1.0000} def
/Color1 {0.0000 0.0000 0.0000} def
/Color2 {1.0000 0.0000 0.0000} def
/Color3 {0.0000 1.0000 0.0000} def
/Color4 {0.0000 0.0000 1.0000} def
/Color5 {1.0000 1.0000 0.0000} def
/Color6 {0.7373 0.5608 0.5608} def
/Color7 {0.8627 0.8627 0.8627} def
/Color8 {0.5804 0.0000 0.8275} def
/Color9 {0.0000 1.0000 1.0000} def
/Color10 {1.0000 0.0000 1.0000} def
/Color11 {1.0000 0.6471 0.0000} def
/Color12 {0.4471 0.1294 0.7373} def
/Color13 {0.4039 0.0275 0.2824} def
/Color14 {0.2510 0.8784 0.8157} def
/Color15 {0.0000 0.5451 0.0000} def
/PTRN {
 /pat_bits exch def 
 <<
  /PaintType 2
  /PatternType 1 /TilingType 1
  /BBox[0 0 16 16]
  /XStep 16 /YStep 16
  /PaintProc {
   pop
   16 16 true [-1 0 0 -1 16 16] pat_bits imagemask
  }
 >>
 [0.0017 0 0 0.0017 0 0]
 makepattern
} def
/Pattern0 {<0000000000000000000000000000000000000000000000000000000000000000> PTRN} bind def
/Pattern1 {<ffffffffffffffffffffffffffffffffffffffffffffffffffffffffffffffff> PTRN} bind def
/Pattern2 {<eeeeffffbbbbffffeeeeffffbbbbffffeeeeffffbbbbffffeeeeffffbbbbffff> PTRN} bind def
/Pattern3 {<eeeebbbbeeeebbbbeeeebbbbeeeebbbbeeeebbbbeeeebbbbeeeebbbbeeeebbbb> PTRN} bind def
/Pattern4 {<5555aaaa5555aaaa5555aaaa5555aaaa5555aaaa5555aaaa5555aaaa5555aaaa> PTRN} bind def
/Pattern5 {<1111444411114444111144441111444411114444111144441111444411114444> PTRN} bind def
/Pattern6 {<1111000044440000111100004444000011110000444400001111000044440000> PTRN} bind def
/Pattern7 {<1010000000000000010100000000000010100000000000000101000000000000> PTRN} bind def
/Pattern8 {<0000000000000000000000000000000000000000000000000000000000000000> PTRN} bind def
/Pattern9 {<1e1e0f0f8787c3c3e1e1f0f078783c3c1e1e0f0f8787c3c3e1e1f0f078783c3c> PTRN} bind def
/Pattern10 {<7878f0f0e1e1c3c387870f0f1e1e3c3c7878f0f0e1e1c3c387870f0f1e1e3c3c> PTRN} bind def
/Pattern11 {<3333333333333333333333333333333333333333333333333333333333333333> PTRN} bind def
/Pattern12 {<ffffffff00000000ffffffff00000000ffffffff00000000ffffffff00000000> PTRN} bind def
/Pattern13 {<8181424224241818181824244242818181814242242418181818242442428181> PTRN} bind def
/Pattern14 {<8080404020201010080804040202010180804040202010100808040402020101> PTRN} bind def
/Pattern15 {<0101020204040808101020204040808001010202040408081010202040408080> PTRN} bind def
/Pattern16 {<2222222222222222222222222222222222222222222222222222222222222222> PTRN} bind def
/Pattern17 {<0000ffff000000000000ffff000000000000ffff000000000000ffff00000000> PTRN} bind def
/Pattern18 {<2222ffff222222222222ffff222222222222ffff222222222222ffff22222222> PTRN} bind def
/Pattern19 {<ffffffff33333333ffffffff33333333ffffffff33333333ffffffff33333333> PTRN} bind def
/Pattern20 {<0f0f0f0f0f0f0f0ff0f0f0f0f0f0f0f00f0f0f0f0f0f0f0ff0f0f0f0f0f0f0f0> PTRN} bind def
/Pattern21 {<ff00ff00ff00ff00ff00ff00ff00ff0000ff00ff00ff00ff00ff00ff00ff00ff> PTRN} bind def
/Pattern22 {<8001800180018001800180018001ffffffff8001800180018001800180018001> PTRN} bind def
/Pattern23 {<c003c003c003c003c003c003ffffffffffffffffc003c003c003c003c003c003> PTRN} bind def
/Pattern24 {<040404040404ffff404040404040ffff040404040404ffff404040404040ffff> PTRN} bind def
/Pattern25 {<180018001800180018001800ffffffff001800180018001800180018ffffffff> PTRN} bind def
/Pattern26 {<1111b8b87c7c3a3a1111a3a3c7c78b8b1111b8b87c7c3a3a1111a3a3c7c78b8b> PTRN} bind def
/Pattern27 {<101010102828c7c70101010182827c7c101010102828c7c70101010182827c7c> PTRN} bind def
/Pattern28 {<1c1c121211112121c1c12121111112121c1c121211112121c1c1212111111212> PTRN} bind def
/Pattern29 {<3e3e414180808080e3e31414080808083e3e414180808080e3e3141408080808> PTRN} bind def
/Pattern30 {<4848888884848383848488884848383848488888848483838484888848483838> PTRN} bind def
/Pattern31 {<03030404080808080c0c12122121c0c003030404080808080c0c12122121c0c0> PTRN} bind def
/ellipsedict 8 dict def
ellipsedict /mtrx matrix put
/EARC {
 ellipsedict begin
  /endangle exch def
  /startangle exch def
  /yrad exch def
  /xrad exch def
  /y exch def
  /x exch def
  /savematrix mtrx currentmatrix def
  x y translate
  xrad yrad scale
  0 0 1 startangle endangle arc
  savematrix setmatrix
 end
} def
/TL {
  /kcomp exch def
  /linewidth exch def
  /offset exch def
  GS
  0 offset rmoveto
  linewidth SLW
  dup stringwidth exch kcomp add exch RL s
  GR
} def
/KINIT
{
 /kvector exch def
 /kid 0 def
} def
/KPROC
{
 pop pop
 kvector kid get
 0 rmoveto
 /kid 1 kid add def
} def
/DefEncoding [
 /.notdef
 /.notdef
 /.notdef
 /.notdef
 /.notdef
 /.notdef
 /.notdef
 /.notdef
 /.notdef
 /.notdef
 /.notdef
 /.notdef
 /.notdef
 /.notdef
 /.notdef
 /.notdef
 /.notdef
 /.notdef
 /.notdef
 /.notdef
 /.notdef
 /.notdef
 /.notdef
 /.notdef
 /.notdef
 /.notdef
 /.notdef
 /.notdef
 /.notdef
 /.notdef
 /.notdef
 /.notdef
 /space
 /exclam
 /quotedbl
 /numbersign
 /dollar
 /percent
 /ampersand
 /quoteright
 /parenleft
 /parenright
 /asterisk
 /plus
 /comma
 /hyphen
 /period
 /slash
 /zero
 /one
 /two
 /three
 /four
 /five
 /six
 /seven
 /eight
 /nine
 /colon
 /semicolon
 /less
 /equal
 /greater
 /question
 /at
 /A
 /B
 /C
 /D
 /E
 /F
 /G
 /H
 /I
 /J
 /K
 /L
 /M
 /N
 /O
 /P
 /Q
 /R
 /S
 /T
 /U
 /V
 /W
 /X
 /Y
 /Z
 /bracketleft
 /backslash
 /bracketright
 /asciicircum
 /underscore
 /grave
 /a
 /b
 /c
 /d
 /e
 /f
 /g
 /h
 /i
 /j
 /k
 /l
 /m
 /n
 /o
 /p
 /q
 /r
 /s
 /t
 /u
 /v
 /w
 /x
 /y
 /z
 /braceleft
 /bar
 /braceright
 /asciitilde
 /.notdef
 /.notdef
 /.notdef
 /.notdef
 /.notdef
 /.notdef
 /.notdef
 /.notdef
 /.notdef
 /.notdef
 /.notdef
 /.notdef
 /.notdef
 /.notdef
 /.notdef
 /.notdef
 /.notdef
 /.notdef
 /.notdef
 /.notdef
 /.notdef
 /.notdef
 /.notdef
 /.notdef
 /.notdef
 /.notdef
 /.notdef
 /.notdef
 /.notdef
 /.notdef
 /.notdef
 /.notdef
 /.notdef
 /space
 /exclamdown
 /cent
 /sterling
 /currency
 /yen
 /brokenbar
 /section
 /dieresis
 /copyright
 /ordfeminine
 /guillemotleft
 /logicalnot
 /hyphen
 /registered
 /macron
 /degree
 /plusminus
 /twosuperior
 /threesuperior
 /acute
 /mu
 /paragraph
 /periodcentered
 /cedilla
 /onesuperior
 /ordmasculine
 /guillemotright
 /onequarter
 /onehalf
 /threequarters
 /questiondown
 /Agrave
 /Aacute
 /Acircumflex
 /Atilde
 /Adieresis
 /Aring
 /AE
 /Ccedilla
 /Egrave
 /Eacute
 /Ecircumflex
 /Edieresis
 /Igrave
 /Iacute
 /Icircumflex
 /Idieresis
 /Eth
 /Ntilde
 /Ograve
 /Oacute
 /Ocircumflex
 /Otilde
 /Odieresis
 /multiply
 /Oslash
 /Ugrave
 /Uacute
 /Ucircumflex
 /Udieresis
 /Yacute
 /Thorn
 /germandbls
 /agrave
 /aacute
 /acircumflex
 /atilde
 /adieresis
 /aring
 /ae
 /ccedilla
 /egrave
 /eacute
 /ecircumflex
 /edieresis
 /igrave
 /iacute
 /icircumflex
 /idieresis
 /eth
 /ntilde
 /ograve
 /oacute
 /ocircumflex
 /otilde
 /odieresis
 /divide
 /oslash
 /ugrave
 /uacute
 /ucircumflex
 /udieresis
 /yacute
 /thorn
 /ydieresis
] def
%%EndProlog
%%BeginSetup
%%EndSetup
600.00 600.00 scale
n
0.0000 0.0000 m
0.0000 1.0000 l
1.2884 1.0000 l
1.2884 0.0000 l
c
[/DeviceRGB] SCS
Color0 SC
fill
[/DeviceRGB] SCS
Color1 SC
[] 0 SD
0.0015 SLW
0 SLC
0 SLJ
n
0.2108 0.7992 m
0.2108 0.8501 l
s
n
0.2108 0.7992 m
0.2108 0.7004 l
s
n
0.2208 0.7004 m
0.2008 0.7004 l
s
n
0.2577 0.2532 m
0.2577 0.3355 l
s
n
0.2477 0.3355 m
0.2677 0.3355 l
s
n
0.2577 0.2532 m
0.2577 0.1710 l
s
n
0.2677 0.1710 m
0.2477 0.1710 l
s
n
0.3074 0.7117 m
0.3074 0.7178 l
s
n
0.2974 0.7178 m
0.3174 0.7178 l
s
n
0.3074 0.7117 m
0.3074 0.7057 l
s
n
0.3174 0.7057 m
0.2974 0.7057 l
s
n
0.3543 0.3232 m
0.3543 0.3291 l
s
n
0.3443 0.3291 m
0.3643 0.3291 l
s
n
0.3543 0.3232 m
0.3543 0.3174 l
s
n
0.3643 0.3174 m
0.3443 0.3174 l
s
n
0.3874 0.6435 m
0.3874 0.6484 l
s
n
0.3774 0.6484 m
0.3974 0.6484 l
s
n
0.3874 0.6435 m
0.3874 0.6386 l
s
n
0.3974 0.6386 m
0.3774 0.6386 l
s
n
0.4481 0.3670 m
0.4481 0.3718 l
s
n
0.4381 0.3718 m
0.4581 0.3718 l
s
n
0.4481 0.3670 m
0.4481 0.3622 l
s
n
0.4581 0.3622 m
0.4381 0.3622 l
s
n
0.4757 0.5980 m
0.4757 0.6024 l
s
n
0.4657 0.6024 m
0.4857 0.6024 l
s
n
0.4757 0.5980 m
0.4757 0.5936 l
s
n
0.4857 0.5936 m
0.4657 0.5936 l
s
n
0.5446 0.4037 m
0.5446 0.4078 l
s
n
0.5346 0.4078 m
0.5546 0.4078 l
s
n
0.5446 0.4037 m
0.5446 0.3997 l
s
n
0.5546 0.3997 m
0.5346 0.3997 l
s
n
0.5915 0.5682 m
0.5915 0.5721 l
s
n
0.5815 0.5721 m
0.6015 0.5721 l
s
n
0.5915 0.5682 m
0.5915 0.5644 l
s
n
0.6015 0.5644 m
0.5815 0.5644 l
s
n
0.6412 0.4300 m
0.6412 0.4336 l
s
n
0.6312 0.4336 m
0.6512 0.4336 l
s
n
0.6412 0.4300 m
0.6412 0.4263 l
s
n
0.6512 0.4263 m
0.6312 0.4263 l
s
n
0.6881 0.5472 m
0.6881 0.5508 l
s
n
0.6781 0.5508 m
0.6981 0.5508 l
s
n
0.6881 0.5472 m
0.6881 0.5437 l
s
n
0.6981 0.5437 m
0.6781 0.5437 l
s
n
0.7350 0.4492 m
0.7350 0.4526 l
s
n
0.7250 0.4526 m
0.7450 0.4526 l
s
n
0.7350 0.4492 m
0.7350 0.4459 l
s
n
0.7450 0.4459 m
0.7250 0.4459 l
s
n
0.7846 0.5315 m
0.7846 0.5346 l
s
n
0.7746 0.5346 m
0.7946 0.5346 l
s
n
0.7846 0.5315 m
0.7846 0.5283 l
s
n
0.7946 0.5283 m
0.7746 0.5283 l
s
n
0.8315 0.4597 m
0.8315 0.4628 l
s
n
0.8215 0.4628 m
0.8415 0.4628 l
s
n
0.8315 0.4597 m
0.8315 0.4567 l
s
n
0.8415 0.4567 m
0.8215 0.4567 l
s
n
0.8812 0.5227 m
0.8812 0.5258 l
s
n
0.8712 0.5258 m
0.8912 0.5258 l
s
n
0.8812 0.5227 m
0.8812 0.5196 l
s
n
0.8912 0.5196 m
0.8712 0.5196 l
s
n
0.9308 0.4702 m
0.9308 0.4837 l
s
n
0.9208 0.4837 m
0.9408 0.4837 l
s
n
0.9308 0.4702 m
0.9308 0.4568 l
s
n
0.9408 0.4568 m
0.9208 0.4568 l
s
n
0.9777 0.5140 m
0.9777 0.5259 l
s
n
0.9677 0.5259 m
0.9877 0.5259 l
s
n
0.9777 0.5140 m
0.9777 0.5021 l
s
n
0.9877 0.5021 m
0.9677 0.5021 l
s
[] 0 SD
0.0030 SLW
n 0.2108 0.7992 0.0020 0.0020 0 360 EARC s
n 0.2577 0.2532 0.0020 0.0020 0 360 EARC s
n 0.3074 0.7117 0.0020 0.0020 0 360 EARC s
n 0.3543 0.3232 0.0020 0.0020 0 360 EARC s
n 0.3874 0.6435 0.0020 0.0020 0 360 EARC s
n 0.4481 0.3670 0.0020 0.0020 0 360 EARC s
n 0.4757 0.5980 0.0020 0.0020 0 360 EARC s
n 0.5446 0.4037 0.0020 0.0020 0 360 EARC s
n 0.5915 0.5682 0.0020 0.0020 0 360 EARC s
n 0.6412 0.4300 0.0020 0.0020 0 360 EARC s
n 0.6881 0.5472 0.0020 0.0020 0 360 EARC s
n 0.7350 0.4492 0.0020 0.0020 0 360 EARC s
n 0.7846 0.5315 0.0020 0.0020 0 360 EARC s
n 0.8315 0.4597 0.0020 0.0020 0 360 EARC s
n 0.8812 0.5227 0.0020 0.0020 0 360 EARC s
n 0.9308 0.4702 0.0020 0.0020 0 360 EARC s
n 0.9777 0.5140 0.0020 0.0020 0 360 EARC s
[/DeviceRGB] SCS
Color2 SC
[] 0 SD
0.0015 SLW
n
0.1832 0.5263 m
0.1850 0.5654 l
0.1867 0.6031 l
0.1884 0.6390 l
0.1901 0.6725 l
0.1918 0.7034 l
0.1935 0.7314 l
0.1952 0.7560 l
0.1970 0.7770 l
0.1987 0.7943 l
0.2004 0.8076 l
0.2021 0.8168 l
0.2038 0.8219 l
0.2055 0.8229 l
0.2072 0.8198 l
0.2090 0.8127 l
0.2107 0.8017 l
0.2124 0.7871 l
0.2141 0.7690 l
0.2158 0.7478 l
0.2175 0.7236 l
0.2192 0.6970 l
0.2209 0.6681 l
0.2227 0.6375 l
0.2244 0.6055 l
0.2261 0.5726 l
0.2278 0.5391 l
0.2295 0.5055 l
0.2312 0.4721 l
0.2329 0.4395 l
0.2347 0.4080 l
0.2364 0.3780 l
0.2381 0.3498 l
0.2398 0.3238 l
0.2415 0.3002 l
0.2432 0.2793 l
0.2449 0.2613 l
0.2467 0.2465 l
0.2484 0.2350 l
0.2501 0.2268 l
0.2518 0.2220 l
0.2535 0.2207 l
0.2552 0.2228 l
0.2569 0.2282 l
0.2587 0.2368 l
0.2604 0.2485 l
0.2621 0.2631 l
0.2638 0.2804 l
0.2655 0.3001 l
0.2672 0.3220 l
0.2689 0.3457 l
0.2706 0.3709 l
0.2724 0.3973 l
0.2741 0.4246 l
0.2758 0.4524 l
0.2775 0.4803 l
0.2792 0.5081 l
0.2809 0.5353 l
0.2826 0.5616 l
0.2844 0.5868 l
0.2861 0.6104 l
0.2878 0.6324 l
0.2895 0.6523 l
0.2912 0.6700 l
0.2929 0.6853 l
0.2946 0.6980 l
0.2964 0.7080 l
0.2981 0.7152 l
0.2998 0.7196 l
0.3015 0.7212 l
0.3032 0.7199 l
0.3049 0.7158 l
0.3066 0.7090 l
0.3083 0.6996 l
0.3101 0.6878 l
0.3118 0.6738 l
0.3135 0.6577 l
0.3152 0.6398 l
0.3169 0.6204 l
0.3186 0.5996 l
0.3203 0.5777 l
0.3221 0.5552 l
0.3238 0.5321 l
0.3255 0.5089 l
0.3272 0.4858 l
0.3289 0.4631 l
0.3306 0.4411 l
0.3323 0.4201 l
0.3341 0.4002 l
0.3358 0.3817 l
0.3375 0.3649 l
0.3392 0.3499 l
0.3409 0.3369 l
0.3426 0.3260 l
0.3443 0.3174 l
0.3461 0.3110 l
0.3478 0.3070 l
0.3495 0.3054 l
0.3512 0.3061 l
0.3529 0.3091 l
0.3546 0.3144 l
0.3563 0.3219 l
0.3580 0.3314 l
0.3598 0.3428 l
0.3615 0.3559 l
0.3632 0.3706 l
0.3649 0.3866 l
0.3666 0.4037 l
0.3683 0.4217 l
0.3700 0.4404 l
0.3718 0.4595 l
0.3735 0.4788 l
0.3752 0.4980 l
0.3769 0.5169 l
0.3786 0.5353 l
0.3803 0.5529 l
0.3820 0.5696 l
0.3838 0.5851 l
0.3855 0.5993 l
0.3872 0.6120 l
0.3889 0.6230 l
0.3906 0.6324 l
0.3923 0.6398 l
0.3940 0.6454 l
0.3957 0.6490 l
0.3975 0.6507 l
0.3992 0.6504 l
0.4009 0.6481 l
0.4026 0.6440 l
0.4043 0.6381 l
0.4060 0.6304 l
0.4077 0.6212 l
0.4095 0.6105 l
0.4112 0.5985 l
0.4129 0.5854 l
0.4146 0.5713 l
0.4163 0.5564 l
0.4180 0.5410 l
0.4197 0.5251 l
0.4215 0.5091 l
0.4232 0.4931 l
0.4249 0.4774 l
0.4266 0.4620 l
0.4283 0.4473 l
0.4300 0.4333 l
0.4317 0.4202 l
0.4335 0.4083 l
0.4352 0.3975 l
0.4369 0.3881 l
0.4386 0.3802 l
0.4403 0.3737 l
0.4420 0.3688 l
0.4437 0.3656 l
0.4454 0.3640 l
0.4472 0.3640 l
0.4489 0.3656 l
0.4506 0.3688 l
0.4523 0.3735 l
0.4540 0.3797 l
0.4557 0.3871 l
0.4574 0.3958 l
0.4592 0.4056 l
0.4609 0.4164 l
0.4626 0.4280 l
0.4643 0.4403 l
0.4660 0.4531 l
0.4677 0.4662 l
0.4694 0.4795 l
0.4712 0.4928 l
0.4729 0.5059 l
0.4746 0.5187 l
0.4763 0.5311 l
0.4780 0.5428 l
0.4797 0.5538 l
0.4814 0.5638 l
0.4831 0.5729 l
0.4849 0.5809 l
0.4866 0.5877 l
0.4883 0.5933 l
0.4900 0.5975 l
0.4917 0.6004 l
0.4934 0.6020 l
0.4951 0.6022 l
0.4969 0.6010 l
0.4986 0.5986 l
0.5003 0.5948 l
0.5020 0.5899 l
0.5037 0.5838 l
0.5054 0.5768 l
0.5071 0.5687 l
0.5089 0.5599 l
0.5106 0.5504 l
0.5123 0.5402 l
0.5140 0.5297 l
0.5157 0.5188 l
0.5174 0.5078 l
0.5191 0.4967 l
0.5209 0.4858 l
0.5226 0.4751 l
0.5243 0.4648 l
0.5260 0.4549 l
0.5277 0.4457 l
0.5294 0.4372 l
0.5311 0.4296 l
0.5328 0.4228 l
0.5346 0.4170 l
0.5363 0.4122 l
0.5380 0.4085 l
0.5397 0.4059 l
0.5414 0.4045 l
0.5431 0.4041 l
0.5448 0.4049 l
0.5466 0.4068 l
0.5483 0.4098 l
0.5500 0.4137 l
0.5517 0.4186 l
0.5534 0.4244 l
0.5551 0.4309 l
0.5568 0.4382 l
0.5586 0.4460 l
0.5603 0.4543 l
0.5620 0.4631 l
0.5637 0.4721 l
0.5654 0.4812 l
0.5671 0.4904 l
0.5688 0.4995 l
0.5705 0.5084 l
0.5723 0.5171 l
0.5740 0.5253 l
0.5757 0.5330 l
0.5774 0.5402 l
0.5791 0.5467 l
0.5808 0.5524 l
0.5825 0.5574 l
0.5843 0.5615 l
0.5860 0.5647 l
0.5877 0.5670 l
0.5894 0.5683 l
0.5911 0.5687 l
0.5928 0.5682 l
0.5945 0.5668 l
0.5963 0.5645 l
0.5980 0.5613 l
0.5997 0.5574 l
0.6014 0.5527 l
0.6031 0.5473 l
0.6048 0.5414 l
0.6065 0.5349 l
0.6083 0.5281 l
0.6100 0.5209 l
0.6117 0.5134 l
0.6134 0.5058 l
0.6151 0.4982 l
0.6168 0.4906 l
0.6185 0.4832 l
0.6202 0.4759 l
0.6220 0.4691 l
0.6237 0.4626 l
0.6254 0.4565 l
0.6271 0.4511 l
0.6288 0.4462 l
0.6305 0.4420 l
0.6322 0.4385 l
0.6340 0.4357 l
0.6357 0.4337 l
0.6374 0.4324 l
0.6391 0.4320 l
0.6408 0.4323 l
0.6425 0.4334 l
0.6442 0.4352 l
0.6460 0.4377 l
0.6477 0.4409 l
0.6494 0.4447 l
0.6511 0.4490 l
0.6528 0.4539 l
0.6545 0.4592 l
0.6562 0.4649 l
0.6579 0.4708 l
0.6597 0.4770 l
0.6614 0.4833 l
0.6631 0.4896 l
0.6648 0.4959 l
0.6665 0.5021 l
0.6682 0.5082 l
0.6699 0.5139 l
0.6717 0.5194 l
0.6734 0.5244 l
0.6751 0.5291 l
0.6768 0.5332 l
0.6785 0.5368 l
0.6802 0.5398 l
0.6819 0.5422 l
0.6837 0.5440 l
0.6854 0.5451 l
0.6871 0.5456 l
0.6888 0.5454 l
0.6905 0.5446 l
0.6922 0.5432 l
0.6939 0.5412 l
0.6957 0.5386 l
0.6974 0.5355 l
0.6991 0.5320 l
0.7008 0.5280 l
0.7025 0.5236 l
0.7042 0.5190 l
0.7059 0.5141 l
0.7076 0.5090 l
0.7094 0.5038 l
0.7111 0.4985 l
0.7128 0.4932 l
0.7145 0.4881 l
0.7162 0.4830 l
0.7179 0.4782 l
0.7196 0.4736 l
0.7214 0.4694 l
0.7231 0.4655 l
0.7248 0.4620 l
0.7265 0.4589 l
0.7282 0.4564 l
0.7299 0.4543 l
0.7316 0.4527 l
0.7334 0.4517 l
0.7351 0.4512 l
0.7368 0.4513 l
0.7385 0.4519 l
0.7402 0.4530 l
0.7419 0.4546 l
0.7436 0.4566 l
0.7454 0.4591 l
0.7471 0.4620 l
0.7488 0.4653 l
0.7505 0.4689 l
0.7522 0.4727 l
0.7539 0.4768 l
0.7556 0.4810 l
0.7573 0.4853 l
0.7591 0.4897 l
0.7608 0.4940 l
0.7625 0.4983 l
0.7642 0.5025 l
0.7659 0.5066 l
0.7676 0.5104 l
0.7693 0.5140 l
0.7711 0.5173 l
0.7728 0.5202 l
0.7745 0.5228 l
0.7762 0.5250 l
0.7779 0.5268 l
0.7796 0.5282 l
0.7813 0.5291 l
0.7831 0.5296 l
0.7848 0.5296 l
0.7865 0.5292 l
0.7882 0.5283 l
0.7899 0.5270 l
0.7916 0.5254 l
0.7933 0.5234 l
0.7950 0.5210 l
0.7968 0.5183 l
0.7985 0.5154 l
0.8002 0.5122 l
0.8019 0.5089 l
0.8036 0.5054 l
0.8053 0.5018 l
0.8070 0.4982 l
0.8088 0.4946 l
0.8105 0.4910 l
0.8122 0.4875 l
0.8139 0.4841 l
0.8156 0.4809 l
0.8173 0.4779 l
0.8190 0.4751 l
0.8208 0.4726 l
0.8225 0.4704 l
0.8242 0.4685 l
0.8259 0.4670 l
0.8276 0.4658 l
0.8293 0.4650 l
0.8310 0.4645 l
0.8327 0.4645 l
0.8345 0.4648 l
0.8362 0.4654 l
0.8379 0.4664 l
0.8396 0.4677 l
0.8413 0.4694 l
0.8430 0.4713 l
0.8447 0.4735 l
0.8465 0.4759 l
0.8482 0.4785 l
0.8499 0.4812 l
0.8516 0.4841 l
0.8533 0.4871 l
0.8550 0.4901 l
0.8567 0.4931 l
0.8585 0.4961 l
0.8602 0.4990 l
0.8619 0.5019 l
0.8636 0.5046 l
0.8653 0.5071 l
0.8670 0.5094 l
0.8687 0.5115 l
0.8705 0.5134 l
0.8722 0.5150 l
0.8739 0.5163 l
0.8756 0.5173 l
0.8773 0.5181 l
0.8790 0.5185 l
0.8807 0.5186 l
0.8824 0.5184 l
0.8842 0.5179 l
0.8859 0.5171 l
0.8876 0.5160 l
0.8893 0.5147 l
0.8910 0.5132 l
0.8927 0.5114 l
0.8944 0.5094 l
0.8962 0.5073 l
0.8979 0.5050 l
0.8996 0.5026 l
0.9013 0.5002 l
0.9030 0.4977 l
0.9047 0.4952 l
0.9064 0.4927 l
0.9082 0.4902 l
0.9099 0.4879 l
0.9116 0.4856 l
0.9133 0.4835 l
0.9150 0.4815 l
0.9167 0.4797 l
0.9184 0.4782 l
0.9201 0.4768 l
0.9219 0.4757 l
0.9236 0.4748 l
0.9253 0.4741 l
0.9270 0.4737 l
0.9287 0.4736 l
0.9304 0.4737 l
0.9321 0.4741 l
0.9339 0.4747 l
0.9356 0.4756 l
0.9373 0.4767 l
0.9390 0.4779 l
0.9407 0.4794 l
0.9424 0.4810 l
0.9441 0.4827 l
0.9459 0.4846 l
0.9476 0.4866 l
0.9493 0.4886 l
0.9510 0.4907 l
0.9527 0.4928 l
0.9544 0.4949 l
0.9561 0.4969 l
0.9579 0.4989 l
0.9596 0.5008 l
0.9613 0.5025 l
0.9630 0.5042 l
0.9647 0.5057 l
0.9664 0.5070 l
0.9681 0.5082 l
0.9698 0.5092 l
0.9716 0.5099 l
0.9733 0.5105 l
0.9750 0.5108 l
0.9767 0.5110 l
0.9784 0.5109 l
0.9801 0.5106 l
0.9818 0.5101 l
0.9836 0.5095 l
0.9853 0.5086 l
0.9870 0.5076 l
0.9887 0.5064 l
0.9904 0.5051 l
0.9921 0.5036 l
0.9938 0.5021 l
0.9956 0.5005 l
0.9973 0.4988 l
0.9990 0.4971 l
1.0007 0.4953 l
1.0024 0.4936 l
1.0041 0.4919 l
1.0058 0.4903 l
1.0076 0.4887 l
1.0093 0.4872 l
1.0110 0.4858 l
1.0127 0.4845 l
1.0144 0.4834 l
1.0161 0.4824 l
1.0178 0.4816 l
1.0195 0.4809 l
1.0213 0.4804 l
1.0230 0.4801 l
1.0247 0.4799 l
1.0264 0.4800 l
1.0281 0.4802 l
1.0298 0.4806 l
1.0315 0.4811 l
1.0333 0.4818 l
1.0350 0.4826 l
1.0367 0.4836 l
1.0384 0.4847 l
s
[/DeviceRGB] SCS
Color1 SC
[] 0 SD
0.0030 SLW
n
0.1832 0.5263 m
0.1850 0.5654 l
0.1867 0.6031 l
0.1884 0.6390 l
0.1901 0.6725 l
0.1918 0.7034 l
0.1935 0.7314 l
0.1952 0.7560 l
0.1970 0.7770 l
0.1987 0.7943 l
0.2004 0.8076 l
0.2021 0.8168 l
0.2038 0.8219 l
0.2055 0.8229 l
0.2072 0.8198 l
0.2090 0.8127 l
0.2107 0.8017 l
0.2124 0.7871 l
0.2141 0.7690 l
0.2158 0.7478 l
0.2175 0.7236 l
0.2192 0.6970 l
0.2209 0.6681 l
0.2227 0.6375 l
0.2244 0.6055 l
0.2261 0.5726 l
0.2278 0.5391 l
0.2295 0.5055 l
0.2312 0.4721 l
0.2329 0.4395 l
0.2347 0.4080 l
0.2364 0.3780 l
0.2381 0.3498 l
0.2398 0.3238 l
0.2415 0.3002 l
0.2432 0.2793 l
0.2449 0.2613 l
0.2467 0.2465 l
0.2484 0.2350 l
0.2501 0.2268 l
0.2518 0.2220 l
0.2535 0.2207 l
0.2552 0.2228 l
0.2569 0.2282 l
0.2587 0.2368 l
0.2604 0.2485 l
0.2621 0.2631 l
0.2638 0.2804 l
0.2655 0.3001 l
0.2672 0.3220 l
0.2689 0.3457 l
0.2706 0.3709 l
0.2724 0.3973 l
0.2741 0.4246 l
0.2758 0.4524 l
0.2775 0.4803 l
0.2792 0.5081 l
0.2809 0.5353 l
0.2826 0.5616 l
0.2844 0.5868 l
0.2861 0.6104 l
0.2878 0.6324 l
0.2895 0.6523 l
0.2912 0.6700 l
0.2929 0.6853 l
0.2946 0.6980 l
0.2964 0.7080 l
0.2981 0.7152 l
0.2998 0.7196 l
0.3015 0.7212 l
0.3032 0.7199 l
0.3049 0.7158 l
0.3066 0.7090 l
0.3083 0.6996 l
0.3101 0.6878 l
0.3118 0.6738 l
0.3135 0.6577 l
0.3152 0.6398 l
0.3169 0.6204 l
0.3186 0.5996 l
0.3203 0.5777 l
0.3221 0.5552 l
0.3238 0.5321 l
0.3255 0.5089 l
0.3272 0.4858 l
0.3289 0.4631 l
0.3306 0.4411 l
0.3323 0.4201 l
0.3341 0.4002 l
0.3358 0.3817 l
0.3375 0.3649 l
0.3392 0.3499 l
0.3409 0.3369 l
0.3426 0.3260 l
0.3443 0.3174 l
0.3461 0.3110 l
0.3478 0.3070 l
0.3495 0.3054 l
0.3512 0.3061 l
0.3529 0.3091 l
0.3546 0.3144 l
0.3563 0.3219 l
0.3580 0.3314 l
0.3598 0.3428 l
0.3615 0.3559 l
0.3632 0.3706 l
0.3649 0.3866 l
0.3666 0.4037 l
0.3683 0.4217 l
0.3700 0.4404 l
0.3718 0.4595 l
0.3735 0.4788 l
0.3752 0.4980 l
0.3769 0.5169 l
0.3786 0.5353 l
0.3803 0.5529 l
0.3820 0.5696 l
0.3838 0.5851 l
0.3855 0.5993 l
0.3872 0.6120 l
0.3889 0.6230 l
0.3906 0.6324 l
0.3923 0.6398 l
0.3940 0.6454 l
0.3957 0.6490 l
0.3975 0.6507 l
0.3992 0.6504 l
0.4009 0.6481 l
0.4026 0.6440 l
0.4043 0.6381 l
0.4060 0.6304 l
0.4077 0.6212 l
0.4095 0.6105 l
0.4112 0.5985 l
0.4129 0.5854 l
0.4146 0.5713 l
0.4163 0.5564 l
0.4180 0.5410 l
0.4197 0.5251 l
0.4215 0.5091 l
0.4232 0.4931 l
0.4249 0.4774 l
0.4266 0.4620 l
0.4283 0.4473 l
0.4300 0.4333 l
0.4317 0.4202 l
0.4335 0.4083 l
0.4352 0.3975 l
0.4369 0.3881 l
0.4386 0.3802 l
0.4403 0.3737 l
0.4420 0.3688 l
0.4437 0.3656 l
0.4454 0.3640 l
0.4472 0.3640 l
0.4489 0.3656 l
0.4506 0.3688 l
0.4523 0.3735 l
0.4540 0.3797 l
0.4557 0.3871 l
0.4574 0.3958 l
0.4592 0.4056 l
0.4609 0.4164 l
0.4626 0.4280 l
0.4643 0.4403 l
0.4660 0.4531 l
0.4677 0.4662 l
0.4694 0.4795 l
0.4712 0.4928 l
0.4729 0.5059 l
0.4746 0.5187 l
0.4763 0.5311 l
0.4780 0.5428 l
0.4797 0.5538 l
0.4814 0.5638 l
0.4831 0.5729 l
0.4849 0.5809 l
0.4866 0.5877 l
0.4883 0.5933 l
0.4900 0.5975 l
0.4917 0.6004 l
0.4934 0.6020 l
0.4951 0.6022 l
0.4969 0.6010 l
0.4986 0.5986 l
0.5003 0.5948 l
0.5020 0.5899 l
0.5037 0.5838 l
0.5054 0.5768 l
0.5071 0.5687 l
0.5089 0.5599 l
0.5106 0.5504 l
0.5123 0.5402 l
0.5140 0.5297 l
0.5157 0.5188 l
0.5174 0.5078 l
0.5191 0.4967 l
0.5209 0.4858 l
0.5226 0.4751 l
0.5243 0.4648 l
0.5260 0.4549 l
0.5277 0.4457 l
0.5294 0.4372 l
0.5311 0.4296 l
0.5328 0.4228 l
0.5346 0.4170 l
0.5363 0.4122 l
0.5380 0.4085 l
0.5397 0.4059 l
0.5414 0.4045 l
0.5431 0.4041 l
0.5448 0.4049 l
0.5466 0.4068 l
0.5483 0.4098 l
0.5500 0.4137 l
0.5517 0.4186 l
0.5534 0.4244 l
0.5551 0.4309 l
0.5568 0.4382 l
0.5586 0.4460 l
0.5603 0.4543 l
0.5620 0.4631 l
0.5637 0.4721 l
0.5654 0.4812 l
0.5671 0.4904 l
0.5688 0.4995 l
0.5705 0.5084 l
0.5723 0.5171 l
0.5740 0.5253 l
0.5757 0.5330 l
0.5774 0.5402 l
0.5791 0.5467 l
0.5808 0.5524 l
0.5825 0.5574 l
0.5843 0.5615 l
0.5860 0.5647 l
0.5877 0.5670 l
0.5894 0.5683 l
0.5911 0.5687 l
0.5928 0.5682 l
0.5945 0.5668 l
0.5963 0.5645 l
0.5980 0.5613 l
0.5997 0.5574 l
0.6014 0.5527 l
0.6031 0.5473 l
0.6048 0.5414 l
0.6065 0.5349 l
0.6083 0.5281 l
0.6100 0.5209 l
0.6117 0.5134 l
0.6134 0.5058 l
0.6151 0.4982 l
0.6168 0.4906 l
0.6185 0.4832 l
0.6202 0.4759 l
0.6220 0.4691 l
0.6237 0.4626 l
0.6254 0.4565 l
0.6271 0.4511 l
0.6288 0.4462 l
0.6305 0.4420 l
0.6322 0.4385 l
0.6340 0.4357 l
0.6357 0.4337 l
0.6374 0.4324 l
0.6391 0.4320 l
0.6408 0.4323 l
0.6425 0.4334 l
0.6442 0.4352 l
0.6460 0.4377 l
0.6477 0.4409 l
0.6494 0.4447 l
0.6511 0.4490 l
0.6528 0.4539 l
0.6545 0.4592 l
0.6562 0.4649 l
0.6579 0.4708 l
0.6597 0.4770 l
0.6614 0.4833 l
0.6631 0.4896 l
0.6648 0.4959 l
0.6665 0.5021 l
0.6682 0.5082 l
0.6699 0.5139 l
0.6717 0.5194 l
0.6734 0.5244 l
0.6751 0.5291 l
0.6768 0.5332 l
0.6785 0.5368 l
0.6802 0.5398 l
0.6819 0.5422 l
0.6837 0.5440 l
0.6854 0.5451 l
0.6871 0.5456 l
0.6888 0.5454 l
0.6905 0.5446 l
0.6922 0.5432 l
0.6939 0.5412 l
0.6957 0.5386 l
0.6974 0.5355 l
0.6991 0.5320 l
0.7008 0.5280 l
0.7025 0.5236 l
0.7042 0.5190 l
0.7059 0.5141 l
0.7076 0.5090 l
0.7094 0.5038 l
0.7111 0.4985 l
0.7128 0.4932 l
0.7145 0.4881 l
0.7162 0.4830 l
0.7179 0.4782 l
0.7196 0.4736 l
0.7214 0.4694 l
0.7231 0.4655 l
0.7248 0.4620 l
0.7265 0.4589 l
0.7282 0.4564 l
0.7299 0.4543 l
0.7316 0.4527 l
0.7334 0.4517 l
0.7351 0.4512 l
0.7368 0.4513 l
0.7385 0.4519 l
0.7402 0.4530 l
0.7419 0.4546 l
0.7436 0.4566 l
0.7454 0.4591 l
0.7471 0.4620 l
0.7488 0.4653 l
0.7505 0.4689 l
0.7522 0.4727 l
0.7539 0.4768 l
0.7556 0.4810 l
0.7573 0.4853 l
0.7591 0.4897 l
0.7608 0.4940 l
0.7625 0.4983 l
0.7642 0.5025 l
0.7659 0.5066 l
0.7676 0.5104 l
0.7693 0.5140 l
0.7711 0.5173 l
0.7728 0.5202 l
0.7745 0.5228 l
0.7762 0.5250 l
0.7779 0.5268 l
0.7796 0.5282 l
0.7813 0.5291 l
0.7831 0.5296 l
0.7848 0.5296 l
0.7865 0.5292 l
0.7882 0.5283 l
0.7899 0.5270 l
0.7916 0.5254 l
0.7933 0.5234 l
0.7950 0.5210 l
0.7968 0.5183 l
0.7985 0.5154 l
0.8002 0.5122 l
0.8019 0.5089 l
0.8036 0.5054 l
0.8053 0.5018 l
0.8070 0.4982 l
0.8088 0.4946 l
0.8105 0.4910 l
0.8122 0.4875 l
0.8139 0.4841 l
0.8156 0.4809 l
0.8173 0.4779 l
0.8190 0.4751 l
0.8208 0.4726 l
0.8225 0.4704 l
0.8242 0.4685 l
0.8259 0.4670 l
0.8276 0.4658 l
0.8293 0.4650 l
0.8310 0.4645 l
0.8327 0.4645 l
0.8345 0.4648 l
0.8362 0.4654 l
0.8379 0.4664 l
0.8396 0.4677 l
0.8413 0.4694 l
0.8430 0.4713 l
0.8447 0.4735 l
0.8465 0.4759 l
0.8482 0.4785 l
0.8499 0.4812 l
0.8516 0.4841 l
0.8533 0.4871 l
0.8550 0.4901 l
0.8567 0.4931 l
0.8585 0.4961 l
0.8602 0.4990 l
0.8619 0.5019 l
0.8636 0.5046 l
0.8653 0.5071 l
0.8670 0.5094 l
0.8687 0.5115 l
0.8705 0.5134 l
0.8722 0.5150 l
0.8739 0.5163 l
0.8756 0.5173 l
0.8773 0.5181 l
0.8790 0.5185 l
0.8807 0.5186 l
0.8824 0.5184 l
0.8842 0.5179 l
0.8859 0.5171 l
0.8876 0.5160 l
0.8893 0.5147 l
0.8910 0.5132 l
0.8927 0.5114 l
0.8944 0.5094 l
0.8962 0.5073 l
0.8979 0.5050 l
0.8996 0.5026 l
0.9013 0.5002 l
0.9030 0.4977 l
0.9047 0.4952 l
0.9064 0.4927 l
0.9082 0.4902 l
0.9099 0.4879 l
0.9116 0.4856 l
0.9133 0.4835 l
0.9150 0.4815 l
0.9167 0.4797 l
0.9184 0.4782 l
0.9201 0.4768 l
0.9219 0.4757 l
0.9236 0.4748 l
0.9253 0.4741 l
0.9270 0.4737 l
0.9287 0.4736 l
0.9304 0.4737 l
0.9321 0.4741 l
0.9339 0.4747 l
0.9356 0.4756 l
0.9373 0.4767 l
0.9390 0.4779 l
0.9407 0.4794 l
0.9424 0.4810 l
0.9441 0.4827 l
0.9459 0.4846 l
0.9476 0.4866 l
0.9493 0.4886 l
0.9510 0.4907 l
0.9527 0.4928 l
0.9544 0.4949 l
0.9561 0.4969 l
0.9579 0.4989 l
0.9596 0.5008 l
0.9613 0.5025 l
0.9630 0.5042 l
0.9647 0.5057 l
0.9664 0.5070 l
0.9681 0.5082 l
0.9698 0.5092 l
0.9716 0.5099 l
0.9733 0.5105 l
0.9750 0.5108 l
0.9767 0.5110 l
0.9784 0.5109 l
0.9801 0.5106 l
0.9818 0.5101 l
0.9836 0.5095 l
0.9853 0.5086 l
0.9870 0.5076 l
0.9887 0.5064 l
0.9904 0.5051 l
0.9921 0.5036 l
0.9938 0.5021 l
0.9956 0.5005 l
0.9973 0.4988 l
0.9990 0.4971 l
1.0007 0.4953 l
1.0024 0.4936 l
1.0041 0.4919 l
1.0058 0.4903 l
1.0076 0.4887 l
1.0093 0.4872 l
1.0110 0.4858 l
1.0127 0.4845 l
1.0144 0.4834 l
1.0161 0.4824 l
1.0178 0.4816 l
1.0195 0.4809 l
1.0213 0.4804 l
1.0230 0.4801 l
1.0247 0.4799 l
1.0264 0.4800 l
1.0281 0.4802 l
1.0298 0.4806 l
1.0315 0.4811 l
1.0333 0.4818 l
1.0350 0.4826 l
1.0367 0.4836 l
1.0384 0.4847 l
s
n
0.2660 0.1500 m
0.2660 0.1700 l
s
n
0.2660 0.8500 m
0.2660 0.8300 l
s
n
0.3212 0.1500 m
0.3212 0.1700 l
s
n
0.3212 0.8500 m
0.3212 0.8300 l
s
n
0.3763 0.1500 m
0.3763 0.1700 l
s
n
0.3763 0.8500 m
0.3763 0.8300 l
s
n
0.4315 0.1500 m
0.4315 0.1700 l
s
n
0.4315 0.8500 m
0.4315 0.8300 l
s
n
0.5419 0.1500 m
0.5419 0.1700 l
s
n
0.5419 0.8500 m
0.5419 0.8300 l
s
n
0.5970 0.1500 m
0.5970 0.1700 l
s
n
0.5970 0.8500 m
0.5970 0.8300 l
s
n
0.6522 0.1500 m
0.6522 0.1700 l
s
n
0.6522 0.8500 m
0.6522 0.8300 l
s
n
0.7074 0.1500 m
0.7074 0.1700 l
s
n
0.7074 0.8500 m
0.7074 0.8300 l
s
n
0.8177 0.1500 m
0.8177 0.1700 l
s
n
0.8177 0.8500 m
0.8177 0.8300 l
s
n
0.8729 0.1500 m
0.8729 0.1700 l
s
n
0.8729 0.8500 m
0.8729 0.8300 l
s
n
0.9281 0.1500 m
0.9281 0.1700 l
s
n
0.9281 0.8500 m
0.9281 0.8300 l
s
n
0.9832 0.1500 m
0.9832 0.1700 l
s
n
0.9832 0.8500 m
0.9832 0.8300 l
s
n
0.2108 0.1500 m
0.2108 0.1800 l
s
n
0.2108 0.8500 m
0.2108 0.8200 l
s
n
0.4867 0.1500 m
0.4867 0.1800 l
s
n
0.4867 0.8500 m
0.4867 0.8200 l
s
n
0.7625 0.1500 m
0.7625 0.1800 l
s
n
0.7625 0.8500 m
0.7625 0.8200 l
s
n
1.0384 0.1500 m
1.0384 0.1800 l
s
n
1.0384 0.8500 m
1.0384 0.8200 l
s
/Helvetica findfont
dup length dict begin
 {1 index /FID ne {def} {pop pop} ifelse} forall
 /Encoding DefEncoding def
 currentdict
end
/Font12 exch definefont pop
/Font12 FFSF
0.1592 0.1104 m
GS
[0.0420 0.0000 0.0000 0.0420 0 0] CC
(0.000) show
GR
/Font12 FFSF
0.4387 0.1104 m
GS
[0.0420 0.0000 0.0000 0.0420 0 0] CC
(0.001) show
GR
/Font12 FFSF
0.7109 0.1104 m
GS
[0.0420 0.0000 0.0000 0.0420 0 0] CC
(0.002) show
GR
/Font12 FFSF
0.9870 0.1104 m
GS
[0.0420 0.0000 0.0000 0.0420 0 0] CC
(0.003) show
GR
/Font12 FFSF
0.5762 0.0688 m
GS
[0.0420 0.0000 0.0000 0.0420 0 0] CC
(t \(s\)) show
GR
n
0.1832 0.1850 m
0.2032 0.1850 l
s
n
1.0384 0.1850 m
1.0184 0.1850 l
s
n
0.1832 0.2200 m
0.2032 0.2200 l
s
n
1.0384 0.2200 m
1.0184 0.2200 l
s
n
0.1832 0.2550 m
0.2032 0.2550 l
s
n
1.0384 0.2550 m
1.0184 0.2550 l
s
n
0.1832 0.2900 m
0.2032 0.2900 l
s
n
1.0384 0.2900 m
1.0184 0.2900 l
s
n
0.1832 0.3600 m
0.2032 0.3600 l
s
n
1.0384 0.3600 m
1.0184 0.3600 l
s
n
0.1832 0.3950 m
0.2032 0.3950 l
s
n
1.0384 0.3950 m
1.0184 0.3950 l
s
n
0.1832 0.4300 m
0.2032 0.4300 l
s
n
1.0384 0.4300 m
1.0184 0.4300 l
s
n
0.1832 0.4650 m
0.2032 0.4650 l
s
n
1.0384 0.4650 m
1.0184 0.4650 l
s
n
0.1832 0.5350 m
0.2032 0.5350 l
s
n
1.0384 0.5350 m
1.0184 0.5350 l
s
n
0.1832 0.5700 m
0.2032 0.5700 l
s
n
1.0384 0.5700 m
1.0184 0.5700 l
s
n
0.1832 0.6050 m
0.2032 0.6050 l
s
n
1.0384 0.6050 m
1.0184 0.6050 l
s
n
0.1832 0.6400 m
0.2032 0.6400 l
s
n
1.0384 0.6400 m
1.0184 0.6400 l
s
n
0.1832 0.7100 m
0.2032 0.7100 l
s
n
1.0384 0.7100 m
1.0184 0.7100 l
s
n
0.1832 0.7450 m
0.2032 0.7450 l
s
n
1.0384 0.7450 m
1.0184 0.7450 l
s
n
0.1832 0.7800 m
0.2032 0.7800 l
s
n
1.0384 0.7800 m
1.0184 0.7800 l
s
n
0.1832 0.8150 m
0.2032 0.8150 l
s
n
1.0384 0.8150 m
1.0184 0.8150 l
s
n
0.1832 0.1500 m
0.2132 0.1500 l
s
n
1.0384 0.1500 m
1.0084 0.1500 l
s
n
0.1832 0.3250 m
0.2132 0.3250 l
s
n
1.0384 0.3250 m
1.0084 0.3250 l
s
n
0.1832 0.5000 m
0.2132 0.5000 l
s
n
1.0384 0.5000 m
1.0084 0.5000 l
s
n
0.1832 0.6750 m
0.2132 0.6750 l
s
n
1.0384 0.6750 m
1.0084 0.6750 l
s
n
0.1832 0.8500 m
0.2132 0.8500 l
s
n
1.0384 0.8500 m
1.0084 0.8500 l
s
/Font12 FFSF
0.1024 0.1356 m
GS
[0.0420 0.0000 0.0000 0.0420 0 0] CC
(-4.0) show
GR
/Font12 FFSF
0.1024 0.3106 m
GS
[0.0420 0.0000 0.0000 0.0420 0 0] CC
(-2.0) show
GR
/Font12 FFSF
0.1164 0.4856 m
GS
[0.0420 0.0000 0.0000 0.0420 0 0] CC
(0.0) show
GR
/Font12 FFSF
0.1164 0.6606 m
GS
[0.0420 0.0000 0.0000 0.0420 0 0] CC
(2.0) show
GR
/Font12 FFSF
0.1164 0.8356 m
GS
[0.0420 0.0000 0.0000 0.0420 0 0] CC
(4.0) show
GR
/Font12 FFSF
0.0836 0.4584 m
GS
[0.0000 0.0420 -0.0420 0.0000 0 0] CC
(U\(V\)) show
GR
n
0.1832 0.1500 m
0.1832 0.8500 l
1.0384 0.8500 l
1.0384 0.1500 l
0.1832 0.1500 l
c
s
%%Trailer
%%BoundingBox: 30 34 655 521
%%DocumentNeededResources: font Helvetica
%%EOF
