%!PS-Adobe-3.0 EPSF-3.0
%%BoundingBox: (atend)
%%LanguageLevel: 2
%%Creator: Grace-5.1.22
%%CreationDate: Sun Nov  9 23:13:37 2014
%%DocumentData: Clean8Bit
%%Orientation: Portrait
%%Title: fit-gph-4.agr
%%For: wfr
%%DocumentNeededResources: (atend)
%%EndComments
%%BeginProlog
/m {moveto} def
/l {lineto} def
/s {stroke} def
/n {newpath} def
/c {closepath} def
/RL {rlineto} def
/SLW {setlinewidth} def
/GS {gsave} def
/GR {grestore} def
/SC {setcolor} def
/SGRY {setgray} def
/SRGB {setrgbcolor} def
/SD {setdash} def
/SLC {setlinecap} def
/SLJ {setlinejoin} def
/SCS {setcolorspace} def
/FFSF {findfont setfont} def
/CC {concat} def
/PXL {n m 0 0 RL s} def
/Color0 {1.0000 1.0000 1.0000} def
/Color1 {0.0000 0.0000 0.0000} def
/Color2 {1.0000 0.0000 0.0000} def
/Color3 {0.0000 1.0000 0.0000} def
/Color4 {0.0000 0.0000 1.0000} def
/Color5 {1.0000 1.0000 0.0000} def
/Color6 {0.7373 0.5608 0.5608} def
/Color7 {0.8627 0.8627 0.8627} def
/Color8 {0.5804 0.0000 0.8275} def
/Color9 {0.0000 1.0000 1.0000} def
/Color10 {1.0000 0.0000 1.0000} def
/Color11 {1.0000 0.6471 0.0000} def
/Color12 {0.4471 0.1294 0.7373} def
/Color13 {0.4039 0.0275 0.2824} def
/Color14 {0.2510 0.8784 0.8157} def
/Color15 {0.0000 0.5451 0.0000} def
/PTRN {
 /pat_bits exch def 
 <<
  /PaintType 2
  /PatternType 1 /TilingType 1
  /BBox[0 0 16 16]
  /XStep 16 /YStep 16
  /PaintProc {
   pop
   16 16 true [-1 0 0 -1 16 16] pat_bits imagemask
  }
 >>
 [0.0017 0 0 0.0017 0 0]
 makepattern
} def
/Pattern0 {<0000000000000000000000000000000000000000000000000000000000000000> PTRN} bind def
/Pattern1 {<ffffffffffffffffffffffffffffffffffffffffffffffffffffffffffffffff> PTRN} bind def
/Pattern2 {<eeeeffffbbbbffffeeeeffffbbbbffffeeeeffffbbbbffffeeeeffffbbbbffff> PTRN} bind def
/Pattern3 {<eeeebbbbeeeebbbbeeeebbbbeeeebbbbeeeebbbbeeeebbbbeeeebbbbeeeebbbb> PTRN} bind def
/Pattern4 {<5555aaaa5555aaaa5555aaaa5555aaaa5555aaaa5555aaaa5555aaaa5555aaaa> PTRN} bind def
/Pattern5 {<1111444411114444111144441111444411114444111144441111444411114444> PTRN} bind def
/Pattern6 {<1111000044440000111100004444000011110000444400001111000044440000> PTRN} bind def
/Pattern7 {<1010000000000000010100000000000010100000000000000101000000000000> PTRN} bind def
/Pattern8 {<0000000000000000000000000000000000000000000000000000000000000000> PTRN} bind def
/Pattern9 {<1e1e0f0f8787c3c3e1e1f0f078783c3c1e1e0f0f8787c3c3e1e1f0f078783c3c> PTRN} bind def
/Pattern10 {<7878f0f0e1e1c3c387870f0f1e1e3c3c7878f0f0e1e1c3c387870f0f1e1e3c3c> PTRN} bind def
/Pattern11 {<3333333333333333333333333333333333333333333333333333333333333333> PTRN} bind def
/Pattern12 {<ffffffff00000000ffffffff00000000ffffffff00000000ffffffff00000000> PTRN} bind def
/Pattern13 {<8181424224241818181824244242818181814242242418181818242442428181> PTRN} bind def
/Pattern14 {<8080404020201010080804040202010180804040202010100808040402020101> PTRN} bind def
/Pattern15 {<0101020204040808101020204040808001010202040408081010202040408080> PTRN} bind def
/Pattern16 {<2222222222222222222222222222222222222222222222222222222222222222> PTRN} bind def
/Pattern17 {<0000ffff000000000000ffff000000000000ffff000000000000ffff00000000> PTRN} bind def
/Pattern18 {<2222ffff222222222222ffff222222222222ffff222222222222ffff22222222> PTRN} bind def
/Pattern19 {<ffffffff33333333ffffffff33333333ffffffff33333333ffffffff33333333> PTRN} bind def
/Pattern20 {<0f0f0f0f0f0f0f0ff0f0f0f0f0f0f0f00f0f0f0f0f0f0f0ff0f0f0f0f0f0f0f0> PTRN} bind def
/Pattern21 {<ff00ff00ff00ff00ff00ff00ff00ff0000ff00ff00ff00ff00ff00ff00ff00ff> PTRN} bind def
/Pattern22 {<8001800180018001800180018001ffffffff8001800180018001800180018001> PTRN} bind def
/Pattern23 {<c003c003c003c003c003c003ffffffffffffffffc003c003c003c003c003c003> PTRN} bind def
/Pattern24 {<040404040404ffff404040404040ffff040404040404ffff404040404040ffff> PTRN} bind def
/Pattern25 {<180018001800180018001800ffffffff001800180018001800180018ffffffff> PTRN} bind def
/Pattern26 {<1111b8b87c7c3a3a1111a3a3c7c78b8b1111b8b87c7c3a3a1111a3a3c7c78b8b> PTRN} bind def
/Pattern27 {<101010102828c7c70101010182827c7c101010102828c7c70101010182827c7c> PTRN} bind def
/Pattern28 {<1c1c121211112121c1c12121111112121c1c121211112121c1c1212111111212> PTRN} bind def
/Pattern29 {<3e3e414180808080e3e31414080808083e3e414180808080e3e3141408080808> PTRN} bind def
/Pattern30 {<4848888884848383848488884848383848488888848483838484888848483838> PTRN} bind def
/Pattern31 {<03030404080808080c0c12122121c0c003030404080808080c0c12122121c0c0> PTRN} bind def
/ellipsedict 8 dict def
ellipsedict /mtrx matrix put
/EARC {
 ellipsedict begin
  /endangle exch def
  /startangle exch def
  /yrad exch def
  /xrad exch def
  /y exch def
  /x exch def
  /savematrix mtrx currentmatrix def
  x y translate
  xrad yrad scale
  0 0 1 startangle endangle arc
  savematrix setmatrix
 end
} def
/TL {
  /kcomp exch def
  /linewidth exch def
  /offset exch def
  GS
  0 offset rmoveto
  linewidth SLW
  dup stringwidth exch kcomp add exch RL s
  GR
} def
/KINIT
{
 /kvector exch def
 /kid 0 def
} def
/KPROC
{
 pop pop
 kvector kid get
 0 rmoveto
 /kid 1 kid add def
} def
/DefEncoding [
 /.notdef
 /.notdef
 /.notdef
 /.notdef
 /.notdef
 /.notdef
 /.notdef
 /.notdef
 /.notdef
 /.notdef
 /.notdef
 /.notdef
 /.notdef
 /.notdef
 /.notdef
 /.notdef
 /.notdef
 /.notdef
 /.notdef
 /.notdef
 /.notdef
 /.notdef
 /.notdef
 /.notdef
 /.notdef
 /.notdef
 /.notdef
 /.notdef
 /.notdef
 /.notdef
 /.notdef
 /.notdef
 /space
 /exclam
 /quotedbl
 /numbersign
 /dollar
 /percent
 /ampersand
 /quoteright
 /parenleft
 /parenright
 /asterisk
 /plus
 /comma
 /hyphen
 /period
 /slash
 /zero
 /one
 /two
 /three
 /four
 /five
 /six
 /seven
 /eight
 /nine
 /colon
 /semicolon
 /less
 /equal
 /greater
 /question
 /at
 /A
 /B
 /C
 /D
 /E
 /F
 /G
 /H
 /I
 /J
 /K
 /L
 /M
 /N
 /O
 /P
 /Q
 /R
 /S
 /T
 /U
 /V
 /W
 /X
 /Y
 /Z
 /bracketleft
 /backslash
 /bracketright
 /asciicircum
 /underscore
 /grave
 /a
 /b
 /c
 /d
 /e
 /f
 /g
 /h
 /i
 /j
 /k
 /l
 /m
 /n
 /o
 /p
 /q
 /r
 /s
 /t
 /u
 /v
 /w
 /x
 /y
 /z
 /braceleft
 /bar
 /braceright
 /asciitilde
 /.notdef
 /.notdef
 /.notdef
 /.notdef
 /.notdef
 /.notdef
 /.notdef
 /.notdef
 /.notdef
 /.notdef
 /.notdef
 /.notdef
 /.notdef
 /.notdef
 /.notdef
 /.notdef
 /.notdef
 /.notdef
 /.notdef
 /.notdef
 /.notdef
 /.notdef
 /.notdef
 /.notdef
 /.notdef
 /.notdef
 /.notdef
 /.notdef
 /.notdef
 /.notdef
 /.notdef
 /.notdef
 /.notdef
 /space
 /exclamdown
 /cent
 /sterling
 /currency
 /yen
 /brokenbar
 /section
 /dieresis
 /copyright
 /ordfeminine
 /guillemotleft
 /logicalnot
 /hyphen
 /registered
 /macron
 /degree
 /plusminus
 /twosuperior
 /threesuperior
 /acute
 /mu
 /paragraph
 /periodcentered
 /cedilla
 /onesuperior
 /ordmasculine
 /guillemotright
 /onequarter
 /onehalf
 /threequarters
 /questiondown
 /Agrave
 /Aacute
 /Acircumflex
 /Atilde
 /Adieresis
 /Aring
 /AE
 /Ccedilla
 /Egrave
 /Eacute
 /Ecircumflex
 /Edieresis
 /Igrave
 /Iacute
 /Icircumflex
 /Idieresis
 /Eth
 /Ntilde
 /Ograve
 /Oacute
 /Ocircumflex
 /Otilde
 /Odieresis
 /multiply
 /Oslash
 /Ugrave
 /Uacute
 /Ucircumflex
 /Udieresis
 /Yacute
 /Thorn
 /germandbls
 /agrave
 /aacute
 /acircumflex
 /atilde
 /adieresis
 /aring
 /ae
 /ccedilla
 /egrave
 /eacute
 /ecircumflex
 /edieresis
 /igrave
 /iacute
 /icircumflex
 /idieresis
 /eth
 /ntilde
 /ograve
 /oacute
 /ocircumflex
 /otilde
 /odieresis
 /divide
 /oslash
 /ugrave
 /uacute
 /ucircumflex
 /udieresis
 /yacute
 /thorn
 /ydieresis
] def
%%EndProlog
%%BeginSetup
%%EndSetup
600.00 600.00 scale
n
0.0000 0.0000 m
0.0000 1.0000 l
1.2884 1.0000 l
1.2884 0.0000 l
c
[/DeviceRGB] SCS
Color0 SC
fill
[/DeviceRGB] SCS
Color1 SC
[] 0 SD
0.0015 SLW
0 SLC
0 SLJ
n
0.1832 0.2003 m
0.1832 0.2025 l
s
n
0.1831 0.2025 m
0.1932 0.2025 l
s
n
0.1832 0.2003 m
0.1832 0.1981 l
s
n
0.1932 0.1981 m
0.1831 0.1981 l
s
n
0.2892 0.8215 m
0.2892 0.8237 l
s
n
0.2792 0.8237 m
0.2992 0.8237 l
s
n
0.2892 0.8215 m
0.2892 0.8193 l
s
n
0.2992 0.8193 m
0.2792 0.8193 l
s
n
0.3953 0.4409 m
0.3953 0.4431 l
s
n
0.3853 0.4431 m
0.4053 0.4431 l
s
n
0.3953 0.4409 m
0.3953 0.4387 l
s
n
0.4053 0.4387 m
0.3853 0.4387 l
s
n
0.5013 0.6728 m
0.5013 0.6750 l
s
n
0.4913 0.6750 m
0.5113 0.6750 l
s
n
0.5013 0.6728 m
0.5013 0.6706 l
s
n
0.5113 0.6706 m
0.4913 0.6706 l
s
n
0.6073 0.5415 m
0.6073 0.5437 l
s
n
0.5973 0.5437 m
0.6173 0.5437 l
s
n
0.6073 0.5415 m
0.6073 0.5394 l
s
n
0.6173 0.5394 m
0.5973 0.5394 l
s
n
0.7133 0.6181 m
0.7133 0.6203 l
s
n
0.7033 0.6203 m
0.7233 0.6203 l
s
n
0.7133 0.6181 m
0.7133 0.6159 l
s
n
0.7233 0.6159 m
0.7033 0.6159 l
s
n
0.8193 0.5656 m
0.8193 0.5678 l
s
n
0.8093 0.5678 m
0.8293 0.5678 l
s
n
0.8193 0.5656 m
0.8193 0.5634 l
s
n
0.8293 0.5634 m
0.8093 0.5634 l
s
n
0.9253 0.5973 m
0.9253 0.5995 l
s
n
0.9153 0.5995 m
0.9353 0.5995 l
s
n
0.9253 0.5973 m
0.9253 0.5951 l
s
n
0.9353 0.5951 m
0.9153 0.5951 l
s
n
1.0313 0.5776 m
1.0313 0.5798 l
s
n
1.0213 0.5798 m
1.0385 0.5798 l
s
n
1.0313 0.5776 m
1.0313 0.5754 l
s
n
1.0385 0.5754 m
1.0213 0.5754 l
s
[] 0 SD
0.0030 SLW
n 0.1832 0.2003 0.0100 0.0100 0 360 EARC s
n 0.2892 0.8215 0.0100 0.0100 0 360 EARC s
n 0.3953 0.4409 0.0100 0.0100 0 360 EARC s
n 0.5013 0.6728 0.0100 0.0100 0 360 EARC s
n 0.6073 0.5415 0.0100 0.0100 0 360 EARC s
n 0.7133 0.6181 0.0100 0.0100 0 360 EARC s
n 0.8193 0.5656 0.0100 0.0100 0 360 EARC s
n 0.9253 0.5973 0.0100 0.0100 0 360 EARC s
n 1.0313 0.5776 0.0100 0.0100 0 360 EARC s
[/DeviceRGB] SCS
Color2 SC
[] 0 SD
0.0015 SLW
n
0.1832 0.1998 m
0.1841 0.2015 l
0.1850 0.2034 l
0.1858 0.2055 l
0.1867 0.2079 l
0.1875 0.2104 l
0.1884 0.2132 l
0.1892 0.2162 l
0.1901 0.2194 l
0.1910 0.2228 l
0.1918 0.2265 l
0.1927 0.2303 l
0.1935 0.2343 l
0.1944 0.2385 l
0.1952 0.2429 l
0.1961 0.2475 l
0.1969 0.2522 l
0.1978 0.2572 l
0.1987 0.2623 l
0.1995 0.2675 l
0.2004 0.2729 l
0.2012 0.2785 l
0.2021 0.2842 l
0.2029 0.2901 l
0.2038 0.2961 l
0.2046 0.3023 l
0.2055 0.3086 l
0.2064 0.3150 l
0.2072 0.3215 l
0.2081 0.3281 l
0.2089 0.3349 l
0.2098 0.3418 l
0.2106 0.3487 l
0.2115 0.3558 l
0.2124 0.3629 l
0.2132 0.3702 l
0.2141 0.3775 l
0.2149 0.3849 l
0.2158 0.3923 l
0.2166 0.3998 l
0.2175 0.4074 l
0.2183 0.4150 l
0.2192 0.4227 l
0.2201 0.4304 l
0.2209 0.4382 l
0.2218 0.4460 l
0.2226 0.4538 l
0.2235 0.4616 l
0.2243 0.4695 l
0.2252 0.4774 l
0.2260 0.4852 l
0.2269 0.4931 l
0.2278 0.5010 l
0.2286 0.5088 l
0.2295 0.5167 l
0.2303 0.5245 l
0.2312 0.5323 l
0.2320 0.5401 l
0.2329 0.5479 l
0.2338 0.5556 l
0.2346 0.5632 l
0.2355 0.5709 l
0.2363 0.5784 l
0.2372 0.5859 l
0.2380 0.5934 l
0.2389 0.6008 l
0.2397 0.6081 l
0.2406 0.6154 l
0.2415 0.6226 l
0.2423 0.6296 l
0.2432 0.6367 l
0.2440 0.6436 l
0.2449 0.6504 l
0.2457 0.6572 l
0.2466 0.6638 l
0.2474 0.6703 l
0.2483 0.6768 l
0.2492 0.6831 l
0.2500 0.6893 l
0.2509 0.6954 l
0.2517 0.7014 l
0.2526 0.7073 l
0.2534 0.7130 l
0.2543 0.7186 l
0.2552 0.7241 l
0.2560 0.7294 l
0.2569 0.7347 l
0.2577 0.7398 l
0.2586 0.7447 l
0.2594 0.7495 l
0.2603 0.7542 l
0.2611 0.7587 l
0.2620 0.7631 l
0.2629 0.7673 l
0.2637 0.7714 l
0.2646 0.7753 l
0.2654 0.7791 l
0.2663 0.7827 l
0.2671 0.7862 l
0.2680 0.7895 l
0.2688 0.7927 l
0.2697 0.7957 l
0.2706 0.7986 l
0.2714 0.8013 l
0.2723 0.8038 l
0.2731 0.8062 l
0.2740 0.8084 l
0.2748 0.8105 l
0.2757 0.8124 l
0.2766 0.8141 l
0.2774 0.8157 l
0.2783 0.8172 l
0.2791 0.8184 l
0.2800 0.8196 l
0.2808 0.8205 l
0.2817 0.8213 l
0.2825 0.8220 l
0.2834 0.8225 l
0.2843 0.8228 l
0.2851 0.8230 l
0.2860 0.8230 l
0.2868 0.8229 l
0.2877 0.8227 l
0.2885 0.8223 l
0.2894 0.8217 l
0.2902 0.8210 l
0.2911 0.8202 l
0.2920 0.8192 l
0.2928 0.8181 l
0.2937 0.8168 l
0.2945 0.8154 l
0.2954 0.8139 l
0.2962 0.8122 l
0.2971 0.8104 l
0.2980 0.8085 l
0.2988 0.8065 l
0.2997 0.8043 l
0.3005 0.8020 l
0.3014 0.7996 l
0.3022 0.7971 l
0.3031 0.7945 l
0.3039 0.7917 l
0.3048 0.7889 l
0.3057 0.7859 l
0.3065 0.7829 l
0.3074 0.7797 l
0.3082 0.7764 l
0.3091 0.7731 l
0.3099 0.7696 l
0.3108 0.7661 l
0.3116 0.7625 l
0.3125 0.7588 l
0.3134 0.7550 l
0.3142 0.7511 l
0.3151 0.7472 l
0.3159 0.7432 l
0.3168 0.7391 l
0.3176 0.7350 l
0.3185 0.7308 l
0.3194 0.7266 l
0.3202 0.7223 l
0.3211 0.7179 l
0.3219 0.7135 l
0.3228 0.7090 l
0.3236 0.7045 l
0.3245 0.7000 l
0.3253 0.6954 l
0.3262 0.6908 l
0.3271 0.6862 l
0.3279 0.6815 l
0.3288 0.6769 l
0.3296 0.6722 l
0.3305 0.6674 l
0.3313 0.6627 l
0.3322 0.6580 l
0.3330 0.6532 l
0.3339 0.6485 l
0.3348 0.6437 l
0.3356 0.6390 l
0.3365 0.6342 l
0.3373 0.6295 l
0.3382 0.6247 l
0.3390 0.6200 l
0.3399 0.6153 l
0.3408 0.6106 l
0.3416 0.6060 l
0.3425 0.6013 l
0.3433 0.5967 l
0.3442 0.5922 l
0.3450 0.5876 l
0.3459 0.5831 l
0.3467 0.5786 l
0.3476 0.5742 l
0.3485 0.5698 l
0.3493 0.5655 l
0.3502 0.5612 l
0.3510 0.5569 l
0.3519 0.5528 l
0.3527 0.5486 l
0.3536 0.5445 l
0.3544 0.5405 l
0.3553 0.5366 l
0.3562 0.5327 l
0.3570 0.5288 l
0.3579 0.5251 l
0.3587 0.5214 l
0.3596 0.5178 l
0.3604 0.5142 l
0.3613 0.5107 l
0.3622 0.5073 l
0.3630 0.5040 l
0.3639 0.5008 l
0.3647 0.4976 l
0.3656 0.4945 l
0.3664 0.4915 l
0.3673 0.4886 l
0.3681 0.4858 l
0.3690 0.4830 l
0.3699 0.4804 l
0.3707 0.4778 l
0.3716 0.4753 l
0.3724 0.4729 l
0.3733 0.4706 l
0.3741 0.4684 l
0.3750 0.4663 l
0.3758 0.4643 l
0.3767 0.4624 l
0.3776 0.4605 l
0.3784 0.4588 l
0.3793 0.4571 l
0.3801 0.4556 l
0.3810 0.4541 l
0.3818 0.4528 l
0.3827 0.4515 l
0.3836 0.4503 l
0.3844 0.4493 l
0.3853 0.4483 l
0.3861 0.4474 l
0.3870 0.4466 l
0.3878 0.4459 l
0.3887 0.4453 l
0.3895 0.4448 l
0.3904 0.4444 l
0.3913 0.4441 l
0.3921 0.4439 l
0.3930 0.4438 l
0.3938 0.4437 l
0.3947 0.4438 l
0.3955 0.4439 l
0.3964 0.4441 l
0.3972 0.4445 l
0.3981 0.4449 l
0.3990 0.4454 l
0.3998 0.4459 l
0.4007 0.4466 l
0.4015 0.4474 l
0.4024 0.4482 l
0.4032 0.4491 l
0.4041 0.4501 l
0.4050 0.4512 l
0.4058 0.4523 l
0.4067 0.4535 l
0.4075 0.4548 l
0.4084 0.4562 l
0.4092 0.4576 l
0.4101 0.4591 l
0.4109 0.4607 l
0.4118 0.4624 l
0.4127 0.4641 l
0.4135 0.4659 l
0.4144 0.4677 l
0.4152 0.4696 l
0.4161 0.4716 l
0.4169 0.4736 l
0.4178 0.4756 l
0.4186 0.4778 l
0.4195 0.4799 l
0.4204 0.4822 l
0.4212 0.4844 l
0.4221 0.4868 l
0.4229 0.4891 l
0.4238 0.4915 l
0.4246 0.4940 l
0.4255 0.4965 l
0.4264 0.4990 l
0.4272 0.5016 l
0.4281 0.5042 l
0.4289 0.5068 l
0.4298 0.5095 l
0.4306 0.5121 l
0.4315 0.5149 l
0.4323 0.5176 l
0.4332 0.5203 l
0.4341 0.5231 l
0.4349 0.5259 l
0.4358 0.5287 l
0.4366 0.5315 l
0.4375 0.5344 l
0.4383 0.5372 l
0.4392 0.5401 l
0.4400 0.5429 l
0.4409 0.5458 l
0.4418 0.5487 l
0.4426 0.5516 l
0.4435 0.5544 l
0.4443 0.5573 l
0.4452 0.5602 l
0.4460 0.5630 l
0.4469 0.5659 l
0.4478 0.5687 l
0.4486 0.5715 l
0.4495 0.5744 l
0.4503 0.5772 l
0.4512 0.5799 l
0.4520 0.5827 l
0.4529 0.5855 l
0.4537 0.5882 l
0.4546 0.5909 l
0.4555 0.5936 l
0.4563 0.5962 l
0.4572 0.5988 l
0.4580 0.6014 l
0.4589 0.6040 l
0.4597 0.6065 l
0.4606 0.6090 l
0.4614 0.6115 l
0.4623 0.6139 l
0.4632 0.6163 l
0.4640 0.6187 l
0.4649 0.6210 l
0.4657 0.6233 l
0.4666 0.6255 l
0.4674 0.6277 l
0.4683 0.6299 l
0.4692 0.6320 l
0.4700 0.6340 l
0.4709 0.6361 l
0.4717 0.6380 l
0.4726 0.6399 l
0.4734 0.6418 l
0.4743 0.6436 l
0.4751 0.6454 l
0.4760 0.6471 l
0.4769 0.6488 l
0.4777 0.6504 l
0.4786 0.6520 l
0.4794 0.6535 l
0.4803 0.6549 l
0.4811 0.6563 l
0.4820 0.6577 l
0.4828 0.6589 l
0.4837 0.6602 l
0.4846 0.6613 l
0.4854 0.6625 l
0.4863 0.6635 l
0.4871 0.6645 l
0.4880 0.6655 l
0.4888 0.6664 l
0.4897 0.6672 l
0.4906 0.6680 l
0.4914 0.6687 l
0.4923 0.6693 l
0.4931 0.6699 l
0.4940 0.6705 l
0.4948 0.6710 l
0.4957 0.6714 l
0.4965 0.6717 l
0.4974 0.6721 l
0.4983 0.6723 l
0.4991 0.6725 l
0.5000 0.6727 l
0.5008 0.6727 l
0.5017 0.6728 l
0.5025 0.6728 l
0.5034 0.6727 l
0.5042 0.6725 l
0.5051 0.6724 l
0.5060 0.6721 l
0.5068 0.6718 l
0.5077 0.6715 l
0.5085 0.6711 l
0.5094 0.6707 l
0.5102 0.6702 l
0.5111 0.6696 l
0.5120 0.6690 l
0.5128 0.6684 l
0.5137 0.6677 l
0.5145 0.6670 l
0.5154 0.6662 l
0.5162 0.6654 l
0.5171 0.6645 l
0.5179 0.6636 l
0.5188 0.6627 l
0.5197 0.6617 l
0.5205 0.6606 l
0.5214 0.6596 l
0.5222 0.6585 l
0.5231 0.6573 l
0.5239 0.6562 l
0.5248 0.6549 l
0.5256 0.6537 l
0.5265 0.6524 l
0.5274 0.6511 l
0.5282 0.6498 l
0.5291 0.6484 l
0.5299 0.6470 l
0.5308 0.6456 l
0.5316 0.6441 l
0.5325 0.6427 l
0.5334 0.6412 l
0.5342 0.6396 l
0.5351 0.6381 l
0.5359 0.6365 l
0.5368 0.6349 l
0.5376 0.6333 l
0.5385 0.6317 l
0.5393 0.6301 l
0.5402 0.6284 l
0.5411 0.6268 l
0.5419 0.6251 l
0.5428 0.6234 l
0.5436 0.6217 l
0.5445 0.6200 l
0.5453 0.6183 l
0.5462 0.6166 l
0.5470 0.6149 l
0.5479 0.6131 l
0.5488 0.6114 l
0.5496 0.6097 l
0.5505 0.6079 l
0.5513 0.6062 l
0.5522 0.6045 l
0.5530 0.6027 l
0.5539 0.6010 l
0.5548 0.5993 l
0.5556 0.5976 l
0.5565 0.5959 l
0.5573 0.5942 l
0.5582 0.5925 l
0.5590 0.5908 l
0.5599 0.5891 l
0.5607 0.5875 l
0.5616 0.5858 l
0.5625 0.5842 l
0.5633 0.5826 l
0.5642 0.5810 l
0.5650 0.5794 l
0.5659 0.5778 l
0.5667 0.5762 l
0.5676 0.5747 l
0.5684 0.5732 l
0.5693 0.5717 l
0.5702 0.5702 l
0.5710 0.5688 l
0.5719 0.5673 l
0.5727 0.5659 l
0.5736 0.5646 l
0.5744 0.5632 l
0.5753 0.5619 l
0.5762 0.5606 l
0.5770 0.5593 l
0.5779 0.5580 l
0.5787 0.5568 l
0.5796 0.5556 l
0.5804 0.5545 l
0.5813 0.5533 l
0.5821 0.5522 l
0.5830 0.5512 l
0.5839 0.5501 l
0.5847 0.5491 l
0.5856 0.5481 l
0.5864 0.5472 l
0.5873 0.5463 l
0.5881 0.5454 l
0.5890 0.5445 l
0.5898 0.5437 l
0.5907 0.5429 l
0.5916 0.5422 l
0.5924 0.5415 l
0.5933 0.5408 l
0.5941 0.5402 l
0.5950 0.5395 l
0.5958 0.5390 l
0.5967 0.5384 l
0.5976 0.5379 l
0.5984 0.5374 l
0.5993 0.5370 l
0.6001 0.5366 l
0.6010 0.5362 l
0.6018 0.5359 l
0.6027 0.5356 l
0.6035 0.5353 l
0.6044 0.5351 l
0.6053 0.5349 l
0.6061 0.5348 l
0.6070 0.5346 l
0.6078 0.5346 l
0.6087 0.5345 l
0.6095 0.5345 l
0.6104 0.5345 l
0.6112 0.5345 l
0.6121 0.5346 l
0.6130 0.5347 l
0.6138 0.5348 l
0.6147 0.5350 l
0.6155 0.5352 l
0.6164 0.5354 l
0.6172 0.5357 l
0.6181 0.5360 l
0.6190 0.5363 l
0.6198 0.5367 l
0.6207 0.5370 l
0.6215 0.5375 l
0.6224 0.5379 l
0.6232 0.5384 l
0.6241 0.5389 l
0.6249 0.5394 l
0.6258 0.5399 l
0.6267 0.5405 l
0.6275 0.5411 l
0.6284 0.5417 l
0.6292 0.5423 l
0.6301 0.5430 l
0.6309 0.5437 l
0.6318 0.5444 l
0.6326 0.5451 l
0.6335 0.5459 l
0.6344 0.5466 l
0.6352 0.5474 l
0.6361 0.5482 l
0.6369 0.5490 l
0.6378 0.5499 l
0.6386 0.5507 l
0.6395 0.5516 l
0.6404 0.5525 l
0.6412 0.5534 l
0.6421 0.5543 l
0.6429 0.5553 l
0.6438 0.5562 l
0.6446 0.5572 l
0.6455 0.5581 l
0.6463 0.5591 l
0.6472 0.5601 l
0.6481 0.5611 l
0.6489 0.5621 l
0.6498 0.5631 l
0.6506 0.5641 l
0.6515 0.5651 l
0.6523 0.5662 l
0.6532 0.5672 l
0.6540 0.5682 l
0.6549 0.5693 l
0.6558 0.5703 l
0.6566 0.5714 l
0.6575 0.5724 l
0.6583 0.5735 l
0.6592 0.5745 l
0.6600 0.5755 l
0.6609 0.5766 l
0.6618 0.5776 l
0.6626 0.5787 l
0.6635 0.5797 l
0.6643 0.5807 l
0.6652 0.5818 l
0.6660 0.5828 l
0.6669 0.5838 l
0.6677 0.5848 l
0.6686 0.5858 l
0.6695 0.5868 l
0.6703 0.5878 l
0.6712 0.5888 l
0.6720 0.5898 l
0.6729 0.5907 l
0.6737 0.5917 l
0.6746 0.5926 l
0.6754 0.5935 l
0.6763 0.5945 l
0.6772 0.5954 l
0.6780 0.5962 l
0.6789 0.5971 l
0.6797 0.5980 l
0.6806 0.5988 l
0.6814 0.5997 l
0.6823 0.6005 l
0.6832 0.6013 l
0.6840 0.6021 l
0.6849 0.6029 l
0.6857 0.6036 l
0.6866 0.6044 l
0.6874 0.6051 l
0.6883 0.6058 l
0.6891 0.6065 l
0.6900 0.6071 l
0.6909 0.6078 l
0.6917 0.6084 l
0.6926 0.6090 l
0.6934 0.6096 l
0.6943 0.6102 l
0.6951 0.6108 l
0.6960 0.6113 l
0.6969 0.6118 l
0.6977 0.6123 l
0.6986 0.6128 l
0.6994 0.6132 l
0.7003 0.6137 l
0.7011 0.6141 l
0.7020 0.6145 l
0.7028 0.6149 l
0.7037 0.6152 l
0.7046 0.6155 l
0.7054 0.6158 l
0.7063 0.6161 l
0.7071 0.6164 l
0.7080 0.6167 l
0.7088 0.6169 l
0.7097 0.6171 l
0.7105 0.6173 l
0.7114 0.6174 l
0.7123 0.6176 l
0.7131 0.6177 l
0.7140 0.6178 l
0.7148 0.6179 l
0.7157 0.6179 l
0.7165 0.6180 l
0.7174 0.6180 l
0.7183 0.6180 l
0.7191 0.6180 l
0.7200 0.6179 l
0.7208 0.6179 l
0.7217 0.6178 l
0.7225 0.6177 l
0.7234 0.6176 l
0.7242 0.6174 l
0.7251 0.6173 l
0.7260 0.6171 l
0.7268 0.6169 l
0.7277 0.6167 l
0.7285 0.6165 l
0.7294 0.6162 l
0.7302 0.6160 l
0.7311 0.6157 l
0.7319 0.6154 l
0.7328 0.6151 l
0.7337 0.6147 l
0.7345 0.6144 l
0.7354 0.6141 l
0.7362 0.6137 l
0.7371 0.6133 l
0.7379 0.6129 l
0.7388 0.6125 l
0.7397 0.6121 l
0.7405 0.6116 l
0.7414 0.6112 l
0.7422 0.6107 l
0.7431 0.6102 l
0.7439 0.6098 l
0.7448 0.6093 l
0.7456 0.6088 l
0.7465 0.6082 l
0.7474 0.6077 l
0.7482 0.6072 l
0.7491 0.6066 l
0.7499 0.6061 l
0.7508 0.6055 l
0.7516 0.6049 l
0.7525 0.6044 l
0.7533 0.6038 l
0.7542 0.6032 l
0.7551 0.6026 l
0.7559 0.6020 l
0.7568 0.6014 l
0.7576 0.6008 l
0.7585 0.6002 l
0.7593 0.5996 l
0.7602 0.5989 l
0.7611 0.5983 l
0.7619 0.5977 l
0.7628 0.5971 l
0.7636 0.5964 l
0.7645 0.5958 l
0.7653 0.5952 l
0.7662 0.5945 l
0.7670 0.5939 l
0.7679 0.5933 l
0.7688 0.5926 l
0.7696 0.5920 l
0.7705 0.5914 l
0.7713 0.5908 l
0.7722 0.5901 l
0.7730 0.5895 l
0.7739 0.5889 l
0.7747 0.5883 l
0.7756 0.5877 l
0.7765 0.5871 l
0.7773 0.5865 l
0.7782 0.5859 l
0.7790 0.5853 l
0.7799 0.5847 l
0.7807 0.5841 l
0.7816 0.5835 l
0.7825 0.5830 l
0.7833 0.5824 l
0.7842 0.5818 l
0.7850 0.5813 l
0.7859 0.5808 l
0.7867 0.5802 l
0.7876 0.5797 l
0.7884 0.5792 l
0.7893 0.5787 l
0.7902 0.5782 l
0.7910 0.5777 l
0.7919 0.5772 l
0.7927 0.5768 l
0.7936 0.5763 l
0.7944 0.5758 l
0.7953 0.5754 l
0.7961 0.5750 l
0.7970 0.5746 l
0.7979 0.5742 l
0.7987 0.5738 l
0.7996 0.5734 l
0.8004 0.5730 l
0.8013 0.5726 l
0.8021 0.5723 l
0.8030 0.5720 l
0.8039 0.5716 l
0.8047 0.5713 l
0.8056 0.5710 l
0.8064 0.5707 l
0.8073 0.5705 l
0.8081 0.5702 l
0.8090 0.5699 l
0.8098 0.5697 l
0.8107 0.5695 l
0.8116 0.5693 l
0.8124 0.5691 l
0.8133 0.5689 l
0.8141 0.5687 l
0.8150 0.5685 l
0.8158 0.5684 l
0.8167 0.5682 l
0.8175 0.5681 l
0.8184 0.5680 l
0.8193 0.5679 l
0.8201 0.5678 l
0.8210 0.5677 l
0.8218 0.5677 l
0.8227 0.5676 l
0.8235 0.5676 l
0.8244 0.5676 l
0.8253 0.5676 l
0.8261 0.5676 l
0.8270 0.5676 l
0.8278 0.5676 l
0.8287 0.5676 l
0.8295 0.5677 l
0.8304 0.5677 l
0.8312 0.5678 l
0.8321 0.5679 l
0.8330 0.5680 l
0.8338 0.5681 l
0.8347 0.5682 l
0.8355 0.5683 l
0.8364 0.5684 l
0.8372 0.5686 l
0.8381 0.5688 l
0.8389 0.5689 l
0.8398 0.5691 l
0.8407 0.5693 l
0.8415 0.5695 l
0.8424 0.5697 l
0.8432 0.5699 l
0.8441 0.5701 l
0.8449 0.5703 l
0.8458 0.5706 l
0.8467 0.5708 l
0.8475 0.5711 l
0.8484 0.5713 l
0.8492 0.5716 l
0.8501 0.5719 l
0.8509 0.5722 l
0.8518 0.5725 l
0.8526 0.5728 l
0.8535 0.5731 l
0.8544 0.5734 l
0.8552 0.5737 l
0.8561 0.5740 l
0.8569 0.5744 l
0.8578 0.5747 l
0.8586 0.5750 l
0.8595 0.5754 l
0.8603 0.5757 l
0.8612 0.5761 l
0.8621 0.5764 l
0.8629 0.5768 l
0.8638 0.5771 l
0.8646 0.5775 l
0.8655 0.5779 l
0.8663 0.5782 l
0.8672 0.5786 l
0.8681 0.5790 l
0.8689 0.5794 l
0.8698 0.5797 l
0.8706 0.5801 l
0.8715 0.5805 l
0.8723 0.5809 l
0.8732 0.5813 l
0.8740 0.5816 l
0.8749 0.5820 l
0.8758 0.5824 l
0.8766 0.5828 l
0.8775 0.5832 l
0.8783 0.5835 l
0.8792 0.5839 l
0.8800 0.5843 l
0.8809 0.5847 l
0.8817 0.5851 l
0.8826 0.5854 l
0.8835 0.5858 l
0.8843 0.5862 l
0.8852 0.5865 l
0.8860 0.5869 l
0.8869 0.5872 l
0.8877 0.5876 l
0.8886 0.5880 l
0.8895 0.5883 l
0.8903 0.5886 l
0.8912 0.5890 l
0.8920 0.5893 l
0.8929 0.5897 l
0.8937 0.5900 l
0.8946 0.5903 l
0.8954 0.5906 l
0.8963 0.5909 l
0.8972 0.5912 l
0.8980 0.5915 l
0.8989 0.5918 l
0.8997 0.5921 l
0.9006 0.5924 l
0.9014 0.5927 l
0.9023 0.5930 l
0.9031 0.5932 l
0.9040 0.5935 l
0.9049 0.5937 l
0.9057 0.5940 l
0.9066 0.5942 l
0.9074 0.5944 l
0.9083 0.5947 l
0.9091 0.5949 l
0.9100 0.5951 l
0.9109 0.5953 l
0.9117 0.5955 l
0.9126 0.5957 l
0.9134 0.5959 l
0.9143 0.5961 l
0.9151 0.5962 l
0.9160 0.5964 l
0.9168 0.5965 l
0.9177 0.5967 l
0.9186 0.5968 l
0.9194 0.5970 l
0.9203 0.5971 l
0.9211 0.5972 l
0.9220 0.5973 l
0.9228 0.5974 l
0.9237 0.5975 l
0.9245 0.5976 l
0.9254 0.5977 l
0.9263 0.5977 l
0.9271 0.5978 l
0.9280 0.5978 l
0.9288 0.5979 l
0.9297 0.5979 l
0.9305 0.5980 l
0.9314 0.5980 l
0.9323 0.5980 l
0.9331 0.5980 l
0.9340 0.5980 l
0.9348 0.5980 l
0.9357 0.5980 l
0.9365 0.5980 l
0.9374 0.5979 l
0.9382 0.5979 l
0.9391 0.5979 l
0.9400 0.5978 l
0.9408 0.5978 l
0.9417 0.5977 l
0.9425 0.5976 l
0.9434 0.5976 l
0.9442 0.5975 l
0.9451 0.5974 l
0.9459 0.5973 l
0.9468 0.5972 l
0.9477 0.5971 l
0.9485 0.5970 l
0.9494 0.5969 l
0.9502 0.5967 l
0.9511 0.5966 l
0.9519 0.5965 l
0.9528 0.5963 l
0.9537 0.5962 l
0.9545 0.5960 l
0.9554 0.5959 l
0.9562 0.5957 l
0.9571 0.5956 l
0.9579 0.5954 l
0.9588 0.5952 l
0.9596 0.5951 l
0.9605 0.5949 l
0.9614 0.5947 l
0.9622 0.5945 l
0.9631 0.5943 l
0.9639 0.5941 l
0.9648 0.5939 l
0.9656 0.5937 l
0.9665 0.5935 l
0.9673 0.5933 l
0.9682 0.5931 l
0.9691 0.5929 l
0.9699 0.5927 l
0.9708 0.5925 l
0.9716 0.5922 l
0.9725 0.5920 l
0.9733 0.5918 l
0.9742 0.5916 l
0.9751 0.5914 l
0.9759 0.5911 l
0.9768 0.5909 l
0.9776 0.5907 l
0.9785 0.5905 l
0.9793 0.5902 l
0.9802 0.5900 l
0.9810 0.5898 l
0.9819 0.5895 l
0.9828 0.5893 l
0.9836 0.5891 l
0.9845 0.5888 l
0.9853 0.5886 l
0.9862 0.5884 l
0.9870 0.5882 l
0.9879 0.5879 l
0.9887 0.5877 l
0.9896 0.5875 l
0.9905 0.5872 l
0.9913 0.5870 l
0.9922 0.5868 l
0.9930 0.5866 l
0.9939 0.5864 l
0.9947 0.5861 l
0.9956 0.5859 l
0.9965 0.5857 l
0.9973 0.5855 l
0.9982 0.5853 l
0.9990 0.5851 l
0.9999 0.5849 l
1.0007 0.5847 l
1.0016 0.5845 l
1.0024 0.5843 l
1.0033 0.5841 l
1.0042 0.5839 l
1.0050 0.5837 l
1.0059 0.5836 l
1.0067 0.5834 l
1.0076 0.5832 l
1.0084 0.5830 l
1.0093 0.5829 l
1.0101 0.5827 l
1.0110 0.5825 l
1.0119 0.5824 l
1.0127 0.5822 l
1.0136 0.5821 l
1.0144 0.5819 l
1.0153 0.5818 l
1.0161 0.5816 l
1.0170 0.5815 l
1.0179 0.5814 l
1.0187 0.5813 l
1.0196 0.5811 l
1.0204 0.5810 l
1.0213 0.5809 l
1.0221 0.5808 l
1.0230 0.5807 l
1.0238 0.5806 l
1.0247 0.5805 l
1.0256 0.5804 l
1.0264 0.5803 l
1.0273 0.5803 l
1.0281 0.5802 l
1.0290 0.5801 l
1.0298 0.5801 l
1.0307 0.5800 l
1.0315 0.5799 l
1.0324 0.5799 l
1.0333 0.5798 l
1.0341 0.5798 l
1.0350 0.5798 l
1.0358 0.5797 l
1.0367 0.5797 l
1.0375 0.5797 l
1.0384 0.5796 l
s
[/DeviceRGB] SCS
Color1 SC
[] 0 SD
0.0030 SLW
n
0.1832 0.1998 m
0.1841 0.2015 l
0.1850 0.2034 l
0.1858 0.2055 l
0.1867 0.2079 l
0.1875 0.2104 l
0.1884 0.2132 l
0.1892 0.2162 l
0.1901 0.2194 l
0.1910 0.2228 l
0.1918 0.2265 l
0.1927 0.2303 l
0.1935 0.2343 l
0.1944 0.2385 l
0.1952 0.2429 l
0.1961 0.2475 l
0.1969 0.2522 l
0.1978 0.2572 l
0.1987 0.2623 l
0.1995 0.2675 l
0.2004 0.2729 l
0.2012 0.2785 l
0.2021 0.2842 l
0.2029 0.2901 l
0.2038 0.2961 l
0.2046 0.3023 l
0.2055 0.3086 l
0.2064 0.3150 l
0.2072 0.3215 l
0.2081 0.3281 l
0.2089 0.3349 l
0.2098 0.3418 l
0.2106 0.3487 l
0.2115 0.3558 l
0.2124 0.3629 l
0.2132 0.3702 l
0.2141 0.3775 l
0.2149 0.3849 l
0.2158 0.3923 l
0.2166 0.3998 l
0.2175 0.4074 l
0.2183 0.4150 l
0.2192 0.4227 l
0.2201 0.4304 l
0.2209 0.4382 l
0.2218 0.4460 l
0.2226 0.4538 l
0.2235 0.4616 l
0.2243 0.4695 l
0.2252 0.4774 l
0.2260 0.4852 l
0.2269 0.4931 l
0.2278 0.5010 l
0.2286 0.5088 l
0.2295 0.5167 l
0.2303 0.5245 l
0.2312 0.5323 l
0.2320 0.5401 l
0.2329 0.5479 l
0.2338 0.5556 l
0.2346 0.5632 l
0.2355 0.5709 l
0.2363 0.5784 l
0.2372 0.5859 l
0.2380 0.5934 l
0.2389 0.6008 l
0.2397 0.6081 l
0.2406 0.6154 l
0.2415 0.6226 l
0.2423 0.6296 l
0.2432 0.6367 l
0.2440 0.6436 l
0.2449 0.6504 l
0.2457 0.6572 l
0.2466 0.6638 l
0.2474 0.6703 l
0.2483 0.6768 l
0.2492 0.6831 l
0.2500 0.6893 l
0.2509 0.6954 l
0.2517 0.7014 l
0.2526 0.7073 l
0.2534 0.7130 l
0.2543 0.7186 l
0.2552 0.7241 l
0.2560 0.7294 l
0.2569 0.7347 l
0.2577 0.7398 l
0.2586 0.7447 l
0.2594 0.7495 l
0.2603 0.7542 l
0.2611 0.7587 l
0.2620 0.7631 l
0.2629 0.7673 l
0.2637 0.7714 l
0.2646 0.7753 l
0.2654 0.7791 l
0.2663 0.7827 l
0.2671 0.7862 l
0.2680 0.7895 l
0.2688 0.7927 l
0.2697 0.7957 l
0.2706 0.7986 l
0.2714 0.8013 l
0.2723 0.8038 l
0.2731 0.8062 l
0.2740 0.8084 l
0.2748 0.8105 l
0.2757 0.8124 l
0.2766 0.8141 l
0.2774 0.8157 l
0.2783 0.8172 l
0.2791 0.8184 l
0.2800 0.8196 l
0.2808 0.8205 l
0.2817 0.8213 l
0.2825 0.8220 l
0.2834 0.8225 l
0.2843 0.8228 l
0.2851 0.8230 l
0.2860 0.8230 l
0.2868 0.8229 l
0.2877 0.8227 l
0.2885 0.8223 l
0.2894 0.8217 l
0.2902 0.8210 l
0.2911 0.8202 l
0.2920 0.8192 l
0.2928 0.8181 l
0.2937 0.8168 l
0.2945 0.8154 l
0.2954 0.8139 l
0.2962 0.8122 l
0.2971 0.8104 l
0.2980 0.8085 l
0.2988 0.8065 l
0.2997 0.8043 l
0.3005 0.8020 l
0.3014 0.7996 l
0.3022 0.7971 l
0.3031 0.7945 l
0.3039 0.7917 l
0.3048 0.7889 l
0.3057 0.7859 l
0.3065 0.7829 l
0.3074 0.7797 l
0.3082 0.7764 l
0.3091 0.7731 l
0.3099 0.7696 l
0.3108 0.7661 l
0.3116 0.7625 l
0.3125 0.7588 l
0.3134 0.7550 l
0.3142 0.7511 l
0.3151 0.7472 l
0.3159 0.7432 l
0.3168 0.7391 l
0.3176 0.7350 l
0.3185 0.7308 l
0.3194 0.7266 l
0.3202 0.7223 l
0.3211 0.7179 l
0.3219 0.7135 l
0.3228 0.7090 l
0.3236 0.7045 l
0.3245 0.7000 l
0.3253 0.6954 l
0.3262 0.6908 l
0.3271 0.6862 l
0.3279 0.6815 l
0.3288 0.6769 l
0.3296 0.6722 l
0.3305 0.6674 l
0.3313 0.6627 l
0.3322 0.6580 l
0.3330 0.6532 l
0.3339 0.6485 l
0.3348 0.6437 l
0.3356 0.6390 l
0.3365 0.6342 l
0.3373 0.6295 l
0.3382 0.6247 l
0.3390 0.6200 l
0.3399 0.6153 l
0.3408 0.6106 l
0.3416 0.6060 l
0.3425 0.6013 l
0.3433 0.5967 l
0.3442 0.5922 l
0.3450 0.5876 l
0.3459 0.5831 l
0.3467 0.5786 l
0.3476 0.5742 l
0.3485 0.5698 l
0.3493 0.5655 l
0.3502 0.5612 l
0.3510 0.5569 l
0.3519 0.5528 l
0.3527 0.5486 l
0.3536 0.5445 l
0.3544 0.5405 l
0.3553 0.5366 l
0.3562 0.5327 l
0.3570 0.5288 l
0.3579 0.5251 l
0.3587 0.5214 l
0.3596 0.5178 l
0.3604 0.5142 l
0.3613 0.5107 l
0.3622 0.5073 l
0.3630 0.5040 l
0.3639 0.5008 l
0.3647 0.4976 l
0.3656 0.4945 l
0.3664 0.4915 l
0.3673 0.4886 l
0.3681 0.4858 l
0.3690 0.4830 l
0.3699 0.4804 l
0.3707 0.4778 l
0.3716 0.4753 l
0.3724 0.4729 l
0.3733 0.4706 l
0.3741 0.4684 l
0.3750 0.4663 l
0.3758 0.4643 l
0.3767 0.4624 l
0.3776 0.4605 l
0.3784 0.4588 l
0.3793 0.4571 l
0.3801 0.4556 l
0.3810 0.4541 l
0.3818 0.4528 l
0.3827 0.4515 l
0.3836 0.4503 l
0.3844 0.4493 l
0.3853 0.4483 l
0.3861 0.4474 l
0.3870 0.4466 l
0.3878 0.4459 l
0.3887 0.4453 l
0.3895 0.4448 l
0.3904 0.4444 l
0.3913 0.4441 l
0.3921 0.4439 l
0.3930 0.4438 l
0.3938 0.4437 l
0.3947 0.4438 l
0.3955 0.4439 l
0.3964 0.4441 l
0.3972 0.4445 l
0.3981 0.4449 l
0.3990 0.4454 l
0.3998 0.4459 l
0.4007 0.4466 l
0.4015 0.4474 l
0.4024 0.4482 l
0.4032 0.4491 l
0.4041 0.4501 l
0.4050 0.4512 l
0.4058 0.4523 l
0.4067 0.4535 l
0.4075 0.4548 l
0.4084 0.4562 l
0.4092 0.4576 l
0.4101 0.4591 l
0.4109 0.4607 l
0.4118 0.4624 l
0.4127 0.4641 l
0.4135 0.4659 l
0.4144 0.4677 l
0.4152 0.4696 l
0.4161 0.4716 l
0.4169 0.4736 l
0.4178 0.4756 l
0.4186 0.4778 l
0.4195 0.4799 l
0.4204 0.4822 l
0.4212 0.4844 l
0.4221 0.4868 l
0.4229 0.4891 l
0.4238 0.4915 l
0.4246 0.4940 l
0.4255 0.4965 l
0.4264 0.4990 l
0.4272 0.5016 l
0.4281 0.5042 l
0.4289 0.5068 l
0.4298 0.5095 l
0.4306 0.5121 l
0.4315 0.5149 l
0.4323 0.5176 l
0.4332 0.5203 l
0.4341 0.5231 l
0.4349 0.5259 l
0.4358 0.5287 l
0.4366 0.5315 l
0.4375 0.5344 l
0.4383 0.5372 l
0.4392 0.5401 l
0.4400 0.5429 l
0.4409 0.5458 l
0.4418 0.5487 l
0.4426 0.5516 l
0.4435 0.5544 l
0.4443 0.5573 l
0.4452 0.5602 l
0.4460 0.5630 l
0.4469 0.5659 l
0.4478 0.5687 l
0.4486 0.5715 l
0.4495 0.5744 l
0.4503 0.5772 l
0.4512 0.5799 l
0.4520 0.5827 l
0.4529 0.5855 l
0.4537 0.5882 l
0.4546 0.5909 l
0.4555 0.5936 l
0.4563 0.5962 l
0.4572 0.5988 l
0.4580 0.6014 l
0.4589 0.6040 l
0.4597 0.6065 l
0.4606 0.6090 l
0.4614 0.6115 l
0.4623 0.6139 l
0.4632 0.6163 l
0.4640 0.6187 l
0.4649 0.6210 l
0.4657 0.6233 l
0.4666 0.6255 l
0.4674 0.6277 l
0.4683 0.6299 l
0.4692 0.6320 l
0.4700 0.6340 l
0.4709 0.6361 l
0.4717 0.6380 l
0.4726 0.6399 l
0.4734 0.6418 l
0.4743 0.6436 l
0.4751 0.6454 l
0.4760 0.6471 l
0.4769 0.6488 l
0.4777 0.6504 l
0.4786 0.6520 l
0.4794 0.6535 l
0.4803 0.6549 l
0.4811 0.6563 l
0.4820 0.6577 l
0.4828 0.6589 l
0.4837 0.6602 l
0.4846 0.6613 l
0.4854 0.6625 l
0.4863 0.6635 l
0.4871 0.6645 l
0.4880 0.6655 l
0.4888 0.6664 l
0.4897 0.6672 l
0.4906 0.6680 l
0.4914 0.6687 l
0.4923 0.6693 l
0.4931 0.6699 l
0.4940 0.6705 l
0.4948 0.6710 l
0.4957 0.6714 l
0.4965 0.6717 l
0.4974 0.6721 l
0.4983 0.6723 l
0.4991 0.6725 l
0.5000 0.6727 l
0.5008 0.6727 l
0.5017 0.6728 l
0.5025 0.6728 l
0.5034 0.6727 l
0.5042 0.6725 l
0.5051 0.6724 l
0.5060 0.6721 l
0.5068 0.6718 l
0.5077 0.6715 l
0.5085 0.6711 l
0.5094 0.6707 l
0.5102 0.6702 l
0.5111 0.6696 l
0.5120 0.6690 l
0.5128 0.6684 l
0.5137 0.6677 l
0.5145 0.6670 l
0.5154 0.6662 l
0.5162 0.6654 l
0.5171 0.6645 l
0.5179 0.6636 l
0.5188 0.6627 l
0.5197 0.6617 l
0.5205 0.6606 l
0.5214 0.6596 l
0.5222 0.6585 l
0.5231 0.6573 l
0.5239 0.6562 l
0.5248 0.6549 l
0.5256 0.6537 l
0.5265 0.6524 l
0.5274 0.6511 l
0.5282 0.6498 l
0.5291 0.6484 l
0.5299 0.6470 l
0.5308 0.6456 l
0.5316 0.6441 l
0.5325 0.6427 l
0.5334 0.6412 l
0.5342 0.6396 l
0.5351 0.6381 l
0.5359 0.6365 l
0.5368 0.6349 l
0.5376 0.6333 l
0.5385 0.6317 l
0.5393 0.6301 l
0.5402 0.6284 l
0.5411 0.6268 l
0.5419 0.6251 l
0.5428 0.6234 l
0.5436 0.6217 l
0.5445 0.6200 l
0.5453 0.6183 l
0.5462 0.6166 l
0.5470 0.6149 l
0.5479 0.6131 l
0.5488 0.6114 l
0.5496 0.6097 l
0.5505 0.6079 l
0.5513 0.6062 l
0.5522 0.6045 l
0.5530 0.6027 l
0.5539 0.6010 l
0.5548 0.5993 l
0.5556 0.5976 l
0.5565 0.5959 l
0.5573 0.5942 l
0.5582 0.5925 l
0.5590 0.5908 l
0.5599 0.5891 l
0.5607 0.5875 l
0.5616 0.5858 l
0.5625 0.5842 l
0.5633 0.5826 l
0.5642 0.5810 l
0.5650 0.5794 l
0.5659 0.5778 l
0.5667 0.5762 l
0.5676 0.5747 l
0.5684 0.5732 l
0.5693 0.5717 l
0.5702 0.5702 l
0.5710 0.5688 l
0.5719 0.5673 l
0.5727 0.5659 l
0.5736 0.5646 l
0.5744 0.5632 l
0.5753 0.5619 l
0.5762 0.5606 l
0.5770 0.5593 l
0.5779 0.5580 l
0.5787 0.5568 l
0.5796 0.5556 l
0.5804 0.5545 l
0.5813 0.5533 l
0.5821 0.5522 l
0.5830 0.5512 l
0.5839 0.5501 l
0.5847 0.5491 l
0.5856 0.5481 l
0.5864 0.5472 l
0.5873 0.5463 l
0.5881 0.5454 l
0.5890 0.5445 l
0.5898 0.5437 l
0.5907 0.5429 l
0.5916 0.5422 l
0.5924 0.5415 l
0.5933 0.5408 l
0.5941 0.5402 l
0.5950 0.5395 l
0.5958 0.5390 l
0.5967 0.5384 l
0.5976 0.5379 l
0.5984 0.5374 l
0.5993 0.5370 l
0.6001 0.5366 l
0.6010 0.5362 l
0.6018 0.5359 l
0.6027 0.5356 l
0.6035 0.5353 l
0.6044 0.5351 l
0.6053 0.5349 l
0.6061 0.5348 l
0.6070 0.5346 l
0.6078 0.5346 l
0.6087 0.5345 l
0.6095 0.5345 l
0.6104 0.5345 l
0.6112 0.5345 l
0.6121 0.5346 l
0.6130 0.5347 l
0.6138 0.5348 l
0.6147 0.5350 l
0.6155 0.5352 l
0.6164 0.5354 l
0.6172 0.5357 l
0.6181 0.5360 l
0.6190 0.5363 l
0.6198 0.5367 l
0.6207 0.5370 l
0.6215 0.5375 l
0.6224 0.5379 l
0.6232 0.5384 l
0.6241 0.5389 l
0.6249 0.5394 l
0.6258 0.5399 l
0.6267 0.5405 l
0.6275 0.5411 l
0.6284 0.5417 l
0.6292 0.5423 l
0.6301 0.5430 l
0.6309 0.5437 l
0.6318 0.5444 l
0.6326 0.5451 l
0.6335 0.5459 l
0.6344 0.5466 l
0.6352 0.5474 l
0.6361 0.5482 l
0.6369 0.5490 l
0.6378 0.5499 l
0.6386 0.5507 l
0.6395 0.5516 l
0.6404 0.5525 l
0.6412 0.5534 l
0.6421 0.5543 l
0.6429 0.5553 l
0.6438 0.5562 l
0.6446 0.5572 l
0.6455 0.5581 l
0.6463 0.5591 l
0.6472 0.5601 l
0.6481 0.5611 l
0.6489 0.5621 l
0.6498 0.5631 l
0.6506 0.5641 l
0.6515 0.5651 l
0.6523 0.5662 l
0.6532 0.5672 l
0.6540 0.5682 l
0.6549 0.5693 l
0.6558 0.5703 l
0.6566 0.5714 l
0.6575 0.5724 l
0.6583 0.5735 l
0.6592 0.5745 l
0.6600 0.5755 l
0.6609 0.5766 l
0.6618 0.5776 l
0.6626 0.5787 l
0.6635 0.5797 l
0.6643 0.5807 l
0.6652 0.5818 l
0.6660 0.5828 l
0.6669 0.5838 l
0.6677 0.5848 l
0.6686 0.5858 l
0.6695 0.5868 l
0.6703 0.5878 l
0.6712 0.5888 l
0.6720 0.5898 l
0.6729 0.5907 l
0.6737 0.5917 l
0.6746 0.5926 l
0.6754 0.5935 l
0.6763 0.5945 l
0.6772 0.5954 l
0.6780 0.5962 l
0.6789 0.5971 l
0.6797 0.5980 l
0.6806 0.5988 l
0.6814 0.5997 l
0.6823 0.6005 l
0.6832 0.6013 l
0.6840 0.6021 l
0.6849 0.6029 l
0.6857 0.6036 l
0.6866 0.6044 l
0.6874 0.6051 l
0.6883 0.6058 l
0.6891 0.6065 l
0.6900 0.6071 l
0.6909 0.6078 l
0.6917 0.6084 l
0.6926 0.6090 l
0.6934 0.6096 l
0.6943 0.6102 l
0.6951 0.6108 l
0.6960 0.6113 l
0.6969 0.6118 l
0.6977 0.6123 l
0.6986 0.6128 l
0.6994 0.6132 l
0.7003 0.6137 l
0.7011 0.6141 l
0.7020 0.6145 l
0.7028 0.6149 l
0.7037 0.6152 l
0.7046 0.6155 l
0.7054 0.6158 l
0.7063 0.6161 l
0.7071 0.6164 l
0.7080 0.6167 l
0.7088 0.6169 l
0.7097 0.6171 l
0.7105 0.6173 l
0.7114 0.6174 l
0.7123 0.6176 l
0.7131 0.6177 l
0.7140 0.6178 l
0.7148 0.6179 l
0.7157 0.6179 l
0.7165 0.6180 l
0.7174 0.6180 l
0.7183 0.6180 l
0.7191 0.6180 l
0.7200 0.6179 l
0.7208 0.6179 l
0.7217 0.6178 l
0.7225 0.6177 l
0.7234 0.6176 l
0.7242 0.6174 l
0.7251 0.6173 l
0.7260 0.6171 l
0.7268 0.6169 l
0.7277 0.6167 l
0.7285 0.6165 l
0.7294 0.6162 l
0.7302 0.6160 l
0.7311 0.6157 l
0.7319 0.6154 l
0.7328 0.6151 l
0.7337 0.6147 l
0.7345 0.6144 l
0.7354 0.6141 l
0.7362 0.6137 l
0.7371 0.6133 l
0.7379 0.6129 l
0.7388 0.6125 l
0.7397 0.6121 l
0.7405 0.6116 l
0.7414 0.6112 l
0.7422 0.6107 l
0.7431 0.6102 l
0.7439 0.6098 l
0.7448 0.6093 l
0.7456 0.6088 l
0.7465 0.6082 l
0.7474 0.6077 l
0.7482 0.6072 l
0.7491 0.6066 l
0.7499 0.6061 l
0.7508 0.6055 l
0.7516 0.6049 l
0.7525 0.6044 l
0.7533 0.6038 l
0.7542 0.6032 l
0.7551 0.6026 l
0.7559 0.6020 l
0.7568 0.6014 l
0.7576 0.6008 l
0.7585 0.6002 l
0.7593 0.5996 l
0.7602 0.5989 l
0.7611 0.5983 l
0.7619 0.5977 l
0.7628 0.5971 l
0.7636 0.5964 l
0.7645 0.5958 l
0.7653 0.5952 l
0.7662 0.5945 l
0.7670 0.5939 l
0.7679 0.5933 l
0.7688 0.5926 l
0.7696 0.5920 l
0.7705 0.5914 l
0.7713 0.5908 l
0.7722 0.5901 l
0.7730 0.5895 l
0.7739 0.5889 l
0.7747 0.5883 l
0.7756 0.5877 l
0.7765 0.5871 l
0.7773 0.5865 l
0.7782 0.5859 l
0.7790 0.5853 l
0.7799 0.5847 l
0.7807 0.5841 l
0.7816 0.5835 l
0.7825 0.5830 l
0.7833 0.5824 l
0.7842 0.5818 l
0.7850 0.5813 l
0.7859 0.5808 l
0.7867 0.5802 l
0.7876 0.5797 l
0.7884 0.5792 l
0.7893 0.5787 l
0.7902 0.5782 l
0.7910 0.5777 l
0.7919 0.5772 l
0.7927 0.5768 l
0.7936 0.5763 l
0.7944 0.5758 l
0.7953 0.5754 l
0.7961 0.5750 l
0.7970 0.5746 l
0.7979 0.5742 l
0.7987 0.5738 l
0.7996 0.5734 l
0.8004 0.5730 l
0.8013 0.5726 l
0.8021 0.5723 l
0.8030 0.5720 l
0.8039 0.5716 l
0.8047 0.5713 l
0.8056 0.5710 l
0.8064 0.5707 l
0.8073 0.5705 l
0.8081 0.5702 l
0.8090 0.5699 l
0.8098 0.5697 l
0.8107 0.5695 l
0.8116 0.5693 l
0.8124 0.5691 l
0.8133 0.5689 l
0.8141 0.5687 l
0.8150 0.5685 l
0.8158 0.5684 l
0.8167 0.5682 l
0.8175 0.5681 l
0.8184 0.5680 l
0.8193 0.5679 l
0.8201 0.5678 l
0.8210 0.5677 l
0.8218 0.5677 l
0.8227 0.5676 l
0.8235 0.5676 l
0.8244 0.5676 l
0.8253 0.5676 l
0.8261 0.5676 l
0.8270 0.5676 l
0.8278 0.5676 l
0.8287 0.5676 l
0.8295 0.5677 l
0.8304 0.5677 l
0.8312 0.5678 l
0.8321 0.5679 l
0.8330 0.5680 l
0.8338 0.5681 l
0.8347 0.5682 l
0.8355 0.5683 l
0.8364 0.5684 l
0.8372 0.5686 l
0.8381 0.5688 l
0.8389 0.5689 l
0.8398 0.5691 l
0.8407 0.5693 l
0.8415 0.5695 l
0.8424 0.5697 l
0.8432 0.5699 l
0.8441 0.5701 l
0.8449 0.5703 l
0.8458 0.5706 l
0.8467 0.5708 l
0.8475 0.5711 l
0.8484 0.5713 l
0.8492 0.5716 l
0.8501 0.5719 l
0.8509 0.5722 l
0.8518 0.5725 l
0.8526 0.5728 l
0.8535 0.5731 l
0.8544 0.5734 l
0.8552 0.5737 l
0.8561 0.5740 l
0.8569 0.5744 l
0.8578 0.5747 l
0.8586 0.5750 l
0.8595 0.5754 l
0.8603 0.5757 l
0.8612 0.5761 l
0.8621 0.5764 l
0.8629 0.5768 l
0.8638 0.5771 l
0.8646 0.5775 l
0.8655 0.5779 l
0.8663 0.5782 l
0.8672 0.5786 l
0.8681 0.5790 l
0.8689 0.5794 l
0.8698 0.5797 l
0.8706 0.5801 l
0.8715 0.5805 l
0.8723 0.5809 l
0.8732 0.5813 l
0.8740 0.5816 l
0.8749 0.5820 l
0.8758 0.5824 l
0.8766 0.5828 l
0.8775 0.5832 l
0.8783 0.5835 l
0.8792 0.5839 l
0.8800 0.5843 l
0.8809 0.5847 l
0.8817 0.5851 l
0.8826 0.5854 l
0.8835 0.5858 l
0.8843 0.5862 l
0.8852 0.5865 l
0.8860 0.5869 l
0.8869 0.5872 l
0.8877 0.5876 l
0.8886 0.5880 l
0.8895 0.5883 l
0.8903 0.5886 l
0.8912 0.5890 l
0.8920 0.5893 l
0.8929 0.5897 l
0.8937 0.5900 l
0.8946 0.5903 l
0.8954 0.5906 l
0.8963 0.5909 l
0.8972 0.5912 l
0.8980 0.5915 l
0.8989 0.5918 l
0.8997 0.5921 l
0.9006 0.5924 l
0.9014 0.5927 l
0.9023 0.5930 l
0.9031 0.5932 l
0.9040 0.5935 l
0.9049 0.5937 l
0.9057 0.5940 l
0.9066 0.5942 l
0.9074 0.5944 l
0.9083 0.5947 l
0.9091 0.5949 l
0.9100 0.5951 l
0.9109 0.5953 l
0.9117 0.5955 l
0.9126 0.5957 l
0.9134 0.5959 l
0.9143 0.5961 l
0.9151 0.5962 l
0.9160 0.5964 l
0.9168 0.5965 l
0.9177 0.5967 l
0.9186 0.5968 l
0.9194 0.5970 l
0.9203 0.5971 l
0.9211 0.5972 l
0.9220 0.5973 l
0.9228 0.5974 l
0.9237 0.5975 l
0.9245 0.5976 l
0.9254 0.5977 l
0.9263 0.5977 l
0.9271 0.5978 l
0.9280 0.5978 l
0.9288 0.5979 l
0.9297 0.5979 l
0.9305 0.5980 l
0.9314 0.5980 l
0.9323 0.5980 l
0.9331 0.5980 l
0.9340 0.5980 l
0.9348 0.5980 l
0.9357 0.5980 l
0.9365 0.5980 l
0.9374 0.5979 l
0.9382 0.5979 l
0.9391 0.5979 l
0.9400 0.5978 l
0.9408 0.5978 l
0.9417 0.5977 l
0.9425 0.5976 l
0.9434 0.5976 l
0.9442 0.5975 l
0.9451 0.5974 l
0.9459 0.5973 l
0.9468 0.5972 l
0.9477 0.5971 l
0.9485 0.5970 l
0.9494 0.5969 l
0.9502 0.5967 l
0.9511 0.5966 l
0.9519 0.5965 l
0.9528 0.5963 l
0.9537 0.5962 l
0.9545 0.5960 l
0.9554 0.5959 l
0.9562 0.5957 l
0.9571 0.5956 l
0.9579 0.5954 l
0.9588 0.5952 l
0.9596 0.5951 l
0.9605 0.5949 l
0.9614 0.5947 l
0.9622 0.5945 l
0.9631 0.5943 l
0.9639 0.5941 l
0.9648 0.5939 l
0.9656 0.5937 l
0.9665 0.5935 l
0.9673 0.5933 l
0.9682 0.5931 l
0.9691 0.5929 l
0.9699 0.5927 l
0.9708 0.5925 l
0.9716 0.5922 l
0.9725 0.5920 l
0.9733 0.5918 l
0.9742 0.5916 l
0.9751 0.5914 l
0.9759 0.5911 l
0.9768 0.5909 l
0.9776 0.5907 l
0.9785 0.5905 l
0.9793 0.5902 l
0.9802 0.5900 l
0.9810 0.5898 l
0.9819 0.5895 l
0.9828 0.5893 l
0.9836 0.5891 l
0.9845 0.5888 l
0.9853 0.5886 l
0.9862 0.5884 l
0.9870 0.5882 l
0.9879 0.5879 l
0.9887 0.5877 l
0.9896 0.5875 l
0.9905 0.5872 l
0.9913 0.5870 l
0.9922 0.5868 l
0.9930 0.5866 l
0.9939 0.5864 l
0.9947 0.5861 l
0.9956 0.5859 l
0.9965 0.5857 l
0.9973 0.5855 l
0.9982 0.5853 l
0.9990 0.5851 l
0.9999 0.5849 l
1.0007 0.5847 l
1.0016 0.5845 l
1.0024 0.5843 l
1.0033 0.5841 l
1.0042 0.5839 l
1.0050 0.5837 l
1.0059 0.5836 l
1.0067 0.5834 l
1.0076 0.5832 l
1.0084 0.5830 l
1.0093 0.5829 l
1.0101 0.5827 l
1.0110 0.5825 l
1.0119 0.5824 l
1.0127 0.5822 l
1.0136 0.5821 l
1.0144 0.5819 l
1.0153 0.5818 l
1.0161 0.5816 l
1.0170 0.5815 l
1.0179 0.5814 l
1.0187 0.5813 l
1.0196 0.5811 l
1.0204 0.5810 l
1.0213 0.5809 l
1.0221 0.5808 l
1.0230 0.5807 l
1.0238 0.5806 l
1.0247 0.5805 l
1.0256 0.5804 l
1.0264 0.5803 l
1.0273 0.5803 l
1.0281 0.5802 l
1.0290 0.5801 l
1.0298 0.5801 l
1.0307 0.5800 l
1.0315 0.5799 l
1.0324 0.5799 l
1.0333 0.5798 l
1.0341 0.5798 l
1.0350 0.5798 l
1.0358 0.5797 l
1.0367 0.5797 l
1.0375 0.5797 l
1.0384 0.5796 l
s
n
0.2545 0.1500 m
0.2545 0.1700 l
s
n
0.2545 0.8500 m
0.2545 0.8300 l
s
n
0.3970 0.1500 m
0.3970 0.1700 l
s
n
0.3970 0.8500 m
0.3970 0.8300 l
s
n
0.5396 0.1500 m
0.5396 0.1700 l
s
n
0.5396 0.8500 m
0.5396 0.8300 l
s
n
0.6821 0.1500 m
0.6821 0.1700 l
s
n
0.6821 0.8500 m
0.6821 0.8300 l
s
n
0.8246 0.1500 m
0.8246 0.1700 l
s
n
0.8246 0.8500 m
0.8246 0.8300 l
s
n
0.9671 0.1500 m
0.9671 0.1700 l
s
n
0.9671 0.8500 m
0.9671 0.8300 l
s
n
0.1832 0.1500 m
0.1832 0.1800 l
s
n
0.1832 0.8500 m
0.1832 0.8200 l
s
n
0.3258 0.1500 m
0.3258 0.1800 l
s
n
0.3258 0.8500 m
0.3258 0.8200 l
s
n
0.4683 0.1500 m
0.4683 0.1800 l
s
n
0.4683 0.8500 m
0.4683 0.8200 l
s
n
0.6108 0.1500 m
0.6108 0.1800 l
s
n
0.6108 0.8500 m
0.6108 0.8200 l
s
n
0.7533 0.1500 m
0.7533 0.1800 l
s
n
0.7533 0.8500 m
0.7533 0.8200 l
s
n
0.8959 0.1500 m
0.8959 0.1800 l
s
n
0.8959 0.8500 m
0.8959 0.8200 l
s
n
1.0384 0.1500 m
1.0384 0.1800 l
s
n
1.0384 0.8500 m
1.0384 0.8200 l
s
/Helvetica findfont
dup length dict begin
 {1 index /FID ne {def} {pop pop} ifelse} forall
 /Encoding DefEncoding def
 currentdict
end
/Font12 exch definefont pop
/Font12 FFSF
0.1724 0.1104 m
GS
[0.0420 0.0000 0.0000 0.0420 0 0] CC
(0) show
GR
/Font12 FFSF
0.3034 0.1104 m
GS
[0.0420 0.0000 0.0000 0.0420 0 0] CC
(10) show
GR
/Font12 FFSF
0.4459 0.1104 m
GS
[0.0420 0.0000 0.0000 0.0420 0 0] CC
(20) show
GR
/Font12 FFSF
0.5884 0.1104 m
GS
[0.0420 0.0000 0.0000 0.0420 0 0] CC
(30) show
GR
/Font12 FFSF
0.7309 0.1104 m
GS
[0.0420 0.0000 0.0000 0.0420 0 0] CC
(40) show
GR
/Font12 FFSF
0.8735 0.1104 m
GS
[0.0420 0.0000 0.0000 0.0420 0 0] CC
(50) show
GR
/Font12 FFSF
1.0160 0.1104 m
GS
[0.0420 0.0000 0.0000 0.0420 0 0] CC
(60) show
GR
/Font12 FFSF
0.5762 0.0688 m
GS
[0.0420 0.0000 0.0000 0.0420 0 0] CC
(t \(s\)) show
GR
n
0.1832 0.2047 m
0.2032 0.2047 l
s
n
1.0384 0.2047 m
1.0184 0.2047 l
s
n
0.1832 0.3140 m
0.2032 0.3140 l
s
n
1.0384 0.3140 m
1.0184 0.3140 l
s
n
0.1832 0.4234 m
0.2032 0.4234 l
s
n
1.0384 0.4234 m
1.0184 0.4234 l
s
n
0.1832 0.5328 m
0.2032 0.5328 l
s
n
1.0384 0.5328 m
1.0184 0.5328 l
s
n
0.1832 0.6422 m
0.2032 0.6422 l
s
n
1.0384 0.6422 m
1.0184 0.6422 l
s
n
0.1832 0.7515 m
0.2032 0.7515 l
s
n
1.0384 0.7515 m
1.0184 0.7515 l
s
n
0.1832 0.1500 m
0.2132 0.1500 l
s
n
1.0384 0.1500 m
1.0084 0.1500 l
s
n
0.1832 0.2594 m
0.2132 0.2594 l
s
n
1.0384 0.2594 m
1.0084 0.2594 l
s
n
0.1832 0.3687 m
0.2132 0.3687 l
s
n
1.0384 0.3687 m
1.0084 0.3687 l
s
n
0.1832 0.4781 m
0.2132 0.4781 l
s
n
1.0384 0.4781 m
1.0084 0.4781 l
s
n
0.1832 0.5875 m
0.2132 0.5875 l
s
n
1.0384 0.5875 m
1.0084 0.5875 l
s
n
0.1832 0.6968 m
0.2132 0.6968 l
s
n
1.0384 0.6968 m
1.0084 0.6968 l
s
n
0.1832 0.8062 m
0.2132 0.8062 l
s
n
1.0384 0.8062 m
1.0084 0.8062 l
s
/Font12 FFSF
0.0560 0.1356 m
GS
[0.0420 0.0000 0.0000 0.0420 0 0] CC
(-0.200) show
GR
/Font12 FFSF
0.0560 0.2450 m
GS
[0.0420 0.0000 0.0000 0.0420 0 0] CC
(-0.150) show
GR
/Font12 FFSF
0.0560 0.3543 m
GS
[0.0420 0.0000 0.0000 0.0420 0 0] CC
(-0.100) show
GR
/Font12 FFSF
0.0560 0.4637 m
GS
[0.0420 0.0000 0.0000 0.0420 0 0] CC
(-0.050) show
GR
/Font12 FFSF
0.0700 0.5731 m
GS
[0.0420 0.0000 0.0000 0.0420 0 0] CC
(0.000) show
GR
/Font12 FFSF
0.0700 0.6824 m
GS
[0.0420 0.0000 0.0000 0.0420 0 0] CC
(0.050) show
GR
/Font12 FFSF
0.0700 0.7918 m
GS
[0.0420 0.0000 0.0000 0.0420 0 0] CC
(0.100) show
GR
/Font12 FFSF
0.0372 0.4526 m
GS
[0.0000 0.0420 -0.0420 0.0000 0 0] CC
(a \(m\)) show
GR
n
0.1832 0.1500 m
0.1832 0.8500 l
1.0384 0.8500 l
1.0384 0.1500 l
0.1832 0.1500 l
c
s
%%Trailer
%%BoundingBox: 2 34 638 512
%%DocumentNeededResources: font Helvetica
%%EOF
